<?xml version="1.0" encoding="utf-8"?>
<!-- Generator: Adobe Illustrator 16.0.0, SVG Export Plug-In . SVG Version: 6.00 Build 0)  -->
<!DOCTYPE svg PUBLIC "-//W3C//DTD SVG 1.1//EN" "http://www.w3.org/Graphics/SVG/1.1/DTD/svg11.dtd">
<svg version="1.1" id="图层_1" xmlns="http://www.w3.org/2000/svg" xmlns:xlink="http://www.w3.org/1999/xlink" x="0px" y="0px"
	 width="512px" height="512px" viewBox="0 0 512 512" enable-background="new 0 0 512 512" xml:space="preserve">
<rect x="68.199" y="8" opacity="0.2" enable-background="new    " width="374.594" height="496"/>
<rect x="68.199" y="8" opacity="0.08" enable-background="new    " width="382.594" height="504"/>
<rect x="72.199" y="12" opacity="0.1" enable-background="new    " width="374.594" height="496"/>
<rect x="72.199" y="12" fill="#1B5E20" width="366.594" height="488"/>
<g>
	
		<linearGradient id="SVGID_1_" gradientUnits="userSpaceOnUse" x1="338.6956" y1="1322.8005" x2="338.6955" y2="838.8005" gradientTransform="matrix(1 0 0 1 -83.2002 -824.8008)">
		<stop  offset="0" style="stop-color:#388E3C"/>
		<stop  offset="0.0757" style="stop-color:#43953E"/>
		<stop  offset="0.3246" style="stop-color:#62A943"/>
		<stop  offset="0.5665" style="stop-color:#79B747"/>
		<stop  offset="0.796" style="stop-color:#86C049"/>
		<stop  offset="1" style="stop-color:#8BC34A"/>
	</linearGradient>
	<rect x="74.185" y="14" fill="url(#SVGID_1_)" width="362.622" height="484"/>
	<path opacity="0.8" fill="#FFFFFF" enable-background="new    " d="M264.76,167.723v-0.425h-18.527v0.425H126.429v233.539h258.133
		V167.723H264.76z M144.99,237.062h57.633v37.308H144.99V237.062z M144.99,292.962h57.633v37.309H144.99V292.962z M221.812,292.962
		h144.191v37.309H221.812V292.962z M221.812,274.37v-37.308h144.191v37.308H221.812z M366.003,186.472v32.062H221.812v-32.062
		H366.003z M202.622,186.472v32.062H144.99v-32.062H202.622z M144.99,349.018h57.633v33.496H144.99V349.018z M221.812,382.514
		v-33.496h144.191v33.496H221.812z"/>
	<g>
		<rect x="74.091" y="14" opacity="0.8" fill="#FFFFFF" width="362.811" height="92.767"/>
	</g>
	<g>
		<path fill="#388E3C" d="M228.964,59.8c0,6.192-0.945,11.643-2.898,16.338c-1.954,4.695-4.601,8.618-7.94,11.785
			c-3.403,3.167-7.405,5.546-12.037,7.137c-4.664,1.607-9.643,2.411-14.999,2.411c-5.199,0-10.083-0.804-14.715-2.411
			c-4.632-1.591-8.634-3.97-12.068-7.137c-3.466-3.167-6.176-7.09-8.13-11.785c-1.985-4.695-2.962-10.146-2.962-16.338
			s1.008-11.627,3.088-16.322c2.017-4.695,4.79-8.634,8.256-11.848c3.466-3.182,7.5-5.593,12.1-7.184
			c4.569-1.607,9.39-2.411,14.432-2.411c5.199,0,10.083,0.804,14.715,2.411c4.633,1.591,8.635,4.002,12.069,7.184
			c3.466,3.214,6.176,7.153,8.129,11.848C227.988,48.173,228.964,53.608,228.964,59.8z M170.891,59.8
			c0,3.545,0.473,6.759,1.355,9.611c0.945,2.852,2.237,5.293,3.97,7.342c1.702,2.064,3.813,3.64,6.302,4.758
			c2.489,1.103,5.357,1.67,8.571,1.67c3.151,0,5.987-0.567,8.508-1.67c2.521-1.119,4.663-2.694,6.365-4.758
			c1.732-2.048,3.024-4.49,3.97-7.342c0.883-2.852,1.355-6.066,1.355-9.611s-0.473-6.759-1.355-9.642
			c-0.945-2.883-2.237-5.357-3.97-7.405c-1.702-2.048-3.845-3.64-6.365-4.758c-2.521-1.103-5.356-1.67-8.508-1.67
			c-3.214,0-6.082,0.583-8.571,1.733c-2.489,1.15-4.601,2.742-6.302,4.79c-1.733,2.064-3.025,4.522-3.97,7.405
			C171.364,53.152,170.891,56.334,170.891,59.8z"/>
		<path fill="#388E3C" d="M297.154,23.705v13.88h-22.94v58.42h-17.142v-58.42h-22.939v-13.88H297.154z"/>
		<path fill="#388E3C" d="M328.915,83.591c2.396,0,4.412-0.189,5.987-0.567c1.575-0.394,2.836-0.914,3.781-1.575
			c0.945-0.662,1.639-1.434,1.954-2.348c0.378-0.898,0.566-1.906,0.566-3.025c0-2.363-1.134-4.333-3.529-5.893
			c-2.331-1.56-6.364-3.246-12.036-5.058c-2.521-0.835-4.979-1.796-7.5-2.867c-2.458-1.071-4.727-2.442-6.68-4.065
			c-1.954-1.639-3.593-3.624-4.853-5.956c-1.261-2.332-1.828-5.167-1.828-8.492c0-3.34,0.63-6.349,1.954-9.027
			c1.323-2.679,3.214-4.963,5.608-6.838s5.356-3.324,8.76-4.333c3.467-1.008,7.311-1.513,11.659-1.513
			c5.104,0,9.579,0.52,13.297,1.576c3.719,1.04,6.807,2.19,9.201,3.435l-4.915,12.84c-2.143-1.056-4.475-1.969-7.122-2.773
			c-2.583-0.803-5.734-1.197-9.39-1.197c-4.097,0-6.995,0.536-8.823,1.623c-1.765,1.072-2.71,2.726-2.71,4.947
			c0,1.324,0.379,2.442,1.009,3.34c0.693,0.898,1.575,1.717,2.836,2.458c1.197,0.725,2.584,1.387,4.159,1.97
			c1.575,0.599,3.277,1.213,5.23,1.828c3.907,1.402,7.374,2.772,10.272,4.127c2.962,1.355,5.357,2.931,7.311,4.743
			c1.954,1.812,3.403,3.938,4.349,6.365c0.945,2.442,1.449,5.389,1.449,8.871c0,6.743-2.521,11.974-7.499,15.692
			c-4.979,3.734-12.479,5.593-22.499,5.593c-3.34,0-6.428-0.205-9.138-0.583s-5.104-0.851-7.185-1.402
			c-2.079-0.551-3.844-1.15-5.356-1.78c-1.513-0.614-2.773-1.213-3.781-1.765l4.789-12.935c2.27,1.182,5.105,2.237,8.445,3.183
			C320.03,83.118,324.063,83.591,328.915,83.591z"/>
	</g>
</g>
</svg>
