<?xml version="1.0" encoding="utf-8"?>
<!-- Generator: Adobe Illustrator 16.0.0, SVG Export Plug-In . SVG Version: 6.00 Build 0)  -->
<!DOCTYPE svg PUBLIC "-//W3C//DTD SVG 1.1//EN" "http://www.w3.org/Graphics/SVG/1.1/DTD/svg11.dtd">
<svg version="1.1" id="图层_1" xmlns="http://www.w3.org/2000/svg" xmlns:xlink="http://www.w3.org/1999/xlink" x="0px" y="0px"
	 width="128px" height="128px" viewBox="0 0 128 128" enable-background="new 0 0 128 128" xml:space="preserve">
<rect x="4" y="4" opacity="0.2" width="120" height="120"/>
<rect x="4" y="4" opacity="0.08" width="124" height="124"/>
<rect x="6" y="6" opacity="0.1" width="120" height="120"/>
<rect x="6" y="6" fill="#455A64" width="116" height="116"/>
<g>
	
		<linearGradient id="SVGID_1_" gradientUnits="userSpaceOnUse" x1="105.5996" y1="-42.9004" x2="105.5996" y2="-156.9009" gradientTransform="matrix(1 0 0 -1 -41.6001 -35.9004)">
		<stop  offset="0" style="stop-color:#90A4AE"/>
		<stop  offset="0.1378" style="stop-color:#849AA5"/>
		<stop  offset="0.4226" style="stop-color:#708A97"/>
		<stop  offset="0.7096" style="stop-color:#64808E"/>
		<stop  offset="1" style="stop-color:#607D8B"/>
	</linearGradient>
	<rect x="7" y="7" fill="url(#SVGID_1_)" width="114" height="114"/>
	<path opacity="0.8" fill="#FFFFFF" enable-background="new    " d="M92.262,79.065c0.127-0.175,0.183-0.351,0.294-0.525
		c0.183-0.346,0.354-0.64,0.474-0.985c0,0,0-0.052,0.047-0.052c0.819-1.81,1.516-3.738,1.984-5.766h7.622v-15.3H95.12
		c-0.755-3.201-2.044-6.159-3.67-8.898l5.352-5.352l-10.814-10.82l-5.355,5.354c-2.791-1.688-5.81-2.97-9.069-3.783h0.056v-7.622
		H56.326v7.622h0.056c-3.26,0.813-6.282,2.036-9.073,3.728l-5.352-5.354L31.198,42.136l5.344,5.344
		c-1.622,2.728-2.895,5.698-3.662,8.902h-7.566v15.292h7.618c0.763,3.204,2.043,6.167,3.674,8.958l0,0l-5.352,5.355l10.823,10.814
		l5.344-5.352c2.731,1.69,5.758,2.915,8.962,3.729v7.555h15.292V95.18l0,0l0,0c3.204-0.814,6.227-2.039,8.958-3.729l5.355,5.352
		l10.814-10.814l-5.352-5.355l0,0c0.175-0.29,0.354-0.637,0.521-0.927C92.043,79.475,92.15,79.236,92.262,79.065z M64,88.433
		c-13.49,0-24.437-10.93-24.437-24.433c0-13.491,10.946-24.435,24.437-24.435c2.668,0,5.232,0.417,7.674,1.219l0,0
		C81.391,43.991,88.433,53.177,88.433,64c0,0.641,0,1.336-0.067,1.98v0.056c-0.167,1.979-0.518,3.837-1.157,5.638
		c0,0.063-0.06,0.119-0.06,0.179c-0.405,1.165-0.867,2.263-1.396,3.32c-0.052,0.048-0.052,0.107-0.052,0.171
		c-0.299,0.524-0.585,1.041-0.875,1.511c0,0.06-0.06,0.06-0.06,0.119c-0.29,0.461-0.644,0.986-0.998,1.455l-0.048,0.06
		c-0.35,0.457-0.699,0.931-1.113,1.324c-0.056,0.063-0.111,0.127-0.171,0.183c-0.759,0.875-1.566,1.683-2.441,2.441
		c-0.056,0.06-0.119,0.115-0.23,0.171c-0.409,0.354-0.874,0.704-1.336,1.05c-0.067,0.063-0.123,0.111-0.234,0.111
		c-0.401,0.29-0.875,0.593-1.34,0.879c-0.06,0.06-0.119,0.06-0.167,0.119c-0.478,0.29-0.938,0.581-1.467,0.808
		c-0.111,0.06-0.231,0.127-0.343,0.179c-0.524,0.234-0.985,0.461-1.515,0.699c-0.056,0-0.107,0.056-0.175,0.056
		c-0.457,0.184-0.931,0.347-1.396,0.521C69.407,87.968,66.791,88.433,64,88.433z"/>
</g>
</svg>
