<?xml version="1.0" encoding="utf-8"?>
<!-- Generator: Adobe Illustrator 16.0.0, SVG Export Plug-In . SVG Version: 6.00 Build 0)  -->
<!DOCTYPE svg PUBLIC "-//W3C//DTD SVG 1.1//EN" "http://www.w3.org/Graphics/SVG/1.1/DTD/svg11.dtd">
<svg version="1.1" id="图层_1" xmlns="http://www.w3.org/2000/svg" xmlns:xlink="http://www.w3.org/1999/xlink" x="0px" y="0px"
	 width="128px" height="128px" viewBox="0 0 128 128" enable-background="new 0 0 128 128" xml:space="preserve">
<g id="surface1">
	<polygon opacity="0.2" enable-background="new    " points="18.5,124 18.5,4 109.5,4 109.5,90.203 75.703,124 	"/>
	<polygon opacity="0.08" enable-background="new    " points="18.5,128 18.5,4 113.5,4 113.5,93.031 78.531,128 	"/>
	<polygon opacity="0.1" enable-background="new    " points="20.5,126 20.5,6 111.5,6 111.5,92.203 77.703,126 	"/>
</g>
<linearGradient id="SVGID_1_" gradientUnits="userSpaceOnUse" x1="230.4004" y1="1675.9609" x2="230.4004" y2="1559.9609" gradientTransform="matrix(1 0 0 1 -166.4004 -1553.9609)">
	<stop  offset="0" style="stop-color:#455A64"/>
	<stop  offset="0.0238" style="stop-color:#465C66"/>
	<stop  offset="0.3557" style="stop-color:#556E7A"/>
	<stop  offset="0.6835" style="stop-color:#5D7987"/>
	<stop  offset="1" style="stop-color:#607D8B"/>
</linearGradient>
<path fill="url(#SVGID_1_)" d="M74.875,122L107.5,89.375V6h-87v116H74.875z"/>
<polygon fill="#263238" fill-opacity="0.3922" points="73.063,87.563 73.063,122 74.875,122 107.5,89.375 107.5,87.563 "/>
<path fill="#FFFFFF" fill-opacity="0.3922" d="M74.875,89.375h32.598L74.875,122V89.375z"/>
<g opacity="0.8">
	<path fill="#FFFFFF" d="M52.75,33.213c-8.334,0-18.826,7.881-18.727,20.086c0.084,11.816,4.014,18.217,7.023,25.461l8.913-3.703
		c-2.046-4.164-4.722-8.283-5.671-10.352c-2.648-5.77-3.547-8.369-3.32-12.766c0.205-4.248,1.621-6.846,4.227-9.359
		c2.599-2.506,6.209-3.773,10.5-3.179c6.195,0.85,9.459,4.318,11.031,7.483c0.885-0.127,1.791-0.233,2.797-0.227
		c0.777,0,1.564,0.057,2.336,0.227C70.195,40.308,61.996,33.213,52.75,33.213z M56.53,44.689c-3.795-0.247-9.324,1.601-9.289,7.406
		c0.021,5.486,3.462,9.6,7.548,11.25c-0.085-1.381,0.007-2.91,0.227-4.453c-2.217-1.203-3.562-3.35-3.773-6.344
		c-0.256-3.328,3.051-6.69,8.305-4.984c0.85,0.27,0.878-1.196-0.071-1.969C58.853,45.107,57.791,44.775,56.53,44.689z
		 M69.523,49.072c-0.666,0-1.297,0.021-1.891,0.078c0.154,0.588,0.268,1.183,0.305,1.656c0.381-0.021,0.799-0.014,1.203,0
		c1.117,0.057,2.152,0.234,3.102,0.531c0.035-0.623,0.014-1.218,0-1.813C71.342,49.242,70.43,49.08,69.523,49.072z M67.711,53.15
		c-0.596,2.557-2.387,5.693-6.047,6.57c-0.086,0.531-0.17,1.027-0.149,1.359c0.043,0.701,0.191,1.678,0.603,2.719
		c6.266-1.146,8.955-5.543,9.82-10.047c-0.836-0.332-1.793-0.545-2.945-0.602C68.545,53.129,68.1,53.115,67.711,53.15z
		 M57.359,59.799c-0.128,1.168-0.22,2.33-0.149,3.398c0.015,0.256,0.028,0.496,0.071,0.758c0.467,0.064,0.898,0.219,1.359,0.227
		c0.396,0,0.765-0.057,1.133-0.078c-0.368-1.041-0.623-2.031-0.68-2.867c-0.021-0.361-0.028-0.787,0-1.211
		C58.492,59.996,57.896,59.904,57.359,59.799z"/>
	<path fill="#CFD8DC" d="M87.137,33.248c3.018,7.229,7.01,13.602,7.096,25.426c0.092,12.205-10.451,20.1-18.791,20.1
		c-10.09,0-18.968-8.461-19.435-15.463c-0.425-6.322,1.841-15.52,13.544-15.456c5.586,0.036,11.393,4.856,11.42,12.036
		c0.043,7.746-9.742,8.51-12.205,6.535c-0.949-0.766-0.922-2.287-0.086-2.012c5.268,1.699,8.518-1.656,8.277-4.984
		c-0.326-4.537-3.031-7.229-7.881-7.447c-6.995-0.332-8.949,6.414-8.771,9.162c0.219,3.334,3.143,10.188,12.248,11.434
		c4.297,0.596,7.865-0.68,10.457-3.186c2.6-2.514,4.072-5.105,4.283-9.354c0.221-4.389-0.742-6.967-3.391-12.736
		c-0.949-2.067-3.59-6.209-5.643-10.373l8.885-3.682"/>
</g>
<g>
	<path fill="#263238" d="M107,6.5v82.668L74.668,121.5H49.5H21V6.5H107 M107.5,6h-87v116h29h25.375L107.5,89.375V6L107.5,6z"/>
</g>
</svg>
