<?xml version="1.0" encoding="utf-8"?>
<!-- Generator: Adobe Illustrator 16.0.0, SVG Export Plug-In . SVG Version: 6.00 Build 0)  -->
<!DOCTYPE svg PUBLIC "-//W3C//DTD SVG 1.1//EN" "http://www.w3.org/Graphics/SVG/1.1/DTD/svg11.dtd">
<svg version="1.1" id="图层_1" xmlns="http://www.w3.org/2000/svg" xmlns:xlink="http://www.w3.org/1999/xlink" x="0px" y="0px"
	 width="128px" height="128px" viewBox="0 0 128 128" enable-background="new 0 0 128 128" xml:space="preserve">
<polygon opacity="0.08" enable-background="new    " points="18.31,128 18.31,4 113.689,4 113.689,92.995 78.686,128 "/>
<polygon display="none" opacity="0.08" enable-background="new    " points="22.31,126 22.31,6 113.689,6 113.689,92.167 
	79.857,126 "/>
<polygon opacity="0.1" enable-background="new    " points="20.31,126 20.31,6 111.689,6 111.689,92.167 77.857,126 "/>
<polygon opacity="0.2" enable-background="new    " points="18.31,124 18.31,4 109.689,4 109.689,90.167 75.857,124 "/>
<polygon fill="#212121" points="20.298,122 20.298,6 107.702,6 107.702,89.339 75.033,122 "/>
<g>
	<g>
		<g>
			<g>
				<linearGradient id="SVGID_1_" gradientUnits="userSpaceOnUse" x1="63.9966" y1="121" x2="63.9966" y2="7.0005">
					<stop  offset="0" style="stop-color:#616161"/>
					<stop  offset="1" style="stop-color:#90A4AE"/>
				</linearGradient>
				<polygon fill="url(#SVGID_1_)" points="21.291,121 21.291,7 106.701,7 106.701,88.938 74.639,121 				"/>
			</g>
			<polygon fill="#9E9E9E" fill-opacity="0.39" points="106.701,88.938 106.701,87.557 72.88,87.557 72.88,121 74.639,121 			"/>
			<path fill="#FFFFFF" fill-opacity="0.3922" d="M74.595,88.938l32.114,0.045L74.639,121L74.595,88.938z"/>
		</g>
	</g>
	<g>
		<g opacity="0.8">
			<path fill="#FFFFFF" d="M50.095,74.821c-2.657,0-5.076-0.394-7.259-1.21c-2.182-0.816-4.06-1.996-5.625-3.548
				c-1.559-1.551-2.769-3.462-3.622-5.744c-0.861-2.282-1.292-4.891-1.292-7.827c0-2.935,0.49-5.548,1.447-7.823
				c0.973-2.278,2.271-4.197,3.904-5.748c1.641-1.555,3.548-2.735,5.737-3.544c2.182-0.813,4.513-1.217,6.969-1.217
				c1.573,0,2.991,0.104,4.238,0.304c1.262,0.201,2.338,0.442,3.272,0.709c0.928,0.271,1.686,0.538,2.264,0.809
				c0.587,0.271,0.98,0.475,1.203,0.608l-1.529,4.052c-0.326-0.204-0.802-0.423-1.425-0.657c-0.608-0.237-1.307-0.475-2.093-0.708
				c-0.787-0.238-1.641-0.431-2.568-0.583c-0.928-0.152-1.863-0.23-2.806-0.23c-1.996,0-3.8,0.319-5.403,0.961
				c-1.603,0.646-2.961,1.573-4.089,2.787c-1.128,1.217-1.989,2.69-2.591,4.431c-0.601,1.736-0.905,3.688-0.905,5.848
				c0,2.093,0.268,4,0.794,5.719c0.527,1.726,1.314,3.207,2.375,4.431c1.055,1.239,2.375,2.189,3.949,2.864
				c1.588,0.668,3.436,1.017,5.544,1.017c2.441,0,4.453-0.229,6.056-0.712c1.596-0.468,2.806-0.891,3.593-1.27l1.38,4.06
				c-0.252,0.164-0.712,0.371-1.38,0.624c-0.646,0.26-1.462,0.505-2.442,0.742c-0.994,0.229-2.137,0.431-3.443,0.616
				C53.034,74.747,51.624,74.821,50.095,74.821z"/>
		</g>
		<g opacity="0.8">
			<path fill="#FFFFFF" d="M78.03,47.843h8.572l1.855-9.678h4.446l-1.855,9.678h4.653v3.918h-5.447l-1.797,9.459h7.244v3.907h-7.986
				l-1.848,9.686h-4.445l1.855-9.686h-8.572l-1.849,9.686h-4.445l1.848-9.686H65.6v-3.907h5.396l1.803-9.459H65.6v-3.918h7.985
				l1.848-9.678h4.453L78.03,47.843z M75.433,61.221h8.58l1.855-9.459h-8.564L75.433,61.221z"/>
		</g>
	</g>
</g>
</svg>
