<?xml version="1.0" encoding="utf-8"?>
<!-- Generator: Adobe Illustrator 16.0.0, SVG Export Plug-In . SVG Version: 6.00 Build 0)  -->
<!DOCTYPE svg PUBLIC "-//W3C//DTD SVG 1.1//EN" "http://www.w3.org/Graphics/SVG/1.1/DTD/svg11.dtd">
<svg version="1.1" id="图层_1" xmlns="http://www.w3.org/2000/svg" xmlns:xlink="http://www.w3.org/1999/xlink" x="0px" y="0px"
	 width="32px" height="32px" viewBox="0 0 32 32" enable-background="new 0 0 32 32" xml:space="preserve">
<rect x="5.012" y="1" opacity="0.1" width="23.977" height="31"/>
<rect x="5.512" y="1.5" opacity="0.1" width="22.977" height="30"/>
<rect x="5.012" y="1" opacity="0.2" width="22.977" height="30"/>
<rect x="5.512" y="1.5" fill="#0D47A1" width="21.977" height="29"/>
<g>
	
		<linearGradient id="SVGID_1_" gradientUnits="userSpaceOnUse" x1="58.1006" y1="-161.3999" x2="58.1006" y2="-134.4004" gradientTransform="matrix(1 0 0 -1 -41.6001 -131.9004)">
		<stop  offset="0" style="stop-color:#1976D2"/>
		<stop  offset="0.0226" style="stop-color:#1C79D3"/>
		<stop  offset="0.2859" style="stop-color:#3B93E2"/>
		<stop  offset="0.5416" style="stop-color:#52A6ED"/>
		<stop  offset="0.7843" style="stop-color:#5FB1F4"/>
		<stop  offset="1" style="stop-color:#64B5F6"/>
	</linearGradient>
	<rect x="6.385" y="2.5" fill="url(#SVGID_1_)" width="20.23" height="27"/>
	<path fill="#64B5F6" d="M23.531,13.975c0,3.881-3.15,7.031-7.031,7.031s-7.031-3.15-7.031-7.031s3.15-7.031,7.031-7.031
		S23.531,10.094,23.531,13.975z"/>
	<path fill="#FFFFFF" fill-opacity="0.8" d="M11.887,8.677c0,0,0.146,0.077,0.202,0.202c0.047,0.123,0.202,0.123,0.202,0.123h0.225
		l0.328-0.1l-0.079,0.179c0,0-1.722,0.798-1.374,1.271c0.351,0.473,0.227,0.596,0.227,0.743c0,0.146,0.102,0.021,0.102,0.021
		l0.102-0.27l0.146-0.202l0.146-0.225l0.047-0.125l0.202-0.348l0.247-0.146l0.225,0.146c0,0,0.101,0.044,0.078,0.123
		c-0.021,0.079-0.044,0.225-0.044,0.225s0.044,0.102,0.123,0.102s0.202-0.079,0.202-0.079l0.102,0.18l0.079,0.327l0.202,0.202
		l0.102,0.225l-0.102,0.202l0.102,0.079l0.227,0.248l0.044,0.123l-0.372-0.021c0,0-0.045-0.102-0.123-0.102
		c-0.079,0-0.393-0.022-0.393-0.022l-0.183,0.045l-0.099,0.123c0,0-0.126,0.202-0.205,0.202c-0.076,0-0.269-0.044-0.269-0.044
		s-0.146-0.045-0.225,0.101C12,12.333,12.202,12.41,12.202,12.41l-0.348,0.103l-0.104,0.046c0,0-0.247,0.1-0.247,0.179
		s0,0.079,0,0.079l-0.078,0.202v0.123l-0.181,0.147l-0.18,0.123l-0.079,0.146v0.248c0,0-0.022,0.123-0.022,0.202s0,0.271,0,0.271
		s-0.079,0.079-0.123-0.079c-0.045-0.146-0.045-0.146-0.045-0.146l-0.079-0.181c0,0,0.079-0.021-0.021-0.101
		c-0.102-0.079-0.203-0.102-0.203-0.102s-0.044-0.044-0.147-0.044c-0.099,0,0.126,0.021-0.099,0
		c-0.227-0.022-0.227-0.022-0.227-0.022L9.839,13.75v0.123c0,0-0.044,0.879,0.202,1.002h0.102l0.147-0.225l0.124,0.045v0.101
		l-0.022,0.181v0.101l0.123,0.125l0.079,0.225c0.102,0.18,0.045,0.226,0.123,0.27c0.079,0.045,0.146,0.181,0.146,0.181l0.101,0.044
		c0,0,0.079,0.022,0.146,0.046c0.079,0.022,0.079,0.022,0.079,0.022l0.024,0.112l0.022,0.09l0.101,0.123c0,0-0.078,0,0.102,0
		s0.18,0,0.18,0s0,0.046,0.124,0.103c0.123,0.044,0.022,0.022,0.123,0.044c0.102,0.022,0.271,0.045,0.271,0.045
		c0.178-0.022,0.178-0.022,0.178-0.022l0.126,0.181c0,0,0.076,0,0.101,0.078c0.022,0.079-0.123,0,0.022,0.079s0,0.022,0.146,0.079
		s-0.044,0.045,0.146,0.045c0.192,0,0.225,0,0.304,0.021c0.079,0.022,0.126,0.203,0.126,0.203c0.146,0.18,0.146,0.18,0.146,0.18
		l0.022,0.225c0,0-0.079,0.047,0.101,0.047c0.181,0,0.045,0,0.181,0c0.135,0-0.022-0.047,0.123,0
		c0.146,0.044,0.146,0.044,0.146,0.044s0.227,0.181,0.306,0.181s0.225-0.022,0.304,0c0.079,0.021,0.123,0.146,0.269,0.18
		c0.148,0.022,0.203,0,0.304,0.079c0.102,0.079,0.102,0.079,0.102,0.079l0.024,0.269l-0.079,0.146l-0.202,0.079l-0.024,0.249
		l-0.102,0.247v0.123c0,0,0.126,0.102-0.101,0.124c-0.225,0.021-0.225,0.021-0.225,0.021l-0.102,0.102c0,0,0,0.023-0.045,0.104
		c-0.044,0.076-0.101,0.201-0.101,0.201l0.022,0.226v0.146l-0.079,0.123c0,0-0.069,0.035,0.123,0.158
		c0.202,0.123,0.36,0.123,0.405,0.202c0.044,0.079,0.17,0.146,0.17,0.146l-0.271-0.057l-0.168-0.055l-0.281-0.078l-0.54-0.281
		c0,0-0.81-0.664-1.059-1.204c0,0-0.212-0.315-0.572-0.45c0,0-0.891-0.811-0.97-1.013l-0.032-0.136v-0.066l-0.034-0.035v-0.076
		l-0.022-0.057l0.013-0.248l0.01-0.169l0.012-0.089l-0.012-0.069c0,0-0.045-0.044-0.045-0.057c0-0.01-0.034-0.112-0.034-0.112
		l-0.01-0.033l0.136-0.112l-0.035-0.103l0.022-0.056l0.079-0.057c0,0,0.045-0.066,0.045-0.077c0-0.022-0.079-0.079-0.079-0.079
		L11.09,16.09l-0.035,0.102h-0.044c0,0-0.047-0.022-0.047-0.033c0-0.013-0.044-0.057-0.044-0.057l-0.057-0.022
		c0,0-0.045-0.013-0.055-0.033c-0.013-0.023-0.069-0.057-0.069-0.068c0-0.011-0.044-0.079-0.044-0.079l-0.057-0.021
		c0,0-0.067-0.102-0.067-0.125c0-0.011-0.034-0.066-0.034-0.066s-0.079-0.09-0.079-0.103c0-0.01-0.034-0.089-0.034-0.089h-0.055
		l-0.123-0.046l-0.079-0.101l-0.091-0.102c0,0-0.045-0.079-0.045-0.101c0-0.022-0.034-0.046-0.034-0.046H9.94H9.908l-0.079-0.066
		l-0.202-0.281l-0.035-0.125l-0.034-0.135l-0.022-0.226v-0.146l-0.089-1.046C9.479,13.086,9.782,10.498,11.887,8.677z"/>
	<path fill="#FFFFFF" fill-opacity="0.8" d="M19.828,7.798l0.227,0.182l0.111,0.056l0.079,0.09l0.013,0.09
		c0,0,0.021,0.09,0.01,0.112c-0.01,0.022-0.022,0.146-0.022,0.146s0.102,0.182,0.102,0.204c0,0.021,0.012,0.123-0.011,0.146
		c-0.021,0.01-0.147,0.089-0.157,0.056c-0.013-0.033-0.089-0.112-0.113-0.112c-0.022-0.013-0.089-0.079-0.089-0.079l0.18-0.022
		l-0.022-0.113c0,0-0.123-0.044-0.157-0.044c-0.035-0.012-0.158-0.079-0.158-0.079l-0.136-0.033c0,0-0.225-0.056-0.247-0.068
		c-0.021-0.011-0.113-0.044-0.113-0.044h-0.189c0,0-0.092,0.044-0.113,0.066c-0.011,0.023-0.124,0.146-0.124,0.146
		s-0.01,0.146-0.01,0.169c0,0.022-0.034,0.079-0.034,0.146c0,0.068-0.013,0.158-0.013,0.181c0,0.023,0,0.057,0,0.057l-0.022,0.101
		l-0.078,0.045l-0.102,0.079c0,0-0.089,0.067-0.089,0.09c0,0.023,0,0.112,0.032,0.18c0.034,0.068,0.024,0.135,0.068,0.169
		c0.045,0.035,0.067,0.079,0.102,0.091c0.032,0.011,0.01,0.021,0.066,0.021c0.045,0,0.092,0.012,0.113-0.011
		c0.022-0.011,0.079-0.011,0.102-0.046c0.022-0.033-0.022-0.011,0.022-0.033c0.044-0.011,0.044-0.044,0.079-0.011
		c0.044,0.033,0.078,0.079,0.089,0.101c0.012,0.022,0.044,0.079,0.079,0.112c0.044,0.022,0.078,0.112,0.078,0.112l0.069,0.068
		c0,0,0.01,0.011,0.055,0.011c0.044,0,0.113-0.011,0.113-0.011l0.022-0.045c0,0,0.044,0.012,0.057-0.011
		c0.01-0.023,0.01-0.057,0.01-0.057s-0.022-0.068-0.045-0.09c-0.01-0.022-0.034-0.079-0.034-0.079l0.013-0.079l0.044-0.045
		l0.013-0.057V9.588L19.65,9.564l-0.079-0.044c0,0-0.044,0.011-0.044-0.046C19.515,9.43,19.515,9.43,19.515,9.43l-0.101-0.021
		l-0.069-0.035l0.079-0.057c0.047-0.077,0.057-0.1,0.057-0.123c0-0.022-0.01-0.089-0.01-0.089s-0.047-0.013-0.047-0.069
		c-0.01-0.056-0.01-0.089-0.01-0.089l0.01-0.044c0,0,0.012-0.035,0.047-0.035c0.021,0,0.066,0.035,0.089,0.035
		s0.066,0.01,0.066,0.01s0.024,0.011,0.024,0.046c0,0.021-0.012,0.077-0.012,0.077l0.044-0.066v0.079l-0.01,0.09v0.09l0.044,0.089
		l0.045,0.069c0,0,0.057,0.056,0.079,0.079c0.022,0.01,0.079,0.056,0.079,0.056l0.066,0.033l0.047,0.011l0.044-0.044
		c0,0,0.079,0.011,0.079-0.012c0.01-0.023,0.01-0.023,0.01-0.023s0.092-0.011,0.113-0.011c0.022,0,0.067,0,0.067,0
		s0.034,0.067,0.012,0.067s-0.034,0.022-0.091,0.046c-0.055,0.01-0.079,0-0.089,0.022c-0.013,0.022-0.045,0.079-0.045,0.079
		L20.179,9.7h0.034l0.045,0.046c0,0,0.01,0.01,0,0.044c-0.013,0.033,0.044,0.022-0.013,0.033c-0.066,0.012-0.101-0.011-0.101-0.011
		S20.134,9.756,20.1,9.779c-0.022,0.022-0.034,0.079-0.034,0.079v0.077l0.044,0.112c0,0,0.024,0.023,0,0.035
		c-0.02,0.011-0.099,0.101-0.099,0.101s-0.013,0.033-0.047,0.033c-0.022,0-0.057,0-0.111,0.013c-0.044,0.01-0.044,0.01-0.091,0.022
		c-0.045,0.011-0.079,0.021-0.146,0.033c-0.069,0.011-0.192,0.011-0.237,0.011c-0.044,0-0.057,0-0.078-0.011
		c-0.022-0.012-0.011,0-0.045-0.046c-0.034-0.044-0.066-0.079-0.066-0.112c0-0.022,0-0.033-0.013-0.079
		c-0.01-0.044-0.01-0.077-0.044-0.077c-0.045,0-0.045,0-0.045,0s-0.091,0.066-0.079,0.09c0.011,0.022-0.012,0,0.067,0.056
		c0.078,0.057,0.101,0.136,0.101,0.136l-0.01,0.077l-0.147,0.079l-0.102,0.033l-0.01,0.069c0,0,0,0.022-0.022,0.056
		c-0.024,0.033-0.079,0.079-0.079,0.079s-0.047,0.011-0.057,0.044c-0.012,0.023-0.047,0.112-0.047,0.112s-0.044-0.01-0.089,0.023
		c-0.044,0.033,0.013,0.033-0.089,0.079c-0.104,0.044-0.104,0.044-0.104,0.044l-0.111-0.011l-0.066,0.022
		c0,0-0.091,0.011-0.104,0.034c-0.01,0.022-0.055,0.089-0.055,0.089s-0.021,0.046,0,0.046c0.022,0.011,0.055,0,0.111,0.011
		c0.047,0.013,0.057,0.013,0.092,0.033c0.034,0.013,0.066,0.046,0.066,0.046l0.123,0.112l0.069,0.146l-0.013,0.112l-0.133,0.046
		c0,0-0.079,0-0.113,0c-0.022,0-0.013,0-0.148,0c-0.133,0-0.155,0-0.178,0c-0.024,0-0.113-0.013-0.113-0.013l-0.079,0.013
		l-0.057,0.044l-0.032,0.012c0,0,0.045,0.101,0.045,0.136c0,0.033,0,0.077,0,0.077l-0.013,0.068l-0.032,0.079l-0.047,0.077
		l0.013,0.046c0,0-0.013,0.033,0.01,0.033c0.024,0,0.091-0.01,0.091,0.013c0,0.021-0.057,0.112-0.057,0.112l0.113,0.021
		c0,0-0.012-0.011,0.055,0.012c0.069,0.011,0.113,0.034,0.113,0.034l0.079,0.056l0.022,0.046l0.022-0.046
		c0,0,0.123-0.011,0.147-0.022c0.022-0.011,0.079-0.011,0.079-0.011h0.099c0,0,0.024,0.011,0.047-0.013
		c0.01-0.021,0.01-0.021,0.01-0.021s0.113-0.046,0.136-0.068c0.022-0.011,0.034-0.079,0.034-0.079s0.035-0.021,0.035-0.044
		c0-0.023-0.024-0.079-0.024-0.079v-0.046l0.034-0.044c0,0,0.01-0.013,0.045-0.046c0.034-0.033,0.034-0.033,0.034-0.033
		s-0.013-0.011,0.034-0.033c0.045-0.013,0.079-0.046,0.102-0.046c0.021,0-0.022,0.022,0.021,0c0.045-0.023,0.055-0.044,0.055-0.079
		c0-0.021,0.013-0.146,0.013-0.146l0.044-0.066l0.113,0.011l0.057,0.012c0,0,0.067,0.011,0.079-0.012
		c0.011-0.023,0.045-0.044,0.045-0.044l0.089-0.046c0,0-0.01-0.011,0.034-0.011c0.045,0,0.113,0,0.146,0c0.022,0,0.079,0,0.079,0
		s0.047,0.021,0.069,0.044c0.01,0.023,0.044,0.079,0.044,0.079l0.032,0.046h0.035c0.044,0.033,0.068,0.057,0.147,0.077
		c0.079,0.023,0.134,0.046,0.134,0.046s0.021,0.046,0.044,0.066c0.024,0.023,0.047,0.046,0.079,0.069
		c0.024,0.01,0.047,0.033,0.057,0.056c0.012,0.023,0.047,0.067,0.047,0.067l0.044,0.045l0.022-0.045v-0.079l-0.012-0.044
		c0,0-0.045-0.034,0.012-0.034c0.045,0,0.079,0,0.079,0l-0.047-0.068l-0.055-0.022l-0.079-0.057l-0.034-0.033l-0.034-0.011
		l-0.032-0.022l-0.047-0.033c0,0-0.079-0.013-0.079-0.046c-0.01-0.023-0.01-0.023-0.01-0.023l-0.079-0.01
		c0,0-0.079-0.046-0.079-0.067c0-0.022-0.01-0.091-0.01-0.091l-0.068-0.011c0,0,0.012-0.046,0.012-0.079
		c0-0.023,0.022-0.057,0.022-0.057l0.146-0.011l0.034,0.079l0.057,0.034l0.079,0.033l0.032,0.046l0.034,0.033
		c0,0,0.013,0.011,0.057,0.022c0.045,0.011,0.079,0.021,0.079,0.021s0.045,0.046,0.079,0.046c0.032,0.01,0.045,0.022,0.079,0.033
		c-0.024,0.022-0.024,0.022-0.024,0.022s0.012,0.023,0.047,0.046c0.032,0.021,0.066,0.066,0.066,0.09c0,0.022,0.022,0.1,0.045,0.112
		c0.021,0.011,0.034,0.011,0.078,0.057c0.045,0.044,0.045,0.089,0.079,0.112c0.045,0.011,0.079,0,0.079,0.044
		c0.01,0.046,0.01,0.079,0.01,0.079s0.035,0.012,0.06,0.012c0.021,0,0.066-0.045,0.066-0.045s0.045-0.067,0.01-0.079
		c-0.02-0.011-0.076-0.011-0.076-0.034c0-0.022,0-0.146,0-0.146l0.032-0.079l0.044-0.066l0.069,0.021l0.066-0.044l0.069,0.079
		l-0.022,0.09c0,0,0.01,0.057,0.044,0.101c0.022,0.045,0.079,0.102,0.079,0.102l0.111,0.102l0.158,0.044l0.034-0.01l0.234-0.046
		c0,0,0.035,0,0.057,0c0.022,0,0.136,0.191,0.136,0.191s0,0.079,0,0.123c0,0.046,0,0.158,0,0.158s-0.079,0.079-0.113,0.079
		c-0.032,0-0.123,0.044-0.123,0.044l-0.19,0.046l-0.123-0.011l-0.225-0.013c0,0-0.227-0.01-0.249-0.01s-0.102,0-0.124,0
		c-0.024,0-0.057,0.022-0.079,0.089c-0.021,0.067-0.068,0.09-0.068,0.09s0,0.033-0.045,0.033c-0.044,0-0.044,0.013-0.078-0.01
		c-0.035-0.023-0.19-0.057-0.19-0.057l-0.146-0.102l-0.079-0.067l-0.079-0.011h-0.227l-0.146-0.012l0.022-0.235l0.021,0.066
		l-0.044-0.156l-0.067-0.046l-0.157-0.033l-0.102,0.011l-0.136,0.033L19.246,12.4l-0.079,0.022l-0.385,0.066l-0.134,0.057
		c0,0-0.057,0.033-0.078,0.046c-0.022,0.011-0.113,0.011-0.113,0.011s-0.067-0.011-0.102-0.023
		c-0.032-0.011-0.111-0.011-0.146-0.011s-0.102-0.01-0.124,0c-0.021,0.011-0.044,0.011-0.068,0.046
		c-0.022,0.033-0.102,0.123-0.102,0.123s-0.044,0.046-0.066,0.067c-0.01,0.022-0.066,0.091-0.066,0.091l-0.092,0.146l-0.057,0.066
		l0.013,0.079v0.057c0,0-0.034,0.033-0.057,0.045c-0.022,0.011-0.067,0.034-0.067,0.034s-0.034,0.01-0.068,0.044
		c-0.032,0.022-0.032,0.035-0.055,0.056c-0.024,0.023-0.104,0.079-0.104,0.079s-0.044,0.033-0.076,0.068
		c-0.022,0.034-0.069,0.078-0.079,0.101c-0.013,0.022-0.047,0.046-0.069,0.057c-0.021,0.012-0.066,0.102-0.076,0.124
		c-0.013,0.021-0.079,0.123-0.079,0.123l-0.047,0.192l-0.01,0.089c0,0,0.01,0.034,0.032,0.057c0.024,0.022,0.047,0.112,0.047,0.112
		v0.079c0,0-0.022,0.067-0.035,0.09c-0.012,0.022,0.013,0.136,0.013,0.136v0.066c0,0,0,0.022-0.034,0.057
		c-0.035,0.033-0.045,0.079-0.045,0.079l0.045,0.102l0.034,0.066v0.046l0.044,0.077c0,0,0.022,0.023,0.045,0.046
		c0.022,0.011,0.034,0.011,0.079,0.046c0.044,0.021,0.044,0.021,0.044,0.021s0.069,0.079,0.069,0.112
		c0,0.022,0.044,0.068,0.044,0.068l0.079,0.079c0,0,0.011,0.044,0.055,0.077c0.047,0.035,0.091,0.057,0.113,0.079
		c0.022,0.013,0.089,0.068,0.146,0.079c0.047,0.011,0.069,0.023,0.092,0.023c0.021,0-0.035-0.069,0.123,0.01
		s0.259,0.113,0.259,0.113l0.111,0.045c0,0,0.183,0.011,0.202-0.012C18.446,16,18.479,16,18.501,16c0.024,0,0.079,0,0.126,0
		c0.044,0,0.202-0.022,0.202-0.022l0.18-0.067c0,0,0.055-0.033,0.079-0.046c0.022-0.01,0.089-0.056,0.111-0.066
		c0.022-0.013,0.136-0.013,0.136-0.013s0-0.033,0.044,0c0.045,0.035,0.045,0.046,0.057,0.069c0.013,0.022,0.013,0.079,0.045,0.079
		c0.034,0.01,0.113,0.033,0.113,0.033s0.111-0.013,0.146,0c0.034,0.011,0.113,0.011,0.113,0.011l0.032,0.045l0.013,0.101v0.092
		c0,0-0.013,0.033,0,0.066c0.01,0.033,0.044,0.09,0.044,0.09s-0.044,0.068-0.066,0.079s-0.079,0.079-0.079,0.079l0.158,0.146
		l0.089,0.089l0.066,0.079c0,0,0.013,0.033,0.013,0.057c0,0.022-0.013,0.079,0,0.111c0.012,0.023,0.012,0.113,0.012,0.113
		s0.011,0.066,0.011,0.09s-0.022,0.135-0.022,0.135l-0.013,0.079l-0.044,0.136l-0.055,0.066l-0.079,0.079l-0.057,0.091l-0.012,0.123
		l-0.045,0.078c0,0,0.01,0.068,0.01,0.103c0,0.032,0.069,0.155,0.069,0.155l-0.013,0.104c0,0-0.044,0.146-0.044,0.178
		c0,0.035-0.032,0.08-0.032,0.113c0,0.022-0.013,0.125-0.013,0.125l0.013,0.123l0.044,0.125l-0.044,0.111
		c0,0-0.024,0.091-0.024,0.146c0,0.045,0.079,0.1,0.101,0.1c0.022,0,0.126-0.01,0.17-0.043c0.045-0.023,0.158-0.057,0.181-0.068
		s0.044,0.012,0.111-0.044c0.068-0.046,0.17-0.126,0.17-0.126s0.079-0.055,0.111-0.076c0.024-0.023,0.136-0.148,0.136-0.148
		s0.078-0.076,0.135-0.111c0.055-0.034,0-0.012,0.055-0.045c0.06-0.033,0.239-0.182,0.239-0.182l0.178-0.178
		c0,0,0.158-0.203,0.183-0.236c0.022-0.035,0.168-0.225,0.19-0.237c0.021-0.011,0.225-0.146,0.269-0.18
		c0.047-0.032,0.104-0.271,0.126-0.304c0.021-0.022,0.146-0.304,0.146-0.304l0.113-0.325l0.19-0.485l0.189-0.338
		c0,0,0.079-0.146,0.113-0.189c0.022-0.046,0.203-0.394,0.203-0.394l0.068-0.294l0.022-0.248H23.07l-0.124,0.112l-0.113-0.033
		l-0.111,0.013l0.124-0.158l-0.034-0.123l-0.102-0.079l-0.136-0.202v-0.204l-0.146-0.235l-0.089-0.371c0,0-0.17-0.181-0.146-0.225
		c0.01-0.046,0.055-0.182,0.055-0.182l0.091,0.046c0,0,0.066,0.18,0.101,0.191c0.035,0.011,0.079,0.101,0.09,0.123
		c0.012,0.023,0.021,0.103,0.044,0.125c0.013,0.021,0.091,0.169,0.091,0.169s0.057,0.146,0.067,0.179
		c0.012,0.023,0.068,0.113,0.079,0.18c0.012,0.068,0.044,0.281,0.044,0.304c0,0.023,0.057,0.259,0.057,0.259
		s0.079-0.021,0.091-0.044c0.011-0.022,0.011-0.033,0.035-0.057c0.01-0.022,0.146-0.124,0.146-0.124l0.057-0.18
		c0,0,0.032-0.079,0.044-0.112c0.011-0.033,0.079-0.158,0.079-0.18c0-0.022-0.012-0.112,0-0.147c0.011-0.021,0.045-0.156,0.045-0.18
		c0-0.022,0.01-0.112,0.01-0.112l-0.01-0.202l0.089-0.112l0.047-0.125C23.521,13.098,23.193,9.564,19.828,7.798z"/>
</g>
</svg>
