<?xml version="1.0" encoding="utf-8"?>
<!-- Generator: Adobe Illustrator 16.0.0, SVG Export Plug-In . SVG Version: 6.00 Build 0)  -->
<!DOCTYPE svg PUBLIC "-//W3C//DTD SVG 1.1//EN" "http://www.w3.org/Graphics/SVG/1.1/DTD/svg11.dtd">
<svg version="1.1" id="图层_1" xmlns="http://www.w3.org/2000/svg" xmlns:xlink="http://www.w3.org/1999/xlink" x="0px" y="0px"
	 width="32px" height="32px" viewBox="0 0 32 32" enable-background="new 0 0 32 32" xml:space="preserve">
<polygon opacity="0.08" enable-background="new    " points="5.077,32 5.077,1 28.923,1 28.923,23.249 20.172,32 "/>
<polygon opacity="0.1" enable-background="new    " points="5.577,31.5 5.577,1.5 28.423,1.5 28.423,23.042 19.965,31.5 "/>
<polygon opacity="0.2" enable-background="new    " points="5.077,31 5.077,1 27.923,1 27.923,22.542 19.465,31 "/>
<polygon fill="#455A64" points="5.512,30.5 5.512,1.5 27.488,1.5 27.488,22.335 19.274,30.5 "/>
<g>
	<g>
		<g>
			
				<linearGradient id="SVGID_1_" gradientUnits="userSpaceOnUse" x1="58.1006" y1="420.8994" x2="58.1006" y2="448.9004" gradientTransform="matrix(1 0 0 1 -41.6001 -418.9004)">
				<stop  offset="0" style="stop-color:#90A4AE"/>
				<stop  offset="0.1378" style="stop-color:#849AA5"/>
				<stop  offset="0.4226" style="stop-color:#708A97"/>
				<stop  offset="0.7096" style="stop-color:#64808E"/>
				<stop  offset="1" style="stop-color:#607D8B"/>
			</linearGradient>
			<polygon fill="url(#SVGID_1_)" points="6.011,30 6.011,2 26.989,2 26.989,22.125 19.114,30 			"/>
		</g>
		<polygon fill="#455A64" fill-opacity="0.39" points="26.989,22.125 26.989,21.787 18.683,21.787 18.683,30 19.114,30 		"/>
		<path fill="#FFFFFF" fill-opacity="0.39" d="M19.102,22.125l7.888,0.01L19.114,30L19.102,22.125z"/>
	</g>
	<g opacity="0.8">
		<g>
			<polygon fill="#FFFFFF" points="14.026,14.868 10.877,12.781 13.699,11.928 			"/>
		</g>
		<polygon fill="#FFFFFF" points="16.231,18.299 17.48,18.299 17.48,17.248 16.242,17.248 15.613,17.773 		"/>
		<g>
			<polygon fill="#FFFFFF" points="18.168,13.608 21.284,11.45 21.016,14.391 			"/>
			<g>
				<polygon fill="#FFFFFF" points="21.085,13.598 20.374,12.559 19.499,13.166 20.188,14.157 21.016,14.391 				"/>
				<polygon fill="#FFFFFF" points="23.5,17.098 21.354,13.993 21.284,14.786 20.456,14.553 22.31,17.248 17.796,17.248 
					17.782,18.299 22.684,18.299 22.684,18.299 22.684,18.299 				"/>
			</g>
			<g>
				<polygon fill="#FFFFFF" points="12.896,12.174 12.195,13.176 13.082,13.76 13.793,12.744 13.699,11.928 				"/>
				<polygon fill="#FFFFFF" points="17.316,8.136 15.672,8.136 13.175,11.766 13.968,11.532 14.063,12.349 16.5,8.814 
					19.324,12.908 20.199,12.314 				"/>
				<polygon fill="#FFFFFF" points="10.69,17.248 12.906,14.017 12.021,13.434 9.5,17.098 9.5,17.098 9.5,17.098 10.061,17.9 
					10.327,18.299 15.754,18.299 15.134,17.773 15.754,17.248 				"/>
			</g>
		</g>
		<g>
			<polygon fill="#FFFFFF" points="17.876,15.883 17.876,19.664 15.613,17.773 			"/>
		</g>
		<polygon fill="#FFFFFF" points="12.021,13.434 12.499,12.744 13.642,13.001 12.824,14.145 		"/>
		<polygon fill="#FFFFFF" points="18.892,12.291 19.626,13.352 20.524,12.768 19.78,11.707 		"/>
		<rect x="17.199" y="17.248" fill="#FFFFFF" width="0.772" height="1.051"/>
	</g>
</g>
</svg>
