<?xml version="1.0" encoding="utf-8"?>
<!-- Generator: Adobe Illustrator 17.1.0, SVG Export Plug-In . SVG Version: 6.00 Build 0)  -->
<!DOCTYPE svg PUBLIC "-//W3C//DTD SVG 1.1//EN" "http://www.w3.org/Graphics/SVG/1.1/DTD/svg11.dtd">
<svg version="1.1" id="图层_1" xmlns="http://www.w3.org/2000/svg" xmlns:xlink="http://www.w3.org/1999/xlink" x="0px" y="0px"
	 width="22px" height="22px" viewBox="0 0 22 22" enable-background="new 0 0 22 22" xml:space="preserve">
<rect x="2.6" fill="#607D8B" width="16.7" height="22"/>
<g>
	
		<linearGradient id="SVGID_1_" gradientUnits="userSpaceOnUse" x1="52.6001" y1="-395.4004" x2="52.6001" y2="-416.4004" gradientTransform="matrix(1 0 0 -1 -41.6001 -394.9004)">
		<stop  offset="0" style="stop-color:#F5F5F5"/>
		<stop  offset="0.341" style="stop-color:#F1F2F3"/>
		<stop  offset="0.6434" style="stop-color:#E7EAEC"/>
		<stop  offset="0.9302" style="stop-color:#D5DCE0"/>
		<stop  offset="1" style="stop-color:#CFD8DC"/>
	</linearGradient>
	<rect x="3.1" y="0.5" fill="url(#SVGID_1_)" width="15.7" height="21"/>
</g>
</svg>
