<?xml version="1.0" encoding="utf-8"?>
<!-- Generator: Adobe Illustrator 17.1.0, SVG Export Plug-In . SVG Version: 6.00 Build 0)  -->
<!DOCTYPE svg PUBLIC "-//W3C//DTD SVG 1.1//EN" "http://www.w3.org/Graphics/SVG/1.1/DTD/svg11.dtd" [
	<!ENTITY ns_extend "http://ns.adobe.com/Extensibility/1.0/">
	<!ENTITY ns_ai "http://ns.adobe.com/AdobeIllustrator/10.0/">
	<!ENTITY ns_graphs "http://ns.adobe.com/Graphs/1.0/">
	<!ENTITY ns_vars "http://ns.adobe.com/Variables/1.0/">
	<!ENTITY ns_imrep "http://ns.adobe.com/ImageReplacement/1.0/">
	<!ENTITY ns_sfw "http://ns.adobe.com/SaveForWeb/1.0/">
	<!ENTITY ns_custom "http://ns.adobe.com/GenericCustomNamespace/1.0/">
	<!ENTITY ns_adobe_xpath "http://ns.adobe.com/XPath/1.0/">
]>
<svg version="1.1"
	 id="svg2" xmlns:x="&ns_extend;" xmlns:i="&ns_ai;" xmlns:graph="&ns_graphs;" inkscape:version="0.48.4 r9939" sodipodi:docname="computer.svg" xmlns:dc="http://purl.org/dc/elements/1.1/" xmlns:sodipodi="http://sodipodi.sourceforge.net/DTD/sodipodi-0.dtd" xmlns:rdf="http://www.w3.org/1999/02/22-rdf-syntax-ns#" xmlns:svg="http://www.w3.org/2000/svg" xmlns:cc="http://creativecommons.org/ns#" xmlns:inkscape="http://www.inkscape.org/namespaces/inkscape"
	 xmlns="http://www.w3.org/2000/svg" xmlns:xlink="http://www.w3.org/1999/xlink" x="0px" y="0px" width="22px" height="22px"
	 viewBox="0 0 22 22" style="enable-background:new 0 0 22 22;" xml:space="preserve">
<metadata  id="metadata26">
	<rdf:RDF>
		<cc:Work  rdf:about="">
			<dc:format>image/svg+xml</dc:format>
			<dc:type  rdf:resource="http://purl.org/dc/dcmitype/StillImage"></dc:type>
		</cc:Work>
	</rdf:RDF>
	<sfw  xmlns="&ns_sfw;">
		<slices></slices>
		<sliceSourceBounds  height="22" width="16.8" x="411.6" y="584.6" bottomLeftOrigin="true"></sliceSourceBounds>
	</sfw>
</metadata>
<polygon style="fill:#0D47A1;" points="2.6,22 2.6,0 19.4,0 19.4,15.8 13.1,22 "/>
<g>
	<g>
		<g>
			<g>
				
					<linearGradient id="SVGID_1_" gradientUnits="userSpaceOnUse" x1="11" y1="700.05" x2="11" y2="679.05" gradientTransform="matrix(1 0 0 1 0 -678.55)">
					<stop  offset="0" style="stop-color:#3F51B5"/>
					<stop  offset="1" style="stop-color:#64B5F6"/>
				</linearGradient>
				<polygon style="fill:url(#SVGID_1_);" points="3.1,21.5 3.1,0.5 18.9,0.5 18.9,15.6 13,21.5 				"/>
			</g>
			<polygon style="fill:#2196F3;fill-opacity:0.7;" points="18.9,15.6 18.9,15.3 12.6,15.3 12.6,21.5 13,21.5 			"/>
			<path style="opacity:0.39;fill:#FFFFFF;enable-background:new    ;" d="M13,15.6h5.9L13,21.5V15.6z"/>
		</g>
	</g>
</g>
<path style="opacity:0.8;fill:#FFFFFF;enable-background:new    ;" d="M13.7,5.4c-0.3,0-0.5,0.2-0.7,0.4h-2.7c0,0-0.7,0-1.2,0.2
	C8.5,6.3,7.9,6.9,7.9,7.9s0.6,1.7,1.2,1.9C9.4,9.9,9.6,10,9.9,10v0.2l-1.1,1H8.7c-0.2,0-0.4,0.2-0.4,0.4S8.5,12,8.7,12
	c0.2,0,0.4-0.2,0.4-0.4v-0.1l1.1-1h1.3v-0.4h0.4c0,0,0.4,0,0.8,0.2s0.8,0.5,0.8,1.3s-0.4,1.1-0.8,1.3s-0.9,0.2-0.9,0.2H9.1
	c-0.1-0.2-0.4-0.4-0.7-0.4c-0.4,0-0.8,0.3-0.8,0.7s0.3,0.7,0.8,0.7c0.3,0,0.5-0.2,0.7-0.4h2.7c0,0,0.7,0.1,1.2-0.2
	c0.6-0.3,1.2-0.9,1.2-1.9S13.6,9.9,13,9.7c-0.6-0.3-1.1-0.3-1.1-0.3h-0.4V9.3l1.1-1h0.1c0.2,0,0.4-0.2,0.4-0.4
	c0-0.2-0.2-0.4-0.4-0.4s-0.4,0.2-0.4,0.4V8l-1.1,1H9.9v0.3c-0.1,0-0.3-0.1-0.4-0.1C9.1,9,8.7,8.7,8.7,7.9s0.4-1.1,0.8-1.3
	c0.4-0.2,0.9-0.2,0.9-0.2h2.7c0.1,0.2,0.4,0.4,0.7,0.4c0.4,0,0.8-0.3,0.8-0.7C14.5,5.7,14.2,5.4,13.7,5.4z"/>
</svg>
