<?xml version="1.0" encoding="utf-8"?>
<!-- Generator: Adobe Illustrator 16.0.0, SVG Export Plug-In . SVG Version: 6.00 Build 0)  -->
<!DOCTYPE svg PUBLIC "-//W3C//DTD SVG 1.1//EN" "http://www.w3.org/Graphics/SVG/1.1/DTD/svg11.dtd">
<svg version="1.1" id="图层_1" xmlns="http://www.w3.org/2000/svg" xmlns:xlink="http://www.w3.org/1999/xlink" x="0px" y="0px"
	 width="22px" height="22px" viewBox="0 0 22 22" enable-background="new 0 0 22 22" xml:space="preserve">
<polygon fill="#455A64" points="2.634,22 2.634,0 19.366,0 19.366,15.807 13.111,22 "/>
<g>
	<g>
		<g>
			
				<linearGradient id="SVGID_1_" gradientUnits="userSpaceOnUse" x1="94.1973" y1="825.2998" x2="94.1973" y2="846.3008" gradientTransform="matrix(1 0 0 1 -83.2002 -824.8008)">
				<stop  offset="0" style="stop-color:#90A4AE"/>
				<stop  offset="0.1378" style="stop-color:#849AA5"/>
				<stop  offset="0.4226" style="stop-color:#708A97"/>
				<stop  offset="0.7096" style="stop-color:#64808E"/>
				<stop  offset="1" style="stop-color:#607D8B"/>
			</linearGradient>
			<polygon fill="url(#SVGID_1_)" points="3.13,21.5 3.13,0.5 18.862,0.5 18.862,15.595 12.957,21.5 			"/>
		</g>
		<polygon fill="#455A64" fill-opacity="0.39" points="18.862,15.595 18.862,15.339 12.633,15.339 12.633,21.5 12.957,21.5 		"/>
		<path fill="#FFFFFF" fill-opacity="0.39" d="M12.949,15.595l5.915,0.007L12.957,21.5L12.949,15.595z"/>
	</g>
	<path opacity="0.8" fill="#FFFFFF" enable-background="new    " d="M14.96,10.064c0.35,0,0.666,0.14,0.893,0.366V8.463H12.8
		c0.228-0.228,0.366-0.554,0.366-0.903c0-0.7-0.567-1.268-1.268-1.268c-0.701,0-1.269,0.568-1.269,1.268
		c0,0.35,0.139,0.667,0.367,0.903H7.951v1.977c-0.227-0.229-0.542-0.369-0.892-0.369c-0.7,0-1.268,0.569-1.268,1.27
		c0,0.7,0.568,1.269,1.268,1.269c0.35,0,0.665-0.139,0.894-0.369v1.979h3.053c-0.228-0.228-0.368-0.552-0.368-0.901
		c0-0.7,0.567-1.269,1.269-1.269c0.699,0,1.268,0.568,1.268,1.269c0,0.35-0.141,0.666-0.368,0.902h3.054v-1.977
		c-0.227,0.228-0.543,0.366-0.893,0.366c-0.699,0-1.267-0.568-1.267-1.269C13.691,10.632,14.26,10.064,14.96,10.064z"/>
	<g>
		<rect x="3.13" y="0.5" opacity="0.8" fill="#FFFFFF" width="15.74" height="4.025"/>
		<g>
			<path fill="#455A64" d="M9.744,2.51c0,0.269-0.042,0.504-0.126,0.708c-0.084,0.205-0.2,0.375-0.346,0.512S8.952,3.971,8.751,4.04
				c-0.202,0.069-0.419,0.104-0.65,0.104c-0.226,0-0.438-0.035-0.639-0.104c-0.2-0.069-0.375-0.173-0.524-0.311
				C6.789,3.592,6.671,3.422,6.585,3.218C6.5,3.014,6.457,2.779,6.457,2.51c0-0.269,0.044-0.505,0.133-0.709s0.209-0.375,0.36-0.514
				s0.326-0.243,0.524-0.313c0.198-0.069,0.407-0.104,0.626-0.104c0.225,0,0.438,0.035,0.638,0.104s0.375,0.174,0.524,0.313
				c0.15,0.139,0.267,0.31,0.353,0.514C9.702,2.005,9.744,2.241,9.744,2.51z M7.224,2.51c0,0.154,0.02,0.292,0.059,0.416
				s0.097,0.23,0.171,0.319c0.075,0.089,0.166,0.158,0.274,0.206C7.836,3.5,7.96,3.524,8.101,3.524c0.136,0,0.259-0.024,0.369-0.073
				c0.109-0.047,0.202-0.116,0.276-0.206C8.82,3.156,8.878,3.05,8.917,2.926c0.04-0.124,0.06-0.262,0.06-0.416
				c0-0.154-0.02-0.294-0.06-0.419C8.878,1.966,8.82,1.859,8.746,1.77C8.671,1.681,8.579,1.612,8.47,1.564
				C8.36,1.516,8.237,1.491,8.101,1.491c-0.14,0-0.264,0.025-0.372,0.075c-0.108,0.05-0.2,0.12-0.274,0.208S7.323,1.971,7.283,2.096
				C7.244,2.221,7.224,2.359,7.224,2.51z"/>
			<path fill="#455A64" d="M11.985,4.081c-0.093-0.175-0.194-0.352-0.306-0.531c-0.11-0.18-0.237-0.331-0.381-0.455
				c-0.044,0.046-0.101,0.111-0.169,0.194s-0.136,0.171-0.204,0.265c-0.068,0.093-0.132,0.189-0.191,0.29
				c-0.06,0.101-0.104,0.179-0.133,0.236H9.753c0.139-0.245,0.303-0.498,0.492-0.759c0.189-0.26,0.4-0.538,0.633-0.831L9.801,0.944
				h0.9l0.629,0.908l0.643-0.908h0.848L11.75,2.458c0.28,0.335,0.512,0.642,0.693,0.92c0.183,0.278,0.325,0.513,0.431,0.703H11.985z
				"/>
			<path fill="#455A64" d="M15.78,0.944v0.602h-0.996v2.535h-0.743V1.545h-0.995V0.944H15.78z"/>
		</g>
	</g>
</g>
</svg>
