<?xml version="1.0" encoding="utf-8"?>
<!-- Generator: Adobe Illustrator 16.0.0, SVG Export Plug-In . SVG Version: 6.00 Build 0)  -->
<!DOCTYPE svg PUBLIC "-//W3C//DTD SVG 1.1//EN" "http://www.w3.org/Graphics/SVG/1.1/DTD/svg11.dtd">
<svg version="1.1" id="图层_1" xmlns="http://www.w3.org/2000/svg" xmlns:xlink="http://www.w3.org/1999/xlink" x="0px" y="0px"
	 width="22px" height="22px" viewBox="0 0 22 22" enable-background="new 0 0 22 22" xml:space="preserve">
<linearGradient id="SVGID_1_" gradientUnits="userSpaceOnUse" x1="219.001" y1="-1717.9512" x2="219.001" y2="-1695.9512" gradientTransform="matrix(1 0 0 -1 -208.0005 -1695.9512)">
	<stop  offset="0" style="stop-color:#3F51B5"/>
	<stop  offset="0.258" style="stop-color:#4355B7"/>
	<stop  offset="0.5253" style="stop-color:#5060BB"/>
	<stop  offset="0.7959" style="stop-color:#6473C3"/>
	<stop  offset="1" style="stop-color:#7986CB"/>
</linearGradient>
<path fill="url(#SVGID_1_)" d="M13.063,22l6.188-6.188V0H2.75v22H13.063z"/>
<polygon fill="#311B92" fill-opacity="0.3922" points="12.719,15.469 12.719,22 13.063,22 19.25,15.813 19.25,15.469 "/>
<path fill="#FFFFFF" fill-opacity="0.3922" d="M13.063,15.813h6.183L13.063,22V15.813z"/>
<g>
	<g>
		<path fill="#311B92" d="M18.75,0.5v15.105L12.855,21.5H8.25h-5v-21H18.75 M19.25,0H2.75v22h5.5h4.813l6.188-6.188V0L19.25,0z"/>
	</g>
</g>
<g opacity="0.8">
	<path fill="#FFFFFF" d="M11.1,4.101c-0.374,0.003-0.733,0.032-1.048,0.086c-0.921,0.161-1.117,0.209-1.117,0.83v1.375h2.293v0.459
		H8.016c-0.63,0-1.044,0.387-1.216,1.104c-0.202,0.822-0.209,1.332,0,2.192c0.153,0.636,0.586,1.289,1.216,1.289h0.459v-1.375
		c0-0.712,0.639-1.375,1.375-1.375h2.293c0.607,0,0.919-0.314,0.919-0.918V5.476c0-0.585-0.241-1.192-0.833-1.289
		C11.856,4.125,11.47,4.099,11.1,4.101z M10.31,5.017c0.256,0,0.459,0.207,0.459,0.459s-0.203,0.459-0.459,0.459
		c-0.252,0-0.459-0.207-0.459-0.459S10.058,5.017,10.31,5.017z"/>
	<path fill="#FFFFFF" d="M10.9,13.727c0.374-0.003,0.733-0.032,1.048-0.086c0.921-0.161,1.117-0.21,1.117-0.83v-1.375h-2.294v-0.459
		h3.212c0.631,0,1.045-0.387,1.217-1.104c0.201-0.822,0.209-1.332,0-2.191c-0.153-0.637-0.586-1.289-1.217-1.289h-0.459v1.375
		c0,0.712-0.639,1.375-1.375,1.375H9.856c-0.607,0-0.919,0.314-0.919,0.919v2.291c0,0.585,0.241,1.192,0.833,1.289
		C10.144,13.702,10.53,13.729,10.9,13.727z M11.69,12.811c-0.256,0-0.459-0.206-0.459-0.459s0.203-0.459,0.459-0.459
		c0.252,0,0.459,0.206,0.459,0.459S11.942,12.811,11.69,12.811z"/>
</g>
</svg>
