<?xml version="1.0" encoding="utf-8"?>
<!-- Generator: Adobe Illustrator 16.0.0, SVG Export Plug-In . SVG Version: 6.00 Build 0)  -->
<!DOCTYPE svg PUBLIC "-//W3C//DTD SVG 1.1//EN" "http://www.w3.org/Graphics/SVG/1.1/DTD/svg11.dtd">
<svg version="1.1" id="图层_1" xmlns="http://www.w3.org/2000/svg" xmlns:xlink="http://www.w3.org/1999/xlink" x="0px" y="0px"
	 width="22px" height="22px" viewBox="0 0 22 22" enable-background="new 0 0 22 22" xml:space="preserve">
<polygon fill="#1B5E20" points="2.634,22 2.634,0 19.366,0 19.366,15.807 13.111,22 "/>
<g>
	<g>
		<g>
			<g>
				
					<linearGradient id="SVGID_1_" gradientUnits="userSpaceOnUse" x1="94.1992" y1="-582.3003" x2="94.1992" y2="-561.3008" gradientTransform="matrix(1 0 0 -1 -83.2002 -560.8008)">
					<stop  offset="0" style="stop-color:#388E3C"/>
					<stop  offset="0.0757" style="stop-color:#43953E"/>
					<stop  offset="0.3246" style="stop-color:#62A943"/>
					<stop  offset="0.5665" style="stop-color:#79B747"/>
					<stop  offset="0.796" style="stop-color:#86C049"/>
					<stop  offset="1" style="stop-color:#8BC34A"/>
				</linearGradient>
				<polygon fill="url(#SVGID_1_)" points="3.132,21.5 3.132,0.5 18.865,0.5 18.865,15.594 12.96,21.5 				"/>
			</g>
			<polygon fill="#1B5E20" fill-opacity="0.39" points="18.865,15.594 18.865,15.34 12.636,15.34 12.636,21.5 12.96,21.5 			"/>
			<path fill="#FFFFFF" fill-opacity="0.3922" d="M12.951,15.594l5.916,0.008L12.96,21.5L12.951,15.594z"/>
		</g>
		<path opacity="0.8" fill="#FFFFFF" enable-background="new    " d="M11.389,5.138V5.12H10.61v0.018H5.592v9.782h10.814V5.138
			H11.389z M6.37,8.042h2.415v1.563H6.37V8.042z M6.37,10.383h2.415v1.562H6.37V10.383z M9.588,10.383h6.04v1.562h-6.04V10.383z
			 M9.588,9.605V8.042h6.04v1.563H9.588z M15.628,5.923v1.343h-6.04V5.923H15.628z M8.785,5.923v1.343H6.37V5.923H8.785z
			 M6.37,12.73h2.415v1.404H6.37V12.73z M9.588,14.135V12.73h6.04v1.404H9.588z"/>
	</g>
	<g>
		<rect x="3.129" y="0.5" opacity="0.8" fill="#FFFFFF" enable-background="new    " width="15.742" height="4.025"/>
		<g enable-background="new    ">
			<path fill="#388E3C" d="M8.903,4.058C8.811,3.883,8.708,3.707,8.599,3.527C8.487,3.348,8.36,3.197,8.218,3.072
				C8.173,3.12,8.116,3.185,8.049,3.267C7.98,3.351,7.912,3.439,7.844,3.532c-0.068,0.094-0.132,0.19-0.191,0.291
				S7.549,4.001,7.52,4.058H6.672c0.139-0.245,0.303-0.498,0.492-0.759c0.188-0.26,0.399-0.537,0.632-0.831L6.719,0.921H7.62
				L8.249,1.83l0.644-0.909H9.74L8.669,2.435c0.28,0.334,0.512,0.642,0.693,0.919c0.182,0.279,0.325,0.514,0.43,0.704H8.903z"/>
			<path fill="#388E3C" d="M12.427,3.452v0.606h-2.205V0.921h0.743v2.531H12.427z"/>
			<path fill="#388E3C" d="M13.884,3.52c0.106,0,0.191-0.008,0.26-0.025c0.068-0.017,0.123-0.04,0.164-0.068
				c0.044-0.028,0.071-0.062,0.088-0.102c0.016-0.039,0.024-0.083,0.024-0.131c0-0.103-0.052-0.188-0.153-0.256
				c-0.102-0.067-0.276-0.141-0.525-0.219c-0.106-0.036-0.216-0.078-0.322-0.125c-0.109-0.046-0.205-0.106-0.293-0.176
				c-0.084-0.071-0.155-0.157-0.207-0.258c-0.055-0.101-0.082-0.224-0.082-0.369c0-0.145,0.027-0.275,0.084-0.392
				c0.058-0.116,0.14-0.215,0.244-0.297c0.106-0.081,0.232-0.144,0.383-0.188c0.147-0.043,0.316-0.065,0.503-0.065
				c0.224,0,0.415,0.022,0.576,0.068c0.161,0.045,0.296,0.095,0.402,0.149l-0.216,0.557c-0.094-0.046-0.194-0.085-0.307-0.12
				c-0.114-0.035-0.248-0.052-0.407-0.052c-0.178,0-0.306,0.023-0.386,0.071C13.638,1.568,13.6,1.64,13.6,1.736
				c0,0.058,0.014,0.106,0.041,0.145c0.03,0.039,0.071,0.075,0.123,0.106s0.112,0.061,0.181,0.085
				c0.068,0.026,0.145,0.053,0.227,0.08c0.172,0.061,0.32,0.12,0.448,0.179c0.126,0.059,0.232,0.127,0.317,0.206
				c0.082,0.079,0.145,0.171,0.186,0.276c0.041,0.106,0.063,0.233,0.063,0.385c0,0.292-0.106,0.52-0.322,0.681
				c-0.216,0.162-0.544,0.243-0.979,0.243c-0.145,0-0.276-0.009-0.394-0.025c-0.118-0.016-0.222-0.037-0.312-0.061
				c-0.094-0.024-0.17-0.05-0.235-0.077c-0.065-0.027-0.12-0.053-0.164-0.077l0.21-0.562c0.099,0.051,0.219,0.097,0.364,0.138
				C13.498,3.499,13.676,3.52,13.884,3.52z"/>
		</g>
	</g>
</g>
</svg>
