<?xml version="1.0" encoding="utf-8"?>
<!-- Generator: Adobe Illustrator 17.1.0, SVG Export Plug-In . SVG Version: 6.00 Build 0)  -->
<!DOCTYPE svg PUBLIC "-//W3C//DTD SVG 1.1//EN" "http://www.w3.org/Graphics/SVG/1.1/DTD/svg11.dtd">
<svg version="1.1"
	 id="svg2" inkscape:export-filename="/media/Data/Main/Visuals/Icons/Numix/Desktop/repos/numix-wiki/Gjorgi/Numix-folders/48/New/folder-144.png" xmlns:svg="http://www.w3.org/2000/svg" xmlns:sodipodi="http://sodipodi.sourceforge.net/DTD/sodipodi-0.dtd" xmlns:inkscape="http://www.inkscape.org/namespaces/inkscape" xmlns:dc="http://purl.org/dc/elements/1.1/" xmlns:cc="http://creativecommons.org/ns#" xmlns:rdf="http://www.w3.org/1999/02/22-rdf-syntax-ns#" inkscape:version="0.48.4 r9939" sodipodi:docname="user-home.svg" inkscape:export-xdpi="270" inkscape:export-ydpi="270"
	 xmlns="http://www.w3.org/2000/svg" xmlns:xlink="http://www.w3.org/1999/xlink" x="0px" y="0px" width="32px" height="32px"
	 viewBox="0 0 32 32" enable-background="new 0 0 32 32" xml:space="preserve">
<polygon opacity="8.000000e-002" points="1,30.2 1,11.6 2.8,11.6 2.8,2.8 27.4,2.8 30.2,5.6 30.2,11.6 32,11.6 32,30.2 "/>
<polygon opacity="9.999999e-002" points="1.5,29.7 1.5,12.1 3.3,12.1 3.3,3.3 27.2,3.3 29.7,5.8 29.7,12.1 31.5,12.1 31.5,29.7 "/>
<polygon opacity="0.2" points="1,29.2 1,11.6 2.8,11.6 2.8,2.8 26.7,2.8 29.2,5.3 29.2,11.6 31,11.6 31,29.2 "/>
<polygon fill="#F57F17" points="1.5,28.7 1.5,12.1 3.3,12.1 3.3,3.3 26.5,3.3 28.7,5.5 28.7,12.1 30.5,12.1 30.5,28.7 "/>
<g>
	<polygon fill="#E0E0E0" points="26.2,3.8 3.8,3.8 3.8,12.1 3.8,14.4 28.2,14.4 28.2,12.1 28.2,5.8 	"/>
	<rect x="3.8" y="11.9" opacity="0.2" enable-background="new    " width="24.5" height="0.6"/>
	
		<linearGradient id="rect2990_1_" gradientUnits="userSpaceOnUse" x1="-60" y1="-16.0241" x2="-60" y2="15.5" gradientTransform="matrix(0.5 0 0 0.5 46 20.5)">
		<stop  offset="0" style="stop-color:#FADD60"/>
		<stop  offset="0.9946" style="stop-color:#F5A816"/>
	</linearGradient>
	<polyline id="rect2990_2_" fill="url(#rect2990_1_)" points="30,12.5 30,28.2 2,28.2 2,12.5 	"/>
	<path id="rect3004_2_" inkscape:connector-curvature="0" opacity="0.25" fill="#FDEFBA" enable-background="new    " d="M2,12.5
		v3.6c0-1.2,0.8-2.3,1.8-2.3h24.2c1,0,1.8,1,1.8,2.3v-3.6L2,12.5L2,12.5z"/>
	<rect x="6.6" y="9.5" fill="#9E9E9E" width="18.6" height="1"/>
	<rect x="6.6" y="6.5" fill="#9E9E9E" width="16.3" height="1"/>
	<polygon fill="#FFFFFF" points="28.2,5.8 26.2,5.8 26.2,3.8 	"/>
	<polygon opacity="0.2" enable-background="new    " points="26.2,5.8 28.2,5.8 28.2,7.7 	"/>
</g>
</svg>
