<?xml version="1.0" encoding="utf-8"?>
<!-- Generator: Adobe Illustrator 16.0.0, SVG Export Plug-In . SVG Version: 6.00 Build 0)  -->
<!DOCTYPE svg PUBLIC "-//W3C//DTD SVG 1.1//EN" "http://www.w3.org/Graphics/SVG/1.1/DTD/svg11.dtd">
<svg version="1.1" id="图层_1" xmlns="http://www.w3.org/2000/svg" xmlns:xlink="http://www.w3.org/1999/xlink" x="0px" y="0px"
	 width="256px" height="256px" viewBox="0 0 256 256" enable-background="new 0 0 256 256" xml:space="preserve">
<rect x="34.1" y="4" opacity="0.08" enable-background="new    " width="191.8" height="252"/>
<rect x="36.1" y="6" opacity="0.1" enable-background="new    " width="187.8" height="248"/>
<rect x="34.1" y="4" opacity="0.2" enable-background="new    " width="187.8" height="248"/>
<rect x="36.1" y="6" fill="#E65100" width="183.8" height="244"/>
<g>
	
		<linearGradient id="SVGID_1_" gradientUnits="userSpaceOnUse" x1="211.2002" y1="1072.8008" x2="211.2002" y2="832.8008" gradientTransform="matrix(1 0 0 1 -83.2002 -824.8008)">
		<stop  offset="0" style="stop-color:#EE6F0B"/>
		<stop  offset="1" style="stop-color:#FFB74D"/>
	</linearGradient>
	<rect x="38.094" y="8" fill="url(#SVGID_1_)" width="179.813" height="240"/>
	<g opacity="0.8">
		<rect x="61.508" y="100.383" fill="#FFFFFF" width="19.195" height="96.211"/>
		<rect x="93.508" y="148.391" fill="#FFFFFF" width="19.195" height="48.094"/>
		<rect x="125.406" y="167.984" fill="#FFFFFF" width="19.188" height="28.813"/>
		<g>
			<path fill="#FFFFFF" d="M151.5,83.398l0.219,38.297l38.297-0.203c0.109,21.195-17.016,38.398-38.203,38.492
				c-21.219,0.125-38.406-17-38.516-38.188C113.203,100.688,130.305,83.492,151.5,83.398z"/>
			<path fill="#FFFFFF" d="M156,78.977c21.203-0.094,38.406,17.008,38.5,38.211l-38.281,0.211L156,78.977z"/>
		</g>
	</g>
	<g>
		<rect x="38.047" y="8" opacity="0.8" fill="#FFFFFF" enable-background="new    " width="179.906" height="46"/>
		<g enable-background="new    ">
			<path fill="#E64A19" d="M112.766,30.719c0,3.063-0.484,5.766-1.453,8.094c-0.953,2.328-2.281,4.281-3.938,5.844
				c-1.672,1.563-3.656,2.75-5.969,3.531c-2.313,0.813-4.781,1.203-7.438,1.203c-2.578,0-5-0.391-7.297-1.203
				c-2.281-0.781-4.281-1.969-5.984-3.531s-3.047-3.516-4.031-5.844s-1.469-5.031-1.469-8.094c0-3.078,0.516-5.781,1.531-8.102
				c1.016-2.328,2.375-4.281,4.109-5.875c1.719-1.586,3.719-2.773,5.984-3.563c2.266-0.797,4.656-1.195,7.156-1.195
				c2.578,0,5.016,0.398,7.297,1.195c2.297,0.789,4.281,1.977,6,3.563c1.703,1.594,3.047,3.547,4.031,5.875
				C112.266,24.938,112.766,27.641,112.766,30.719z M83.953,30.719c0,1.75,0.234,3.344,0.688,4.75
				c0.453,1.422,1.094,2.625,1.953,3.656c0.859,1.016,1.891,1.797,3.125,2.344c1.234,0.563,2.656,0.844,4.25,0.844
				c1.563,0,2.969-0.281,4.219-0.844c1.266-0.547,2.313-1.328,3.172-2.344c0.844-1.031,1.5-2.234,1.953-3.656
				c0.453-1.406,0.688-3,0.688-4.75c0-1.766-0.234-3.359-0.688-4.781c-0.453-1.438-1.109-2.664-1.953-3.68
				c-0.859-1.016-1.906-1.805-3.172-2.359c-1.25-0.547-2.656-0.828-4.219-0.828c-1.594,0-3.016,0.289-4.25,0.859
				s-2.266,1.359-3.125,2.375c-0.859,1.023-1.5,2.242-1.953,3.664C84.188,27.406,83.953,29,83.953,30.719z"/>
			<path fill="#E64A19" d="M146.563,12.813v6.883h-11.375v28.961h-8.484V19.695h-11.391v-6.883H146.563z"/>
			<path fill="#E64A19" d="M163.344,12.398c5.625,0,9.938,0.945,12.953,2.82c3.016,1.883,4.516,4.961,4.516,9.234
				c0,4.313-1.516,7.422-4.563,9.328c-3.063,1.922-7.406,2.875-13.078,2.875H160.5v12h-8.484V13.328
				c1.859-0.344,3.797-0.586,5.875-0.719C159.969,12.469,161.781,12.398,163.344,12.398z M163.875,19.281
				c-0.609,0-1.219,0.016-1.813,0.055c-0.594,0.031-1.125,0.063-1.563,0.102v10.344h2.672c2.953,0,5.156-0.375,6.641-1.141
				c1.5-0.766,2.25-2.172,2.25-4.234c0-1.008-0.203-1.828-0.594-2.484c-0.375-0.656-0.906-1.188-1.625-1.578
				c-0.703-0.398-1.563-0.672-2.594-0.828C166.25,19.359,165.125,19.281,163.875,19.281z"/>
		</g>
	</g>
</g>
</svg>
