<?xml version="1.0" encoding="utf-8"?>
<!-- Generator: Adobe Illustrator 16.0.0, SVG Export Plug-In . SVG Version: 6.00 Build 0)  -->
<!DOCTYPE svg PUBLIC "-//W3C//DTD SVG 1.1//EN" "http://www.w3.org/Graphics/SVG/1.1/DTD/svg11.dtd">
<svg version="1.1" id="图层_1" xmlns="http://www.w3.org/2000/svg" xmlns:xlink="http://www.w3.org/1999/xlink" x="0px" y="0px"
	 width="64px" height="64px" viewBox="0 0 64 64" enable-background="new 0 0 64 64" xml:space="preserve">
<polygon opacity="0.1" enable-background="new    " points="9.155,64 9.155,2 56.846,2 56.846,46.498 39.343,64 "/>
<polygon opacity="0.1" enable-background="new    " points="10.155,63 10.155,3 55.846,3 55.846,46.084 38.93,63 "/>
<polygon opacity="0.2" enable-background="new    " points="9.155,62 9.155,2 54.846,2 54.846,45.084 37.93,62 "/>
<polygon fill="#3E2723" points="10.148,61 10.148,3 53.852,3 53.852,44.67 37.518,61 "/>
<g>
	<g>
		
			<linearGradient id="SVGID_1_" gradientUnits="userSpaceOnUse" x1="73.6016" y1="-103.4004" x2="73.6016" y2="-160.4009" gradientTransform="matrix(1 0 0 -1 -41.6001 -99.9004)">
			<stop  offset="0" style="stop-color:#785548"/>
			<stop  offset="1" style="stop-color:#9F9E9F"/>
		</linearGradient>
		<polygon fill="url(#SVGID_1_)" points="10.649,60.5 10.649,3.5 53.355,3.5 53.355,44.446 37.479,60.5 		"/>
		<polygon fill="#795548" fill-opacity="0.7" points="53.355,44.469 53.355,43.778 36.447,43.778 36.447,60.5 37.324,60.5 		"/>
		<path opacity="0.39" fill="#FFFFFF" enable-background="new    " d="M37.301,44.469l16.055,0.022L37.324,60.5L37.301,44.469z"/>
	</g>
	<path fill="#FFFFFF" d="M25.909,14.488h-1.447v18.51H23.37v-18.51h-1.44v18.51h-1.091v-18.51h-1.44v18.51h-1.091v-18.51h-1.44
		v18.51H16.49v7.842h9.908v-7.842h-0.489V14.488z M24.958,38.561H17.93v-4.545h7.028V38.561z"/>
	<g>
		<rect x="10.638" y="3.5" opacity="0.8" fill="#FFFFFF" enable-background="new    " width="42.723" height="10.925"/>
		<g enable-background="new    ">
			<path fill="#5D4037" d="M26.135,13.223c0.052-0.601,0.163-1.225,0.326-1.87c0.163-0.646,0.363-1.28,0.602-1.904
				c0.237-0.622,0.501-1.21,0.794-1.763c0.293-0.553,0.59-1.03,0.891-1.431h-3.893V4.695h6.274v1.327
				c-0.278,0.286-0.578,0.683-0.912,1.191s-0.646,1.083-0.943,1.726c-0.297,0.644-0.557,1.334-0.779,2.071
				c-0.219,0.736-0.355,1.475-0.408,2.213H26.135z"/>
			<path fill="#5D4037" d="M39.004,6.033C38.73,6.304,38.4,6.654,38.021,7.085c-0.383,0.428-0.771,0.898-1.178,1.406
				c-0.408,0.506-0.809,1.032-1.201,1.572c-0.4,0.542-0.754,1.059-1.063,1.549h4.564v1.61h-7.046V12.08
				c0.241-0.419,0.539-0.883,0.886-1.395c0.35-0.512,0.713-1.028,1.092-1.549c0.379-0.52,0.764-1.022,1.158-1.511
				c0.393-0.488,0.756-0.924,1.09-1.308h-4.022v-1.61h6.702V6.033z"/>
		</g>
	</g>
</g>
</svg>
