<?xml version="1.0" encoding="utf-8"?>
<!-- Generator: Adobe Illustrator 16.0.0, SVG Export Plug-In . SVG Version: 6.00 Build 0)  -->
<!DOCTYPE svg PUBLIC "-//W3C//DTD SVG 1.1//EN" "http://www.w3.org/Graphics/SVG/1.1/DTD/svg11.dtd">
<svg version="1.1" id="图层_1" xmlns="http://www.w3.org/2000/svg" xmlns:xlink="http://www.w3.org/1999/xlink" x="0px" y="0px"
	 width="64px" height="64px" viewBox="0 0 64 64" enable-background="new 0 0 64 64" xml:space="preserve">
<rect x="9.148" y="2" opacity="0.2" width="45.703" height="60"/>
<rect x="9.148" y="2" opacity="0.08" width="47.703" height="62"/>
<rect x="10.148" y="3" opacity="0.1" width="45.703" height="60"/>
<rect x="10.148" y="3" fill="#E65100" width="43.703" height="58"/>
<g>
	
		<linearGradient id="SVGID_1_" gradientUnits="userSpaceOnUse" x1="73.6006" y1="-160.3999" x2="73.6006" y2="-103.4004" gradientTransform="matrix(1 0 0 -1 -41.6001 -99.9004)">
		<stop  offset="0" style="stop-color:#EE6F0B"/>
		<stop  offset="1" style="stop-color:#FFB74D"/>
	</linearGradient>
	<rect x="10.648" y="3.5" fill="url(#SVGID_1_)" width="42.703" height="57"/>
	<g opacity="0.8">
		<rect x="16.207" y="18.818" fill="#FFFFFF" width="4.56" height="22.849"/>
		<rect x="23.807" y="30.219" fill="#FFFFFF" width="4.562" height="11.424"/>
		<rect x="31.385" y="34.873" fill="#FFFFFF" width="4.56" height="6.842"/>
		<g>
			<path fill="#FFFFFF" d="M37.582,14.781l0.048,9.097l9.095-0.048c0.023,5.034-4.037,9.119-9.073,9.142
				c-5.034,0.023-9.118-4.037-9.143-9.07C28.485,18.89,32.546,14.805,37.582,14.781z"/>
			<path fill="#FFFFFF" d="M38.65,13.737c5.036-0.024,9.121,4.037,9.145,9.071l-9.097,0.047L38.65,13.737z"/>
		</g>
	</g>
</g>
</svg>
