<?xml version="1.0" encoding="utf-8"?>
<!-- Generator: Adobe Illustrator 16.0.0, SVG Export Plug-In . SVG Version: 6.00 Build 0)  -->
<!DOCTYPE svg PUBLIC "-//W3C//DTD SVG 1.1//EN" "http://www.w3.org/Graphics/SVG/1.1/DTD/svg11.dtd">
<svg version="1.1" id="图层_1" xmlns="http://www.w3.org/2000/svg" xmlns:xlink="http://www.w3.org/1999/xlink" x="0px" y="0px"
	 width="64px" height="64px" viewBox="0 0 64 64" enable-background="new 0 0 64 64" xml:space="preserve">
<polygon opacity="0.1" enable-background="new    " points="9.155,64 9.155,2 56.846,2 56.846,46.498 39.343,64 "/>
<polygon opacity="0.1" enable-background="new    " points="10.155,63 10.155,3 55.846,3 55.846,46.084 38.93,63 "/>
<polygon opacity="0.2" enable-background="new    " points="9.155,62 9.155,2 54.846,2 54.846,45.084 37.93,62 "/>
<polygon fill="#455A64" points="10.148,61 10.148,3 53.852,3 53.852,44.67 37.517,61 "/>
<g>
	<g>
		<g>
			
				<linearGradient id="SVGID_1_" gradientUnits="userSpaceOnUse" x1="73.5996" y1="-103.4004" x2="73.5996" y2="-160.4009" gradientTransform="matrix(1 0 0 -1 -41.6001 -99.9004)">
				<stop  offset="0" style="stop-color:#90A4AE"/>
				<stop  offset="0.1378" style="stop-color:#849AA5"/>
				<stop  offset="0.4226" style="stop-color:#708A97"/>
				<stop  offset="0.7096" style="stop-color:#64808E"/>
				<stop  offset="1" style="stop-color:#607D8B"/>
			</linearGradient>
			<polygon fill="url(#SVGID_1_)" points="10.646,60.5 10.646,3.5 53.354,3.5 53.354,44.469 37.322,60.5 			"/>
		</g>
		<polygon fill="#455A64" fill-opacity="0.39" points="53.354,44.469 53.354,43.779 36.441,43.779 36.441,60.5 37.322,60.5 		"/>
		<path fill="#FFFFFF" fill-opacity="0.39" d="M37.296,44.469l16.058,0.021L37.322,60.5L37.296,44.469z"/>
	</g>
	<path opacity="0.8" fill="#FFFFFF" enable-background="new    " d="M41.972,33.021c0.026-0.071,0.074-0.119,0.101-0.188
		c0.048-0.119,0.116-0.238,0.164-0.357c0,0,0-0.021,0.021-0.021c0.308-0.644,0.524-1.333,0.716-2.02h2.683v-5.392h-2.683
		c-0.286-1.117-0.716-2.186-1.31-3.136l1.903-1.9l-3.822-3.822l-1.903,1.9c-0.976-0.594-2.041-1.047-3.208-1.332h0.026v-2.684
		h-5.393v2.684h0.021c-1.135,0.285-2.231,0.738-3.207,1.332l-1.899-1.9l-3.749,3.822l1.898,1.9c-0.569,0.95-1.021,2.019-1.305,3.136
		h-2.686v5.392h2.686c0.283,1.113,0.711,2.182,1.305,3.156l0,0l-1.898,1.904l3.823,3.818l1.899-1.896
		c0.973,0.594,2.041,1.043,3.159,1.303v2.686h5.393v-2.686l0,0l0,0c1.14-0.283,2.185-0.709,3.155-1.303l1.902,1.896l3.822-3.818
		l-1.902-1.904l0,0c0.074-0.116,0.121-0.211,0.195-0.334C41.902,33.188,41.95,33.119,41.972,33.021z M31.998,36.344
		c-4.771,0-8.621-3.869-8.621-8.619s3.871-8.62,8.621-8.62c0.949,0,1.856,0.141,2.71,0.427l0,0c3.441,1.14,5.911,4.371,5.911,8.193
		c0,0.238,0,0.474-0.021,0.692v0.021c-0.048,0.689-0.191,1.354-0.408,1.996c0,0.024-0.021,0.024-0.021,0.045
		c-0.144,0.403-0.308,0.809-0.498,1.167c0,0.021-0.026,0.047-0.026,0.069c-0.096,0.191-0.186,0.355-0.308,0.546
		c0,0.026-0.026,0.026-0.026,0.048c-0.117,0.167-0.207,0.334-0.329,0.501l-0.026,0.023c-0.117,0.164-0.238,0.334-0.377,0.475
		c-0.021,0.021-0.047,0.048-0.068,0.072c-0.266,0.307-0.546,0.594-0.859,0.855c-0.021,0.021-0.047,0.045-0.068,0.072
		c-0.144,0.116-0.313,0.26-0.478,0.354c-0.021,0.021-0.048,0.021-0.068,0.048c-0.144,0.119-0.308,0.212-0.456,0.308
		c-0.021,0.021-0.043,0.021-0.069,0.048c-0.17,0.096-0.329,0.19-0.498,0.283c-0.048,0.023-0.069,0.048-0.117,0.074
		c-0.169,0.093-0.354,0.162-0.524,0.236c-0.021,0-0.048,0.023-0.069,0.023c-0.169,0.072-0.334,0.119-0.503,0.188
		C33.924,36.178,32.971,36.344,31.998,36.344z"/>
</g>
</svg>
