<?xml version="1.0" encoding="utf-8"?>
<!-- Generator: Adobe Illustrator 16.0.0, SVG Export Plug-In . SVG Version: 6.00 Build 0)  -->
<!DOCTYPE svg PUBLIC "-//W3C//DTD SVG 1.1//EN" "http://www.w3.org/Graphics/SVG/1.1/DTD/svg11.dtd">
<svg version="1.1" id="图层_1" xmlns="http://www.w3.org/2000/svg" xmlns:xlink="http://www.w3.org/1999/xlink" x="0px" y="0px"
	 width="48px" height="48px" viewBox="0 0 48 48" enable-background="new 0 0 48 48" xml:space="preserve">
<polygon opacity="0.06" enable-background="new    " points="7.181,48 7.181,2 42.818,2 42.818,35.003 29.82,48 "/>
<polygon opacity="0.1" enable-background="new    " points="8.181,47 8.181,3 41.818,3 41.818,34.589 29.407,47 "/>
<polygon opacity="0.2" enable-background="new    " points="7.181,46 7.181,2 40.818,2 40.818,33.589 28.408,46 "/>
<polygon fill="#3E2723" points="8.143,45 8.143,3 39.857,3 39.857,33.175 28.004,45 "/>
<g>
	<g>
		
			<linearGradient id="SVGID_1_" gradientUnits="userSpaceOnUse" x1="65.5996" y1="-119.4004" x2="65.5996" y2="-160.4009" gradientTransform="matrix(1 0 0 -1 -41.6001 -115.9004)">
			<stop  offset="0" style="stop-color:#785548"/>
			<stop  offset="1" style="stop-color:#9F9E9F"/>
		</linearGradient>
		<polygon fill="url(#SVGID_1_)" points="8.641,44.5 8.641,3.5 39.359,3.5 39.359,32.953 27.941,44.5 		"/>
		<polygon fill="#795548" fill-opacity="0.7" points="39.359,32.969 39.359,32.473 27.199,32.473 27.199,44.5 27.829,44.5 		"/>
		<path opacity="0.39" fill="#FFFFFF" enable-background="new    " d="M27.813,32.969l11.547,0.016L27.829,44.5L27.813,32.969z"/>
	</g>
	<path fill="#FFFFFF" d="M19.617,11.404h-1.039v13.315h-0.787V11.404h-1.033v13.315h-0.785V11.404h-1.036v13.315H14.15V11.404
		h-1.034v13.315h-0.271v5.64h7.127v-5.64h-0.355V11.404z M18.934,28.719h-5.056v-3.27h5.056V28.719z"/>
	<g>
		<rect x="8.634" y="3.5" opacity="0.8" fill="#FFFFFF" enable-background="new    " width="30.731" height="7.858"/>
		<g enable-background="new    ">
			<path fill="#5D4037" d="M19.231,5.322c-0.198,0.195-0.435,0.447-0.708,0.757c-0.272,0.308-0.555,0.646-0.846,1.012
				c-0.291,0.364-0.579,0.742-0.865,1.13c-0.286,0.39-0.542,0.761-0.763,1.114h3.286v1.157h-5.072V9.67
				c0.174-0.3,0.387-0.634,0.638-1.002c0.251-0.368,0.512-0.739,0.785-1.114c0.275-0.374,0.553-0.735,0.833-1.086
				c0.283-0.351,0.544-0.665,0.787-0.941h-2.894V4.368h4.818V5.322z"/>
			<path fill="#5D4037" d="M26.385,7.425c0,0.524-0.08,0.986-0.245,1.384c-0.165,0.398-0.39,0.73-0.673,0.999
				c-0.288,0.268-0.625,0.47-1.02,0.604c-0.395,0.136-0.817,0.204-1.271,0.204c-0.44,0-0.854-0.068-1.247-0.204
				c-0.393-0.135-0.731-0.336-1.022-0.604c-0.293-0.269-0.523-0.601-0.689-0.999c-0.168-0.397-0.253-0.859-0.253-1.384
				s0.088-0.985,0.264-1.383c0.171-0.398,0.406-0.731,0.7-1.003c0.296-0.271,0.635-0.474,1.025-0.609
				c0.387-0.136,0.795-0.204,1.223-0.204c0.44,0,0.854,0.068,1.246,0.204c0.393,0.135,0.731,0.338,1.022,0.609
				c0.294,0.272,0.523,0.605,0.689,1.003C26.303,6.44,26.385,6.901,26.385,7.425z M21.465,7.425c0,0.3,0.04,0.572,0.115,0.813
				c0.08,0.243,0.19,0.45,0.336,0.624c0.144,0.175,0.323,0.308,0.534,0.403c0.21,0.094,0.454,0.142,0.726,0.142
				c0.267,0,0.507-0.048,0.721-0.142c0.213-0.095,0.395-0.228,0.539-0.403c0.146-0.174,0.257-0.38,0.337-0.624
				c0.074-0.24,0.117-0.512,0.117-0.813s-0.043-0.573-0.117-0.817c-0.08-0.244-0.19-0.454-0.337-0.627
				c-0.144-0.173-0.326-0.308-0.539-0.403c-0.214-0.094-0.454-0.142-0.721-0.142c-0.272,0-0.516,0.049-0.726,0.147
				c-0.211,0.097-0.39,0.232-0.534,0.406C21.77,6.164,21.66,6.372,21.58,6.616C21.505,6.862,21.465,7.131,21.465,7.425z"/>
			<path fill="#5D4037" d="M33.736,7.425c0,0.524-0.086,0.986-0.248,1.384c-0.163,0.398-0.391,0.73-0.676,0.999
				c-0.283,0.268-0.625,0.47-1.02,0.604c-0.393,0.136-0.816,0.204-1.268,0.204c-0.441,0-0.857-0.068-1.247-0.204
				c-0.39-0.135-0.731-0.336-1.024-0.604c-0.289-0.269-0.518-0.601-0.687-0.999c-0.168-0.397-0.253-0.859-0.253-1.384
				s0.09-0.985,0.262-1.383c0.176-0.398,0.408-0.731,0.704-1.003c0.294-0.271,0.636-0.474,1.022-0.609
				c0.387-0.136,0.793-0.204,1.223-0.204c0.439,0,0.856,0.068,1.246,0.204c0.39,0.135,0.731,0.338,1.025,0.609
				c0.288,0.272,0.518,0.605,0.688,1.003C33.65,6.44,33.736,6.901,33.736,7.425z M28.814,7.425c0,0.3,0.037,0.572,0.117,0.813
				c0.074,0.243,0.187,0.45,0.334,0.624c0.146,0.175,0.322,0.308,0.533,0.403c0.211,0.094,0.454,0.142,0.727,0.142
				c0.267,0,0.507-0.048,0.721-0.142c0.216-0.095,0.393-0.228,0.541-0.403c0.145-0.174,0.257-0.38,0.332-0.624
				c0.08-0.24,0.117-0.512,0.117-0.813s-0.037-0.573-0.117-0.817c-0.075-0.244-0.188-0.454-0.332-0.627
				c-0.148-0.173-0.325-0.308-0.541-0.403c-0.214-0.094-0.454-0.142-0.721-0.142c-0.272,0-0.516,0.049-0.727,0.147
				c-0.211,0.097-0.387,0.232-0.533,0.406c-0.147,0.175-0.26,0.383-0.334,0.627C28.852,6.862,28.814,7.131,28.814,7.425z"/>
		</g>
	</g>
</g>
</svg>
