<?xml version="1.0" encoding="utf-8"?>
<!-- Generator: Adobe Illustrator 16.0.0, SVG Export Plug-In . SVG Version: 6.00 Build 0)  -->
<!DOCTYPE svg PUBLIC "-//W3C//DTD SVG 1.1//EN" "http://www.w3.org/Graphics/SVG/1.1/DTD/svg11.dtd">
<svg version="1.1" id="图层_1" xmlns="http://www.w3.org/2000/svg" xmlns:xlink="http://www.w3.org/1999/xlink" x="0px" y="0px"
	 width="48px" height="48px" viewBox="0 0 48 48" enable-background="new 0 0 48 48" xml:space="preserve">
<rect x="2" y="2" opacity="0.2" width="44" height="44"/>
<rect x="2" y="2" opacity="0.08" width="46" height="46"/>
<rect x="3" y="3" opacity="0.1" width="44" height="44"/>
<rect x="3" y="3" fill="#455A64" width="42" height="42"/>
<g>
	
		<linearGradient id="SVGID_1_" gradientUnits="userSpaceOnUse" x1="65.5996" y1="-119.4004" x2="65.5996" y2="-160.4009" gradientTransform="matrix(1 0 0 -1 -41.6001 -115.9004)">
		<stop  offset="0" style="stop-color:#90A4AE"/>
		<stop  offset="0.1378" style="stop-color:#849AA5"/>
		<stop  offset="0.4226" style="stop-color:#708A97"/>
		<stop  offset="0.7096" style="stop-color:#64808E"/>
		<stop  offset="1" style="stop-color:#607D8B"/>
	</linearGradient>
	<rect x="3.5" y="3.5" fill="url(#SVGID_1_)" width="41" height="41"/>
	<path opacity="0.8" fill="#FFFFFF" enable-background="new    " d="M34.164,29.418c0.046-0.063,0.066-0.126,0.105-0.188
		c0.066-0.124,0.128-0.23,0.171-0.354c0,0,0-0.019,0.017-0.019c0.295-0.651,0.545-1.345,0.714-2.073h2.741V21.28h-2.72
		c-0.271-1.151-0.735-2.215-1.32-3.2l1.925-1.925l-3.889-3.892l-1.927,1.926c-1.004-0.607-2.089-1.068-3.262-1.361h0.021v-2.741
		h-5.5v2.741h0.02c-1.172,0.293-2.259,0.732-3.263,1.341l-1.925-1.925l-3.87,3.893l1.922,1.922c-0.582,0.98-1.041,2.049-1.316,3.201
		h-2.721v5.5h2.74c0.274,1.152,0.733,2.218,1.32,3.222l0,0l-1.925,1.927l3.893,3.889l1.922-1.925
		c0.982,0.608,2.07,1.049,3.223,1.342v2.717h5.5v-2.717l0,0l0,0c1.152-0.293,2.239-0.733,3.222-1.342l1.927,1.925l3.889-3.889
		l-1.925-1.927l0,0c0.063-0.104,0.128-0.229,0.188-0.333C34.086,29.565,34.124,29.479,34.164,29.418z M24,32.787
		c-4.852,0-8.788-3.931-8.788-8.787c0-4.852,3.937-8.788,8.788-8.788c0.96,0,1.882,0.15,2.76,0.438l0,0
		c3.495,1.153,6.027,4.457,6.027,8.35c0,0.23,0,0.48-0.024,0.712v0.021c-0.06,0.712-0.186,1.38-0.416,2.027
		c0,0.023-0.021,0.043-0.021,0.064c-0.146,0.419-0.312,0.813-0.502,1.194c-0.019,0.017-0.019,0.038-0.019,0.062
		c-0.107,0.188-0.21,0.374-0.314,0.543c0,0.021-0.021,0.021-0.021,0.043c-0.104,0.166-0.231,0.354-0.359,0.523l-0.017,0.021
		c-0.126,0.164-0.252,0.334-0.4,0.476c-0.021,0.023-0.04,0.046-0.062,0.066c-0.273,0.314-0.563,0.604-0.878,0.878
		c-0.021,0.021-0.043,0.041-0.083,0.062c-0.147,0.127-0.314,0.253-0.48,0.377c-0.024,0.023-0.045,0.04-0.084,0.04
		c-0.145,0.104-0.315,0.214-0.482,0.316c-0.021,0.021-0.043,0.021-0.06,0.043c-0.172,0.104-0.338,0.209-0.528,0.29
		c-0.04,0.021-0.083,0.046-0.123,0.064c-0.188,0.085-0.354,0.166-0.545,0.252c-0.02,0-0.038,0.02-0.063,0.02
		c-0.164,0.066-0.335,0.125-0.502,0.188C25.944,32.62,25.004,32.787,24,32.787z"/>
</g>
</svg>
