<?xml version="1.0" encoding="utf-8"?>
<!-- Generator: Adobe Illustrator 16.0.0, SVG Export Plug-In . SVG Version: 6.00 Build 0)  -->
<!DOCTYPE svg PUBLIC "-//W3C//DTD SVG 1.1//EN" "http://www.w3.org/Graphics/SVG/1.1/DTD/svg11.dtd">
<svg version="1.1" id="图层_1" xmlns="http://www.w3.org/2000/svg" xmlns:xlink="http://www.w3.org/1999/xlink" x="0px" y="0px"
	 width="48px" height="48px" viewBox="0 0 48 48" enable-background="new 0 0 48 48" xml:space="preserve">
<polygon opacity="0.06" enable-background="new    " points="7.181,48 7.181,2 42.818,2 42.818,35.003 29.82,48 "/>
<polygon opacity="0.1" enable-background="new    " points="8.181,47 8.181,3 41.818,3 41.818,34.589 29.407,47 "/>
<polygon opacity="0.2" enable-background="new    " points="7.181,46 7.181,2 40.818,2 40.818,33.589 28.408,46 "/>
<polygon fill="#E65100" points="8.143,45 8.143,3 39.857,3 39.857,33.175 28.003,45 "/>
<g>
	<g>
		<g>
			
				<linearGradient id="SVGID_1_" gradientUnits="userSpaceOnUse" x1="65.6006" y1="-160.3999" x2="65.6006" y2="-119.4004" gradientTransform="matrix(1 0 0 -1 -41.6001 -115.9004)">
				<stop  offset="0" style="stop-color:#EE6F0B"/>
				<stop  offset="1" style="stop-color:#FFB74D"/>
			</linearGradient>
			<polygon fill="url(#SVGID_1_)" points="8.641,44.5 8.641,3.5 39.359,3.5 39.359,32.969 27.828,44.5 			"/>
		</g>
		<polygon fill="#E65100" fill-opacity="0.3922" points="39.359,32.969 39.359,32.473 27.195,32.473 27.195,44.5 27.828,44.5 		"/>
		<path fill="#FFFFFF" fill-opacity="0.3922" d="M27.809,32.969l11.551,0.016L27.828,44.5L27.809,32.969z"/>
	</g>
	<g opacity="0.8">
		<rect x="12.64" y="19.283" fill="#FFFFFF" width="3.28" height="16.435"/>
		<rect x="18.106" y="27.483" fill="#FFFFFF" width="3.28" height="8.216"/>
		<rect x="23.557" y="30.83" fill="#FFFFFF" width="3.281" height="4.923"/>
		<g>
			<path fill="#FFFFFF" d="M28.015,16.379l0.034,6.542l6.543-0.035c0.019,3.623-2.904,6.561-6.526,6.577
				c-3.62,0.019-6.559-2.903-6.577-6.523C21.472,19.334,24.393,16.395,28.015,16.379z"/>
			<path fill="#FFFFFF" d="M28.783,15.626c3.622-0.016,6.562,2.904,6.577,6.526l-6.542,0.035L28.783,15.626z"/>
		</g>
	</g>
	<g>
		<rect x="8.633" y="3.5" opacity="0.8" fill="#FFFFFF" enable-background="new    " width="30.734" height="7.858"/>
		<g enable-background="new    ">
			<path fill="#E64A19" d="M20.717,7.381c0,0.523-0.083,0.985-0.246,1.382c-0.166,0.398-0.39,0.731-0.675,0.999
				c-0.286,0.267-0.625,0.47-1.02,0.603c-0.393,0.139-0.817,0.206-1.268,0.206c-0.44,0-0.857-0.066-1.247-0.206
				c-0.392-0.133-0.731-0.336-1.025-0.603c-0.291-0.267-0.521-0.601-0.686-0.999c-0.168-0.397-0.253-0.859-0.253-1.382
				c0-0.526,0.088-0.988,0.261-1.384c0.174-0.397,0.409-0.731,0.702-1.003c0.296-0.271,0.635-0.474,1.025-0.609
				c0.387-0.136,0.793-0.204,1.223-0.204c0.44,0,0.854,0.068,1.247,0.204c0.39,0.135,0.731,0.338,1.022,0.609
				c0.291,0.272,0.521,0.606,0.688,1.003C20.634,6.394,20.717,6.855,20.717,7.381z M15.797,7.381c0,0.299,0.037,0.571,0.115,0.811
				c0.078,0.243,0.189,0.449,0.336,0.625c0.144,0.173,0.323,0.307,0.534,0.4c0.211,0.096,0.454,0.144,0.726,0.144
				c0.267,0,0.507-0.048,0.721-0.144c0.213-0.094,0.393-0.227,0.539-0.4c0.147-0.176,0.256-0.382,0.334-0.625
				c0.077-0.24,0.117-0.512,0.117-0.811c0-0.302-0.04-0.574-0.117-0.817c-0.078-0.246-0.187-0.455-0.334-0.629
				c-0.146-0.173-0.326-0.308-0.539-0.403c-0.213-0.093-0.454-0.142-0.721-0.142c-0.272,0-0.515,0.049-0.726,0.147
				c-0.211,0.097-0.39,0.232-0.534,0.406c-0.147,0.175-0.259,0.383-0.336,0.626C15.834,6.815,15.797,7.087,15.797,7.381z"/>
			<path fill="#E64A19" d="M27.574,7.381c0,0.528-0.088,0.993-0.262,1.388s-0.422,0.721-0.739,0.979
				c-0.317,0.259-0.707,0.454-1.167,0.585c-0.459,0.128-0.974,0.192-1.545,0.192c-0.259,0-0.563-0.011-0.91-0.032
				c-0.347-0.019-0.689-0.062-1.025-0.128V4.402c0.336-0.059,0.684-0.099,1.046-0.12c0.363-0.02,0.675-0.031,0.935-0.031
				c0.555,0,1.054,0.059,1.505,0.177c0.448,0.118,0.833,0.303,1.158,0.557c0.32,0.254,0.568,0.578,0.742,0.972
				S27.574,6.826,27.574,7.381z M23.378,9.324c0.069,0.005,0.147,0.011,0.238,0.014c0.088,0.002,0.195,0.002,0.32,0.002
				c0.726,0,1.262-0.171,1.615-0.518c0.35-0.35,0.523-0.831,0.523-1.441c0-0.644-0.166-1.129-0.502-1.459
				c-0.334-0.33-0.865-0.495-1.591-0.495c-0.096,0-0.2,0.001-0.304,0.004c-0.107,0.004-0.206,0.011-0.299,0.023V9.324z"/>
			<path fill="#E64A19" d="M30.719,4.251c0.961,0,1.697,0.162,2.213,0.482c0.515,0.321,0.771,0.847,0.771,1.577
				c0,0.737-0.259,1.268-0.779,1.594c-0.523,0.328-1.266,0.491-2.234,0.491h-0.457v2.05h-1.449V4.41
				c0.317-0.059,0.648-0.1,1.004-0.123C30.142,4.263,30.451,4.251,30.719,4.251z M30.81,5.427c-0.104,0-0.208,0.002-0.31,0.009
				c-0.102,0.005-0.192,0.011-0.268,0.018v1.767h0.457c0.504,0,0.881-0.064,1.134-0.195c0.257-0.13,0.385-0.371,0.385-0.723
				c0-0.172-0.035-0.313-0.102-0.424c-0.063-0.112-0.154-0.203-0.277-0.27c-0.12-0.068-0.267-0.115-0.443-0.142
				C31.215,5.44,31.022,5.427,30.81,5.427z"/>
		</g>
	</g>
</g>
</svg>
