<?xml version="1.0" encoding="utf-8"?>
<!-- Generator: Adobe Illustrator 16.0.0, SVG Export Plug-In . SVG Version: 6.00 Build 0)  -->
<!DOCTYPE svg PUBLIC "-//W3C//DTD SVG 1.1//EN" "http://www.w3.org/Graphics/SVG/1.1/DTD/svg11.dtd">
<svg version="1.1" id="图层_1" xmlns="http://www.w3.org/2000/svg" xmlns:xlink="http://www.w3.org/1999/xlink" x="0px" y="0px"
	 width="48px" height="48px" viewBox="0 0 48 48" enable-background="new 0 0 48 48" xml:space="preserve">
<polygon opacity="0.06" enable-background="new    " points="7.181,48 7.181,2 42.818,2 42.818,35.003 29.82,48 "/>
<polygon opacity="0.1" enable-background="new    " points="8.181,47 8.181,3 41.818,3 41.818,34.589 29.407,47 "/>
<polygon opacity="0.2" enable-background="new    " points="7.181,46 7.181,2 40.818,2 40.818,33.589 28.408,46 "/>
<polygon fill="#455A64" points="8.143,45 8.143,3 39.857,3 39.857,33.175 28.004,45 "/>
<g>
	<g>
		<g>
			
				<linearGradient id="SVGID_1_" gradientUnits="userSpaceOnUse" x1="107.1934" y1="828.2998" x2="107.1934" y2="869.3008" gradientTransform="matrix(1 0 0 1 -83.2002 -824.8008)">
				<stop  offset="0" style="stop-color:#90A4AE"/>
				<stop  offset="0.1378" style="stop-color:#849AA5"/>
				<stop  offset="0.4226" style="stop-color:#708A97"/>
				<stop  offset="0.7096" style="stop-color:#64808E"/>
				<stop  offset="1" style="stop-color:#607D8B"/>
			</linearGradient>
			<polygon fill="url(#SVGID_1_)" points="8.635,44.5 8.635,3.5 39.351,3.5 39.351,32.971 27.821,44.5 			"/>
		</g>
		<polygon fill="#455A64" fill-opacity="0.39" points="39.351,32.971 39.351,32.471 27.188,32.471 27.188,44.5 27.821,44.5 		"/>
		<path fill="#FFFFFF" fill-opacity="0.39" d="M27.806,32.971l11.549,0.014L27.821,44.5L27.806,32.971z"/>
	</g>
	<path opacity="0.8" fill="#FFFFFF" enable-background="new    " d="M31.731,22.172c0.683,0,1.3,0.273,1.742,0.714v-3.839h-5.96
		c0.444-0.444,0.715-1.081,0.715-1.764c0-1.366-1.107-2.476-2.475-2.476c-1.369,0-2.479,1.11-2.479,2.476
		c0,0.683,0.272,1.302,0.717,1.764h-5.944v3.86c-0.442-0.447-1.061-0.721-1.743-0.721c-1.365,0-2.475,1.11-2.475,2.479
		c0,1.366,1.11,2.477,2.475,2.477c0.683,0,1.301-0.271,1.747-0.721v3.862h5.96c-0.446-0.444-0.717-1.077-0.717-1.76
		c0-1.367,1.105-2.477,2.477-2.477c1.365,0,2.475,1.109,2.475,2.477c0,0.683-0.274,1.3-0.719,1.762h5.962v-3.858
		c-0.442,0.443-1.061,0.715-1.742,0.715c-1.365,0-2.474-1.11-2.474-2.477C29.255,23.282,30.364,22.172,31.731,22.172z"/>
	<g>
		<rect x="8.635" y="3.5" opacity="0.8" fill="#FFFFFF" width="30.73" height="7.858"/>
		<g>
			<path fill="#455A64" d="M21.548,7.425c0,0.524-0.082,0.984-0.246,1.381c-0.165,0.399-0.391,0.731-0.675,0.999
				s-0.625,0.471-1.018,0.606c-0.395,0.134-0.818,0.202-1.271,0.202c-0.44,0-0.855-0.068-1.247-0.202
				c-0.391-0.135-0.732-0.338-1.024-0.606c-0.29-0.268-0.521-0.6-0.688-0.999c-0.166-0.397-0.25-0.857-0.25-1.381
				c0-0.525,0.086-0.987,0.259-1.384s0.408-0.732,0.702-1.003c0.295-0.271,0.637-0.475,1.026-0.61
				c0.385-0.136,0.793-0.203,1.222-0.203c0.44,0,0.856,0.067,1.245,0.203c0.393,0.135,0.732,0.339,1.024,0.61
				c0.291,0.271,0.521,0.605,0.688,1.003C21.464,6.438,21.548,6.899,21.548,7.425z M16.629,7.425c0,0.3,0.038,0.571,0.114,0.812
				c0.077,0.241,0.189,0.449,0.336,0.623c0.145,0.175,0.324,0.309,0.534,0.401c0.209,0.095,0.453,0.143,0.726,0.143
				c0.266,0,0.506-0.048,0.721-0.143c0.214-0.092,0.396-0.227,0.54-0.401c0.145-0.173,0.257-0.381,0.336-0.623
				c0.076-0.241,0.114-0.512,0.114-0.812c0-0.301-0.038-0.574-0.114-0.819c-0.079-0.244-0.191-0.453-0.336-0.626
				c-0.145-0.174-0.326-0.309-0.54-0.402c-0.215-0.094-0.455-0.142-0.721-0.142c-0.272,0-0.517,0.05-0.726,0.146
				c-0.21,0.097-0.39,0.233-0.534,0.407c-0.147,0.173-0.259,0.383-0.336,0.627C16.667,6.86,16.629,7.129,16.629,7.425z"/>
			<path fill="#455A64" d="M25.924,10.491c-0.182-0.342-0.38-0.688-0.597-1.036c-0.216-0.352-0.464-0.646-0.744-0.888
				c-0.087,0.09-0.196,0.217-0.329,0.379c-0.134,0.162-0.266,0.334-0.398,0.518c-0.134,0.181-0.26,0.37-0.374,0.565
				c-0.116,0.196-0.202,0.349-0.26,0.461h-1.654c0.271-0.479,0.591-0.973,0.961-1.482c0.368-0.507,0.779-1.05,1.235-1.623
				l-2.105-3.019h1.759l1.228,1.773l1.257-1.773h1.654l-2.092,2.955c0.548,0.654,0.999,1.253,1.354,1.797
				c0.356,0.543,0.635,1.001,0.841,1.372H25.924z"/>
			<path fill="#455A64" d="M33.333,4.367v1.174h-1.945v4.95h-1.45v-4.95h-1.943V4.367H33.333z"/>
		</g>
	</g>
</g>
</svg>
