<?xml version="1.0" encoding="utf-8"?>
<!-- Generator: Adobe Illustrator 16.0.0, SVG Export Plug-In . SVG Version: 6.00 Build 0)  -->
<!DOCTYPE svg PUBLIC "-//W3C//DTD SVG 1.1//EN" "http://www.w3.org/Graphics/SVG/1.1/DTD/svg11.dtd">
<svg version="1.1" id="图层_1" xmlns="http://www.w3.org/2000/svg" xmlns:xlink="http://www.w3.org/1999/xlink" x="0px" y="0px"
	 width="48px" height="48px" viewBox="0 0 48 48" enable-background="new 0 0 48 48" xml:space="preserve">
<polygon opacity="0.06" enable-background="new    " points="7.181,48 7.181,2 42.818,2 42.818,35.003 29.82,48 "/>
<polygon opacity="0.1" enable-background="new    " points="8.181,47 8.181,3 41.818,3 41.818,34.589 29.407,47 "/>
<polygon opacity="0.2" enable-background="new    " points="7.181,46 7.181,2 40.818,2 40.818,33.589 28.408,46 "/>
<polygon fill="#212121" points="8.143,45 8.143,3 39.857,3 39.857,33.174 28.004,45 "/>
<g>
	<g>
		<g>
			<g>
				<linearGradient id="SVGID_1_" gradientUnits="userSpaceOnUse" x1="23.9995" y1="44.5" x2="23.9995" y2="3.5005">
					<stop  offset="0" style="stop-color:#616161"/>
					<stop  offset="1" style="stop-color:#90A4AE"/>
				</linearGradient>
				<polygon fill="url(#SVGID_1_)" points="8.64,44.5 8.64,3.5 39.358,3.5 39.358,32.969 27.827,44.5 				"/>
			</g>
			<polygon fill="#9E9E9E" fill-opacity="0.39" points="39.358,32.969 39.358,32.473 27.194,32.473 27.194,44.5 27.827,44.5 			"/>
			<path fill="#FFFFFF" fill-opacity="0.3922" d="M27.811,32.969l11.55,0.016L27.827,44.5L27.811,32.969z"/>
		</g>
	</g>
	<g>
		<g opacity="0.8">
			<path fill="#FFFFFF" d="M18.999,27.892c-0.955,0-1.825-0.142-2.61-0.435c-0.784-0.294-1.46-0.719-2.023-1.276
				c-0.561-0.558-0.995-1.245-1.303-2.066c-0.31-0.821-0.464-1.759-0.464-2.815c0-1.056,0.176-1.995,0.521-2.813
				c0.35-0.82,0.816-1.51,1.404-2.067c0.59-0.56,1.275-0.984,2.063-1.275c0.785-0.292,1.623-0.438,2.507-0.438
				c0.565,0,1.076,0.037,1.524,0.109c0.453,0.072,0.841,0.159,1.177,0.255c0.334,0.098,0.606,0.193,0.814,0.291
				c0.211,0.097,0.353,0.171,0.433,0.219l-0.55,1.458c-0.118-0.073-0.289-0.152-0.513-0.236c-0.219-0.085-0.47-0.171-0.753-0.255
				c-0.283-0.085-0.59-0.155-0.924-0.209c-0.333-0.055-0.67-0.083-1.009-0.083c-0.718,0-1.366,0.115-1.943,0.346
				c-0.576,0.232-1.064,0.566-1.471,1.002c-0.405,0.438-0.715,0.968-0.932,1.594c-0.216,0.625-0.325,1.327-0.325,2.103
				c0,0.753,0.096,1.439,0.285,2.057c0.189,0.621,0.473,1.153,0.854,1.593c0.379,0.446,0.854,0.788,1.42,1.03
				c0.571,0.24,1.235,0.365,1.994,0.365c0.878,0,1.602-0.082,2.178-0.256c0.574-0.168,1.009-0.32,1.292-0.456l0.496,1.46
				c-0.09,0.059-0.256,0.133-0.496,0.225c-0.232,0.093-0.525,0.182-0.878,0.267c-0.357,0.083-0.769,0.155-1.238,0.222
				C20.057,27.865,19.549,27.892,18.999,27.892z"/>
		</g>
		<g opacity="0.8">
			<path fill="#FFFFFF" d="M29.047,18.189h3.083l0.667-3.48h1.599l-0.667,3.48h1.674v1.409h-1.959L32.797,23h2.605v1.405H32.53
				l-0.665,3.483h-1.599l0.667-3.483h-3.083l-0.664,3.483h-1.6l0.665-3.483h-1.676V23h1.94l0.648-3.402h-2.589v-1.409h2.872
				l0.664-3.48h1.602L29.047,18.189z M28.112,23h3.086l0.667-3.402h-3.08L28.112,23z"/>
		</g>
	</g>
</g>
</svg>
