<?xml version="1.0" encoding="utf-8"?>
<!-- Generator: Adobe Illustrator 16.0.0, SVG Export Plug-In . SVG Version: 6.00 Build 0)  -->
<!DOCTYPE svg PUBLIC "-//W3C//DTD SVG 1.1//EN" "http://www.w3.org/Graphics/SVG/1.1/DTD/svg11.dtd">
<svg version="1.1" id="图层_1" xmlns="http://www.w3.org/2000/svg" xmlns:xlink="http://www.w3.org/1999/xlink" x="0px" y="0px"
	 width="24px" height="24px" viewBox="0 0 24 24" enable-background="new 0 0 24 24" xml:space="preserve">
<polygon fill="#0D47A1" points="3.634,23 3.634,1 20.366,1 20.366,16.807 14.111,23 "/>
<g>
	<g>
		<g>
			<g>
				<linearGradient id="SVGID_1_" gradientUnits="userSpaceOnUse" x1="12.0073" y1="22.5" x2="12.0073" y2="1.5005">
					<stop  offset="0" style="stop-color:#3F51B5"/>
					<stop  offset="1" style="stop-color:#64B5F6"/>
				</linearGradient>
				<polygon fill="url(#SVGID_1_)" points="4.14,22.5 4.14,1.5 19.874,1.5 19.874,16.594 13.967,22.5 				"/>
			</g>
			<polygon fill="#2196F3" fill-opacity="0.7" points="19.874,16.594 19.874,16.34 13.644,16.34 13.644,22.5 13.967,22.5 			"/>
			<path opacity="0.39" fill="#FFFFFF" d="M13.959,16.594l5.916,0.008L13.967,22.5L13.959,16.594z"/>
		</g>
		<g opacity="0.8">
			<linearGradient id="SVGID_2_" gradientUnits="userSpaceOnUse" x1="6.4727" y1="8.6641" x2="17.5332" y2="8.6641">
				<stop  offset="0" style="stop-color:#F6F5F5"/>
				<stop  offset="0.341" style="stop-color:#F1F2F3"/>
				<stop  offset="0.6434" style="stop-color:#E7EAEB"/>
				<stop  offset="0.9302" style="stop-color:#D5DBDF"/>
				<stop  offset="1" style="stop-color:#CFD7DB"/>
			</linearGradient>
			<rect x="6.473" y="8.391" opacity="0.8" fill="url(#SVGID_2_)" enable-background="new    " width="11.061" height="0.547"/>
			<linearGradient id="SVGID_3_" gradientUnits="userSpaceOnUse" x1="6.4727" y1="6.9541" x2="17.5332" y2="6.9541">
				<stop  offset="0" style="stop-color:#F6F5F5"/>
				<stop  offset="0.341" style="stop-color:#F1F2F3"/>
				<stop  offset="0.6434" style="stop-color:#E7EAEB"/>
				<stop  offset="0.9302" style="stop-color:#D5DBDF"/>
				<stop  offset="1" style="stop-color:#CFD7DB"/>
			</linearGradient>
			<rect x="6.473" y="6.68" opacity="0.8" fill="url(#SVGID_3_)" enable-background="new    " width="11.061" height="0.548"/>
			<linearGradient id="SVGID_4_" gradientUnits="userSpaceOnUse" x1="11.749" y1="12.8848" x2="17.5244" y2="12.8848">
				<stop  offset="0" style="stop-color:#F6F5F5"/>
				<stop  offset="0.341" style="stop-color:#F1F2F3"/>
				<stop  offset="0.6434" style="stop-color:#E7EAEB"/>
				<stop  offset="0.9302" style="stop-color:#D5DBDF"/>
				<stop  offset="1" style="stop-color:#CFD7DB"/>
			</linearGradient>
			<rect x="11.749" y="9.998" opacity="0.8" fill="url(#SVGID_4_)" enable-background="new    " width="5.775" height="5.774"/>
			<g opacity="0.8">
				<linearGradient id="SVGID_5_" gradientUnits="userSpaceOnUse" x1="6.4727" y1="10.3726" x2="11.2769" y2="10.3726">
					<stop  offset="0" style="stop-color:#F6F5F5"/>
					<stop  offset="0.341" style="stop-color:#F1F2F3"/>
					<stop  offset="0.6434" style="stop-color:#E7EAEB"/>
					<stop  offset="0.9302" style="stop-color:#D5DBDF"/>
					<stop  offset="1" style="stop-color:#CFD7DB"/>
				</linearGradient>
				<rect x="6.473" y="10.099" fill="url(#SVGID_5_)" width="4.804" height="0.548"/>
				<linearGradient id="SVGID_6_" gradientUnits="userSpaceOnUse" x1="6.4727" y1="12.082" x2="11.2769" y2="12.082">
					<stop  offset="0" style="stop-color:#F6F5F5"/>
					<stop  offset="0.341" style="stop-color:#F1F2F3"/>
					<stop  offset="0.6434" style="stop-color:#E7EAEB"/>
					<stop  offset="0.9302" style="stop-color:#D5DBDF"/>
					<stop  offset="1" style="stop-color:#CFD7DB"/>
				</linearGradient>
				<rect x="6.473" y="11.809" fill="url(#SVGID_6_)" width="4.804" height="0.547"/>
				<linearGradient id="SVGID_7_" gradientUnits="userSpaceOnUse" x1="6.4727" y1="13.7979" x2="11.2769" y2="13.7979">
					<stop  offset="0" style="stop-color:#F6F5F5"/>
					<stop  offset="0.341" style="stop-color:#F1F2F3"/>
					<stop  offset="0.6434" style="stop-color:#E7EAEB"/>
					<stop  offset="0.9302" style="stop-color:#D5DBDF"/>
					<stop  offset="1" style="stop-color:#CFD7DB"/>
				</linearGradient>
				<rect x="6.473" y="13.524" fill="url(#SVGID_7_)" width="4.804" height="0.547"/>
				<linearGradient id="SVGID_8_" gradientUnits="userSpaceOnUse" x1="6.4727" y1="15.5068" x2="11.2769" y2="15.5068">
					<stop  offset="0" style="stop-color:#F6F5F5"/>
					<stop  offset="0.341" style="stop-color:#F1F2F3"/>
					<stop  offset="0.6434" style="stop-color:#E7EAEB"/>
					<stop  offset="0.9302" style="stop-color:#D5DBDF"/>
					<stop  offset="1" style="stop-color:#CFD7DB"/>
				</linearGradient>
				<rect x="6.473" y="15.233" fill="url(#SVGID_8_)" width="4.804" height="0.547"/>
			</g>
		</g>
	</g>
	<g>
		<rect x="4.125" y="1.5" opacity="0.8" fill="#FFFFFF" width="15.742" height="4.025"/>
		<g>
			<path fill="#1976D2" d="M10.74,3.51c0,0.268-0.042,0.506-0.126,0.708c-0.084,0.205-0.2,0.375-0.345,0.512
				c-0.146,0.138-0.321,0.24-0.522,0.31s-0.418,0.105-0.65,0.105c-0.226,0-0.438-0.036-0.639-0.105s-0.375-0.172-0.524-0.31
				C7.784,4.593,7.667,4.423,7.581,4.218C7.495,4.016,7.452,3.778,7.452,3.51s0.045-0.504,0.134-0.708
				c0.089-0.204,0.208-0.375,0.36-0.514c0.15-0.138,0.325-0.243,0.524-0.312c0.198-0.069,0.407-0.104,0.626-0.104
				c0.226,0,0.438,0.035,0.638,0.104c0.201,0.069,0.375,0.174,0.524,0.312c0.149,0.139,0.267,0.31,0.352,0.514
				C10.697,3.005,10.74,3.242,10.74,3.51z M8.22,3.51c0,0.153,0.02,0.292,0.06,0.417s0.096,0.229,0.171,0.318
				c0.075,0.09,0.166,0.159,0.273,0.207s0.232,0.073,0.372,0.073c0.137,0,0.26-0.025,0.369-0.073
				c0.11-0.048,0.202-0.116,0.276-0.207c0.075-0.089,0.132-0.194,0.172-0.318s0.06-0.264,0.06-0.417s-0.02-0.292-0.06-0.418
				C9.874,2.966,9.816,2.859,9.741,2.77C9.667,2.681,9.575,2.612,9.465,2.563C9.356,2.516,9.233,2.491,9.096,2.491
				c-0.14,0-0.264,0.025-0.372,0.075S8.525,2.686,8.451,2.774C8.375,2.864,8.319,2.971,8.279,3.096C8.24,3.221,8.22,3.359,8.22,3.51
				z"/>
			<path fill="#1976D2" d="M14.156,3.51c0,0.272-0.044,0.509-0.133,0.711c-0.09,0.202-0.216,0.369-0.379,0.503
				c-0.164,0.131-0.363,0.232-0.599,0.298c-0.235,0.065-0.499,0.1-0.791,0.1c-0.133,0-0.289-0.005-0.467-0.016
				c-0.178-0.01-0.353-0.032-0.523-0.066V1.985c0.171-0.03,0.35-0.051,0.536-0.062c0.186-0.01,0.345-0.016,0.479-0.016
				c0.284,0,0.54,0.03,0.77,0.091c0.229,0.06,0.428,0.155,0.594,0.285c0.165,0.13,0.291,0.296,0.381,0.498
				C14.112,2.983,14.156,3.226,14.156,3.51z M12.007,4.505c0.035,0.004,0.075,0.006,0.122,0.008c0.045,0,0.1,0.001,0.164,0.001
				c0.372,0,0.647-0.089,0.826-0.267c0.182-0.178,0.27-0.424,0.27-0.738c0-0.328-0.086-0.577-0.257-0.747
				c-0.171-0.169-0.442-0.253-0.814-0.253c-0.051,0-0.104,0-0.157,0.002c-0.054,0.002-0.105,0.005-0.153,0.012V4.505z"/>
			<path fill="#1976D2" d="M17.019,1.944v0.602h-0.995v2.535h-0.744V2.546h-0.994V1.944H17.019z"/>
		</g>
	</g>
</g>
</svg>
