<?xml version="1.0" encoding="utf-8"?>
<!-- Generator: Adobe Illustrator 16.0.0, SVG Export Plug-In . SVG Version: 6.00 Build 0)  -->
<!DOCTYPE svg PUBLIC "-//W3C//DTD SVG 1.1//EN" "http://www.w3.org/Graphics/SVG/1.1/DTD/svg11.dtd">
<svg version="1.1" id="图层_1" xmlns="http://www.w3.org/2000/svg" xmlns:xlink="http://www.w3.org/1999/xlink" x="0px" y="0px"
	 width="24px" height="24px" viewBox="0 0 24 24" enable-background="new 0 0 24 24" xml:space="preserve">
<polygon fill="#3E2723" points="3.634,23 3.634,1 20.366,1 20.366,16.807 14.111,23 "/>
<g>
	<g>
		
			<linearGradient id="SVGID_1_" gradientUnits="userSpaceOnUse" x1="53.5996" y1="-141.4004" x2="53.5996" y2="-162.4009" gradientTransform="matrix(1 0 0 -1 -41.6001 -139.9004)">
			<stop  offset="0" style="stop-color:#785548"/>
			<stop  offset="1" style="stop-color:#9F9E9F"/>
		</linearGradient>
		<polygon fill="url(#SVGID_1_)" points="4.133,22.5 4.133,1.5 19.867,1.5 19.867,16.586 14.019,22.5 		"/>
		<polygon fill="#795548" fill-opacity="0.7" points="19.867,16.594 19.867,16.34 13.638,16.34 13.638,22.5 13.961,22.5 		"/>
		<path opacity="0.39" fill="#FFFFFF" enable-background="new    " d="M13.952,16.594l5.915,0.008L13.961,22.5L13.952,16.594z"/>
	</g>
	<path fill="#FFFFFF" d="M9.755,5.548H9.223v6.819H8.819V5.548H8.291v6.819H7.889V5.548h-0.53v6.819H6.955V5.548h-0.53v6.819H6.286
		v2.889h3.65v-2.889H9.755V5.548z M9.405,14.417h-2.59v-1.675h2.59V14.417z"/>
	<g>
		<rect x="4.13" y="1.5" opacity="0.8" fill="#FFFFFF" enable-background="new    " width="15.74" height="4.025"/>
		<g enable-background="new    ">
			<path fill="#5D4037" d="M6.8,4.543c0.104,0,0.191-0.008,0.26-0.025C7.128,4.501,7.183,4.478,7.224,4.45
				C7.265,4.42,7.293,4.388,7.31,4.348c0.015-0.04,0.023-0.083,0.023-0.131c0-0.103-0.051-0.188-0.153-0.256
				C7.078,3.893,6.903,3.82,6.656,3.742C6.548,3.705,6.44,3.664,6.332,3.617s-0.205-0.106-0.29-0.176
				C5.956,3.37,5.887,3.284,5.832,3.182C5.778,3.081,5.751,2.958,5.751,2.814c0-0.145,0.028-0.275,0.086-0.392
				s0.139-0.215,0.242-0.297c0.105-0.082,0.232-0.144,0.382-0.188c0.148-0.044,0.318-0.065,0.506-0.065
				c0.221,0,0.414,0.022,0.575,0.068c0.163,0.045,0.295,0.095,0.4,0.149L7.728,2.646C7.637,2.601,7.534,2.561,7.42,2.526
				C7.309,2.491,7.173,2.474,7.015,2.474c-0.18,0-0.307,0.023-0.385,0.07C6.552,2.591,6.514,2.663,6.514,2.759
				c0,0.057,0.014,0.106,0.043,0.145c0.028,0.039,0.068,0.074,0.121,0.106c0.052,0.031,0.112,0.06,0.181,0.085
				c0.068,0.026,0.144,0.053,0.227,0.079c0.171,0.061,0.32,0.121,0.447,0.179C7.659,3.414,7.767,3.482,7.85,3.561
				c0.085,0.079,0.147,0.171,0.188,0.276C8.079,3.942,8.1,4.07,8.1,4.221c0,0.292-0.107,0.52-0.324,0.681
				C7.56,5.064,7.234,5.145,6.8,5.145c-0.146,0-0.279-0.008-0.396-0.025C6.285,5.104,6.182,5.082,6.092,5.059
				c-0.091-0.023-0.169-0.05-0.234-0.078C5.793,4.955,5.738,4.929,5.693,4.904l0.211-0.561c0.099,0.052,0.219,0.097,0.363,0.138
				C6.413,4.521,6.589,4.543,6.8,4.543z"/>
			<path fill="#5D4037" d="M10.663,1.944h0.742v3.138h-0.742V3.75H9.415v1.332H8.671V1.944h0.744v1.2h1.248V1.944z"/>
			<path fill="#5D4037" d="M14.383,5.082c-0.035-0.109-0.075-0.222-0.117-0.336s-0.085-0.229-0.126-0.343h-1.29
				c-0.041,0.114-0.084,0.229-0.126,0.343c-0.041,0.115-0.079,0.227-0.116,0.336h-0.772c0.124-0.339,0.243-0.651,0.354-0.938
				c0.11-0.286,0.22-0.556,0.326-0.81c0.106-0.253,0.213-0.494,0.315-0.722c0.104-0.228,0.212-0.451,0.323-0.668h0.704
				c0.109,0.217,0.216,0.44,0.321,0.668s0.212,0.468,0.318,0.722c0.106,0.254,0.216,0.524,0.328,0.81
				c0.112,0.287,0.229,0.599,0.354,0.938H14.383z M13.492,2.655c-0.019,0.045-0.041,0.107-0.074,0.186
				C13.387,2.92,13.35,3.01,13.309,3.113c-0.041,0.103-0.086,0.216-0.137,0.339c-0.049,0.124-0.102,0.253-0.153,0.389h0.943
				c-0.049-0.136-0.099-0.266-0.146-0.39s-0.091-0.237-0.135-0.34c-0.043-0.104-0.079-0.193-0.112-0.272
				C13.537,2.761,13.511,2.7,13.492,2.655z"/>
			<path fill="#5D4037" d="M16.57,1.908c0.495,0,0.875,0.084,1.14,0.251c0.264,0.167,0.395,0.428,0.395,0.781
				c0,0.22-0.052,0.399-0.158,0.537c-0.106,0.137-0.26,0.245-0.46,0.323c0.066,0.079,0.136,0.168,0.208,0.27
				c0.074,0.101,0.146,0.206,0.219,0.318c0.071,0.109,0.14,0.224,0.207,0.343c0.066,0.119,0.128,0.237,0.186,0.352h-0.831
				c-0.062-0.104-0.122-0.208-0.185-0.313c-0.062-0.105-0.126-0.208-0.191-0.308c-0.065-0.1-0.129-0.194-0.194-0.283
				c-0.063-0.089-0.126-0.169-0.19-0.242h-0.367v1.146h-0.742V1.989c0.162-0.03,0.329-0.051,0.501-0.063
				C16.279,1.914,16.434,1.908,16.57,1.908z M16.614,2.51c-0.055,0-0.104,0.001-0.145,0.005c-0.044,0.003-0.085,0.005-0.123,0.009
				v0.851h0.21c0.279,0,0.479-0.033,0.601-0.1c0.12-0.066,0.182-0.18,0.182-0.34c0-0.154-0.063-0.263-0.185-0.328
				C17.033,2.542,16.853,2.51,16.614,2.51z"/>
		</g>
	</g>
</g>
</svg>
