<?xml version="1.0" encoding="utf-8"?>
<!-- Generator: Adobe Illustrator 16.0.0, SVG Export Plug-In . SVG Version: 6.00 Build 0)  -->
<!DOCTYPE svg PUBLIC "-//W3C//DTD SVG 1.1//EN" "http://www.w3.org/Graphics/SVG/1.1/DTD/svg11.dtd">
<svg version="1.1" id="图层_1" xmlns="http://www.w3.org/2000/svg" xmlns:xlink="http://www.w3.org/1999/xlink" x="0px" y="0px"
	 width="24px" height="24px" viewBox="0 0 24 24" enable-background="new 0 0 24 24" xml:space="preserve">
<polygon fill="#3E2723" points="3.634,23 3.634,1 20.366,1 20.366,16.807 14.111,23 "/>
<g>
	<g>
		
			<linearGradient id="SVGID_1_" gradientUnits="userSpaceOnUse" x1="53.5996" y1="-141.4004" x2="53.5996" y2="-162.4009" gradientTransform="matrix(1 0 0 -1 -41.6001 -139.9004)">
			<stop  offset="0" style="stop-color:#785548"/>
			<stop  offset="1" style="stop-color:#9F9E9F"/>
		</linearGradient>
		<polygon fill="url(#SVGID_1_)" points="4.133,22.5 4.133,1.5 19.867,1.5 19.867,16.586 14.019,22.5 		"/>
		<polygon fill="#795548" fill-opacity="0.7" points="19.867,16.594 19.867,16.34 13.638,16.34 13.638,22.5 13.961,22.5 		"/>
		<path opacity="0.39" fill="#FFFFFF" enable-background="new    " d="M13.952,16.594l5.915,0.008L13.961,22.5L13.952,16.594z"/>
	</g>
	<path fill="#FFFFFF" d="M9.755,5.548H9.223v6.819H8.819V5.548H8.291v6.819H7.889V5.548h-0.53v6.819H6.955V5.548h-0.53v6.819H6.286
		v2.889h3.65v-2.889H9.755V5.548z M9.405,14.417h-2.59v-1.675h2.59V14.417z"/>
	<g>
		<rect x="4.13" y="1.5" opacity="0.8" fill="#FFFFFF" enable-background="new    " width="15.74" height="4.025"/>
		<g enable-background="new    ">
			<path fill="#5D4037" d="M8.235,1.908c0.495,0,0.875,0.084,1.139,0.251S9.77,2.587,9.77,2.94c0,0.22-0.054,0.399-0.16,0.537
				C9.504,3.614,9.35,3.722,9.149,3.8c0.067,0.079,0.137,0.168,0.21,0.27c0.073,0.101,0.146,0.206,0.217,0.318
				C9.647,4.497,9.717,4.612,9.784,4.73C9.85,4.85,9.913,4.967,9.97,5.082H9.139C9.077,4.978,9.018,4.874,8.954,4.769
				C8.893,4.664,8.828,4.561,8.763,4.461c-0.065-0.1-0.13-0.194-0.194-0.283C8.506,4.089,8.441,4.009,8.379,3.937H8.011v1.146H7.269
				V1.989c0.161-0.03,0.329-0.051,0.502-0.063C7.944,1.914,8.099,1.908,8.235,1.908z M8.277,2.51c-0.053,0-0.103,0.001-0.145,0.005
				C8.09,2.518,8.049,2.521,8.011,2.524v0.851h0.211c0.278,0,0.479-0.033,0.6-0.1s0.181-0.18,0.181-0.34
				c0-0.154-0.062-0.263-0.183-0.328C8.696,2.542,8.517,2.51,8.277,2.51z"/>
			<path fill="#5D4037" d="M12.809,5.082c-0.037-0.109-0.075-0.222-0.119-0.336c-0.041-0.115-0.085-0.229-0.126-0.343h-1.29
				c-0.041,0.114-0.082,0.229-0.125,0.343c-0.042,0.115-0.08,0.227-0.116,0.336H10.26c0.125-0.339,0.242-0.651,0.354-0.938
				c0.11-0.286,0.22-0.556,0.326-0.81c0.107-0.253,0.212-0.494,0.316-0.722c0.104-0.228,0.21-0.451,0.322-0.668h0.704
				c0.108,0.217,0.215,0.44,0.321,0.668c0.104,0.228,0.211,0.468,0.317,0.722c0.106,0.254,0.216,0.524,0.328,0.81
				c0.112,0.287,0.229,0.599,0.355,0.938H12.809z M11.916,2.655c-0.017,0.045-0.041,0.107-0.074,0.186
				c-0.03,0.079-0.068,0.169-0.108,0.271c-0.041,0.103-0.086,0.216-0.137,0.339c-0.05,0.124-0.103,0.253-0.154,0.389h0.945
				c-0.051-0.136-0.101-0.266-0.146-0.39c-0.048-0.124-0.093-0.237-0.136-0.34c-0.042-0.104-0.08-0.193-0.112-0.272
				C11.962,2.761,11.935,2.7,11.916,2.655z"/>
			<path fill="#5D4037" d="M14.994,1.908c0.496,0,0.877,0.084,1.141,0.251c0.263,0.167,0.395,0.428,0.395,0.781
				c0,0.22-0.053,0.399-0.159,0.537c-0.107,0.137-0.26,0.245-0.46,0.323c0.065,0.079,0.137,0.168,0.209,0.27
				c0.073,0.101,0.146,0.206,0.218,0.318c0.071,0.109,0.14,0.224,0.208,0.343c0.065,0.119,0.128,0.237,0.186,0.352h-0.831
				c-0.062-0.104-0.123-0.208-0.185-0.313c-0.062-0.105-0.127-0.208-0.191-0.308c-0.065-0.1-0.13-0.194-0.194-0.283
				s-0.127-0.169-0.189-0.242h-0.368v1.146h-0.742V1.989c0.161-0.03,0.328-0.051,0.502-0.063
				C14.704,1.914,14.859,1.908,14.994,1.908z M15.038,2.51c-0.055,0-0.103,0.001-0.145,0.005c-0.044,0.003-0.084,0.005-0.122,0.009
				v0.851h0.209c0.279,0,0.48-0.033,0.602-0.1c0.12-0.066,0.181-0.18,0.181-0.34c0-0.154-0.062-0.263-0.184-0.328
				C15.456,2.542,15.276,2.51,15.038,2.51z"/>
		</g>
	</g>
</g>
</svg>
