<?xml version="1.0" encoding="utf-8"?>
<!-- Generator: Adobe Illustrator 16.0.0, SVG Export Plug-In . SVG Version: 6.00 Build 0)  -->
<!DOCTYPE svg PUBLIC "-//W3C//DTD SVG 1.1//EN" "http://www.w3.org/Graphics/SVG/1.1/DTD/svg11.dtd">
<svg version="1.1" id="图层_1" xmlns="http://www.w3.org/2000/svg" xmlns:xlink="http://www.w3.org/1999/xlink" x="0px" y="0px"
	 width="24px" height="24px" viewBox="0 0 24 24" enable-background="new 0 0 24 24" xml:space="preserve">
<rect x="3.634" y="1" fill="#0D47A1" width="16.732" height="22"/>
<g>
	
		<linearGradient id="SVGID_1_" gradientUnits="userSpaceOnUse" x1="95.2002" y1="847.3008" x2="95.2002" y2="826.3008" gradientTransform="matrix(1 0 0 1 -83.2002 -824.8008)">
		<stop  offset="0" style="stop-color:#1976D2"/>
		<stop  offset="0.0226" style="stop-color:#1C79D3"/>
		<stop  offset="0.2859" style="stop-color:#3B93E2"/>
		<stop  offset="0.5416" style="stop-color:#52A6ED"/>
		<stop  offset="0.7843" style="stop-color:#5FB1F4"/>
		<stop  offset="1" style="stop-color:#64B5F6"/>
	</linearGradient>
	<rect x="4.133" y="1.5" fill="url(#SVGID_1_)" width="15.734" height="21"/>
	<g>
		<path fill="#64B5F6" d="M16.9,12.7c0,2.704-2.196,4.899-4.9,4.899S7.1,15.404,7.1,12.7c0-2.705,2.196-4.9,4.9-4.9
			S16.9,9.996,16.9,12.7z"/>
		<path fill="#FFFFFF" fill-opacity="0.8" d="M8.786,9.008c0,0,0.101,0.054,0.141,0.14c0.03,0.085,0.139,0.085,0.139,0.085h0.157
			l0.229-0.07L9.397,9.288c0,0-1.2,0.557-0.958,0.885c0.244,0.331,0.157,0.416,0.157,0.52c0,0.101,0.072,0.015,0.072,0.015
			l0.07-0.188l0.101-0.141l0.104-0.157l0.03-0.087l0.142-0.241l0.172-0.102l0.156,0.102c0,0,0.071,0.031,0.055,0.085
			c-0.015,0.055-0.031,0.156-0.031,0.156s0.031,0.072,0.086,0.072c0.056,0,0.143-0.056,0.143-0.056l0.07,0.126l0.055,0.229
			l0.14,0.141l0.072,0.156L9.96,10.944l0.072,0.055l0.157,0.172l0.03,0.085l-0.26-0.014c0,0-0.03-0.073-0.085-0.073
			s-0.274-0.015-0.274-0.015l-0.127,0.031l-0.068,0.086c0,0-0.088,0.14-0.143,0.14c-0.053,0-0.186-0.03-0.186-0.03
			s-0.104-0.031-0.159,0.071s0.084,0.156,0.084,0.156l-0.24,0.071L8.69,11.713c0,0-0.173,0.07-0.173,0.126c0,0.055,0,0.055,0,0.055
			l-0.052,0.141v0.085l-0.126,0.103l-0.125,0.084L8.158,12.41v0.172c0,0-0.017,0.086-0.017,0.141c0,0.057,0,0.189,0,0.189
			s-0.055,0.055-0.086-0.057c-0.031-0.101-0.031-0.101-0.031-0.101l-0.056-0.126c0,0,0.056-0.017-0.015-0.071
			c-0.069-0.054-0.141-0.069-0.141-0.069s-0.03-0.03-0.102-0.03c-0.07,0,0.086,0.015-0.07,0C7.483,12.44,7.483,12.44,7.483,12.44
			l-0.125,0.103v0.086c0,0-0.03,0.612,0.141,0.697H7.57l0.101-0.156l0.087,0.03v0.071l-0.017,0.127v0.07l0.085,0.087l0.055,0.156
			c0.072,0.126,0.032,0.157,0.085,0.188c0.056,0.031,0.104,0.127,0.104,0.127l0.07,0.03c0,0,0.055,0.016,0.102,0.029
			c0.056,0.017,0.056,0.017,0.056,0.017l0.017,0.079l0.017,0.063l0.069,0.085c0,0-0.054,0,0.072,0s0.125,0,0.125,0
			s0,0.032,0.087,0.072c0.084,0.03,0.016,0.017,0.084,0.03c0.071,0.016,0.189,0.031,0.189,0.031
			c0.125-0.017,0.125-0.017,0.125-0.017l0.086,0.127c0,0,0.055,0,0.071,0.054c0.016,0.055-0.085,0,0.016,0.055
			c0.101,0.056,0,0.018,0.101,0.056C9.46,14.776,9.326,14.77,9.46,14.77c0.133,0,0.155,0,0.21,0.016
			c0.057,0.017,0.088,0.142,0.088,0.142c0.102,0.125,0.102,0.125,0.102,0.125l0.016,0.157c0,0-0.055,0.031,0.071,0.031
			s0.03,0,0.126,0c0.093,0-0.017-0.031,0.086,0c0.102,0.03,0.102,0.03,0.102,0.03s0.157,0.127,0.212,0.127s0.157-0.018,0.213,0
			c0.055,0.015,0.085,0.1,0.187,0.124c0.103,0.019,0.142,0,0.212,0.057c0.072,0.055,0.072,0.055,0.072,0.055l0.015,0.186
			l-0.056,0.103l-0.141,0.055l-0.017,0.174l-0.072,0.174v0.085c0,0,0.087,0.072-0.068,0.087c-0.156,0.016-0.156,0.016-0.156,0.016
			l-0.071,0.069c0,0,0,0.018-0.032,0.071c-0.03,0.055-0.07,0.142-0.07,0.142l0.017,0.157v0.102l-0.055,0.085
			c0,0-0.048,0.024,0.085,0.11c0.141,0.086,0.25,0.086,0.283,0.14c0.029,0.056,0.117,0.103,0.117,0.103l-0.188-0.038l-0.118-0.04
			l-0.196-0.053l-0.375-0.197c0,0-0.566-0.462-0.738-0.838c0,0-0.147-0.221-0.399-0.313c0,0-0.62-0.565-0.675-0.707L8.22,15.209
			v-0.047l-0.024-0.024v-0.054l-0.015-0.039l0.009-0.174l0.008-0.117l0.007-0.063l-0.007-0.046c0,0-0.032-0.03-0.032-0.039
			c0-0.008-0.024-0.079-0.024-0.079l-0.007-0.023l0.094-0.079l-0.025-0.071l0.017-0.038l0.055-0.039c0,0,0.032-0.047,0.032-0.055
			c0-0.016-0.056-0.055-0.056-0.055l-0.022,0.008l-0.025,0.071H8.174c0,0-0.032-0.017-0.032-0.024c0-0.009-0.03-0.039-0.03-0.039
			l-0.04-0.016c0,0-0.032-0.009-0.04-0.023c-0.008-0.016-0.047-0.04-0.047-0.048c0-0.009-0.03-0.055-0.03-0.055l-0.04-0.014
			c0,0-0.048-0.071-0.048-0.088c0-0.007-0.023-0.046-0.023-0.046s-0.055-0.063-0.055-0.071c0-0.009-0.024-0.063-0.024-0.063H7.727
			L7.64,13.726l-0.056-0.068l-0.062-0.071c0,0-0.032-0.055-0.032-0.071s-0.023-0.03-0.023-0.03H7.428H7.406L7.35,13.438l-0.14-0.196
			l-0.025-0.087L7.162,13.06l-0.016-0.157v-0.102l-0.063-0.729C7.107,12.079,7.319,10.276,8.786,9.008z"/>
		<path fill="#FFFFFF" fill-opacity="0.8" d="M14.32,8.394l0.155,0.127l0.081,0.039l0.055,0.063l0.008,0.063
			c0,0,0.017,0.063,0.01,0.079c-0.01,0.017-0.018,0.102-0.018,0.102s0.071,0.127,0.071,0.142s0.007,0.085-0.009,0.102
			c-0.015,0.007-0.103,0.062-0.109,0.038c-0.008-0.024-0.063-0.079-0.077-0.079c-0.019-0.009-0.064-0.055-0.064-0.055l0.126-0.017
			l-0.016-0.079c0,0-0.086-0.03-0.11-0.03c-0.024-0.008-0.111-0.055-0.111-0.055l-0.093-0.023c0,0-0.155-0.039-0.174-0.047
			c-0.015-0.007-0.077-0.03-0.077-0.03h-0.133c0,0-0.064,0.03-0.078,0.047c-0.008,0.016-0.088,0.102-0.088,0.102
			s-0.007,0.101-0.007,0.118S13.64,9.054,13.64,9.1c0,0.048-0.01,0.111-0.01,0.127s0,0.039,0,0.039l-0.016,0.069L13.56,9.368
			l-0.07,0.055c0,0-0.062,0.046-0.062,0.063c0,0.016,0,0.079,0.022,0.125c0.023,0.047,0.016,0.092,0.047,0.116
			s0.047,0.056,0.071,0.064c0.024,0.007,0.007,0.014,0.046,0.014c0.032,0,0.063,0.01,0.078-0.007
			c0.018-0.007,0.057-0.007,0.072-0.031c0.017-0.024-0.016-0.008,0.017-0.024c0.029-0.007,0.029-0.03,0.055-0.007
			c0.03,0.023,0.054,0.055,0.063,0.069c0.007,0.017,0.029,0.056,0.056,0.08c0.027,0.014,0.051,0.077,0.051,0.077l0.049,0.046
			c0,0,0.009,0.008,0.038,0.008c0.03,0,0.08-0.008,0.08-0.008l0.016-0.03c0,0,0.03,0.008,0.039-0.008
			c0.008-0.017,0.008-0.039,0.008-0.039s-0.017-0.048-0.031-0.063c-0.01-0.017-0.026-0.056-0.026-0.056l0.01-0.055l0.028-0.032
			l0.012-0.039V9.642l-0.033-0.016L14.14,9.594c0,0-0.03,0.008-0.03-0.031C14.1,9.532,14.1,9.532,14.1,9.532L14.03,9.517
			l-0.048-0.025l0.056-0.039c0.032-0.054,0.039-0.071,0.039-0.085c0-0.015-0.007-0.063-0.007-0.063s-0.032-0.009-0.032-0.048
			C14.03,9.218,14.03,9.194,14.03,9.194l0.008-0.03c0,0,0.007-0.025,0.032-0.025c0.015,0,0.046,0.025,0.063,0.025
			c0.015,0,0.045,0.007,0.045,0.007s0.017,0.006,0.017,0.032c0,0.015-0.007,0.054-0.007,0.054l0.028-0.046v0.055l-0.007,0.063v0.063
			l0.032,0.063l0.029,0.048c0,0,0.04,0.039,0.057,0.056c0.018,0.006,0.056,0.037,0.056,0.037l0.047,0.024l0.031,0.008l0.03-0.032
			c0,0,0.056,0.008,0.056-0.008c0.009-0.017,0.009-0.017,0.009-0.017s0.063-0.007,0.077-0.007c0.019,0,0.05,0,0.05,0
			s0.023,0.046,0.007,0.046s-0.024,0.016-0.063,0.031c-0.039,0.008-0.056,0-0.063,0.016c-0.008,0.017-0.03,0.056-0.03,0.056
			l0.03,0.008h0.023l0.031,0.031c0,0,0.008,0.008,0,0.03c-0.008,0.024,0.03,0.017-0.008,0.024c-0.047,0.009-0.07-0.007-0.07-0.007
			s-0.007-0.039-0.031-0.023c-0.018,0.017-0.024,0.055-0.024,0.055v0.054l0.03,0.079c0,0,0.016,0.017,0,0.026
			c-0.014,0.007-0.068,0.07-0.068,0.07s-0.009,0.022-0.032,0.022c-0.016,0-0.038,0-0.079,0.008c-0.03,0.008-0.03,0.008-0.062,0.016
			c-0.032,0.008-0.055,0.014-0.104,0.023c-0.047,0.007-0.132,0.007-0.164,0.007c-0.029,0-0.038,0-0.054-0.007
			c-0.017-0.01-0.008,0-0.03-0.032c-0.022-0.031-0.048-0.055-0.048-0.079c0-0.017,0-0.023-0.011-0.055
			c-0.007-0.03-0.007-0.055-0.028-0.055c-0.031,0-0.031,0-0.031,0s-0.062,0.048-0.055,0.063c0.008,0.016-0.007,0,0.046,0.038
			c0.055,0.04,0.071,0.096,0.071,0.096l-0.01,0.055l-0.1,0.055l-0.071,0.022l-0.008,0.049c0,0,0,0.016-0.016,0.038
			s-0.056,0.055-0.056,0.055s-0.031,0.008-0.038,0.032c-0.009,0.016-0.033,0.078-0.033,0.078s-0.03-0.008-0.062,0.017
			c-0.031,0.024,0.009,0.024-0.063,0.055c-0.071,0.03-0.071,0.03-0.071,0.03l-0.078-0.005l-0.046,0.015c0,0-0.063,0.007-0.071,0.023
			c-0.009,0.016-0.04,0.063-0.04,0.063s-0.015,0.032,0,0.032c0.017,0.007,0.04,0,0.078,0.007c0.033,0.009,0.04,0.009,0.065,0.024
			c0.023,0.008,0.047,0.032,0.047,0.032l0.085,0.078l0.048,0.101l-0.01,0.08l-0.093,0.031c0,0-0.054,0-0.078,0
			c-0.018,0-0.01,0-0.103,0c-0.095,0-0.109,0-0.126,0S12.94,11.06,12.94,11.06l-0.056,0.009l-0.038,0.032l-0.023,0.008
			c0,0,0.031,0.07,0.031,0.093c0,0.024,0,0.055,0,0.055l-0.008,0.049l-0.023,0.055l-0.033,0.055l0.011,0.03
			c0,0-0.011,0.025,0.007,0.025c0.017,0,0.062-0.008,0.062,0.008c0,0.015-0.038,0.08-0.038,0.08l0.079,0.015
			c0,0-0.007-0.007,0.039,0.008c0.046,0.006,0.077,0.022,0.077,0.022l0.054,0.039l0.018,0.031l0.017-0.031
			c0,0,0.085-0.007,0.102-0.015c0.016-0.008,0.056-0.008,0.056-0.008h0.068c0,0,0.017,0.008,0.031-0.008
			c0.009-0.014,0.009-0.014,0.009-0.014s0.079-0.033,0.094-0.049c0.016-0.007,0.023-0.055,0.023-0.055s0.024-0.015,0.024-0.03
			s-0.017-0.055-0.017-0.055v-0.033l0.023-0.03c0,0,0.007-0.008,0.031-0.031c0.025-0.023,0.025-0.023,0.025-0.023
			s-0.01-0.008,0.021-0.024c0.033-0.008,0.056-0.032,0.071-0.032c0.015,0-0.016,0.018,0.015,0c0.031-0.016,0.04-0.03,0.04-0.055
			c0-0.015,0.01-0.103,0.01-0.103l0.028-0.046l0.079,0.008l0.038,0.008c0,0,0.048,0.008,0.057-0.008
			c0.008-0.017,0.031-0.03,0.031-0.03l0.063-0.033c0,0-0.008-0.007,0.025-0.007c0.029,0,0.077,0,0.1,0c0.018,0,0.056,0,0.056,0
			s0.031,0.015,0.047,0.029c0.008,0.016,0.031,0.056,0.031,0.056l0.023,0.033h0.025c0.03,0.023,0.046,0.04,0.101,0.053
			c0.055,0.017,0.094,0.031,0.094,0.031s0.016,0.032,0.03,0.047c0.017,0.016,0.031,0.031,0.055,0.048
			c0.017,0.008,0.031,0.024,0.04,0.038c0.007,0.017,0.032,0.048,0.032,0.048l0.029,0.031l0.018-0.031v-0.055l-0.009-0.03
			c0,0-0.029-0.023,0.009-0.023c0.031,0,0.056,0,0.056,0l-0.031-0.049l-0.04-0.015l-0.055-0.04l-0.022-0.024l-0.025-0.006
			l-0.022-0.016l-0.033-0.023c0,0-0.055-0.009-0.055-0.031c-0.007-0.017-0.007-0.017-0.007-0.017l-0.056-0.008
			c0,0-0.055-0.03-0.055-0.045c0-0.018-0.007-0.064-0.007-0.064l-0.047-0.007c0,0,0.007-0.031,0.007-0.055
			c0-0.016,0.018-0.04,0.018-0.04l0.1-0.007l0.022,0.053l0.039,0.025l0.057,0.023l0.023,0.032l0.022,0.022
			c0,0,0.01,0.008,0.04,0.018c0.031,0.007,0.055,0.015,0.055,0.015s0.031,0.03,0.055,0.03c0.024,0.008,0.033,0.017,0.058,0.025
			c-0.018,0.016-0.018,0.016-0.018,0.016s0.008,0.017,0.031,0.032s0.046,0.046,0.046,0.063c0,0.015,0.017,0.069,0.032,0.078
			s0.022,0.008,0.053,0.04c0.031,0.03,0.031,0.062,0.057,0.078c0.031,0.008,0.055,0,0.055,0.03c0.008,0.033,0.008,0.056,0.008,0.056
			s0.024,0.01,0.04,0.01c0.015,0,0.046-0.031,0.046-0.031s0.031-0.048,0.009-0.058c-0.016-0.007-0.054-0.007-0.054-0.023
			c0-0.016,0-0.101,0-0.101l0.023-0.056l0.03-0.045l0.048,0.014l0.046-0.03l0.048,0.055l-0.015,0.063c0,0,0.007,0.039,0.028,0.07
			c0.018,0.031,0.055,0.072,0.055,0.072l0.081,0.071l0.109,0.03l0.024-0.008l0.164-0.032c0,0,0.024,0,0.038,0
			c0.017,0,0.095,0.133,0.095,0.133s0,0.056,0,0.086c0,0.032,0,0.111,0,0.111s-0.055,0.055-0.078,0.055
			c-0.024,0-0.086,0.03-0.086,0.03l-0.133,0.031l-0.086-0.007l-0.156-0.009c0,0-0.157-0.007-0.174-0.007c-0.016,0-0.07,0-0.086,0
			c-0.015,0-0.039,0.016-0.056,0.063c-0.016,0.047-0.047,0.062-0.047,0.062s0,0.023-0.031,0.023c-0.03,0-0.03,0.011-0.054-0.007
			c-0.025-0.017-0.134-0.04-0.134-0.04l-0.103-0.068l-0.056-0.046l-0.055-0.008H14.43l-0.103-0.008l0.018-0.166l0.014,0.048
			l-0.031-0.109l-0.047-0.033l-0.11-0.023l-0.07,0.007l-0.094,0.025l-0.093,0.031l-0.057,0.017l-0.264,0.045l-0.096,0.041
			c0,0-0.04,0.023-0.055,0.03c-0.015,0.008-0.078,0.008-0.078,0.008s-0.048-0.008-0.071-0.015c-0.021-0.007-0.077-0.007-0.103-0.007
			c-0.022,0-0.07-0.008-0.086,0c-0.015,0.007-0.031,0.007-0.046,0.03c-0.017,0.025-0.071,0.088-0.071,0.088s-0.03,0.03-0.047,0.046
			c-0.008,0.014-0.046,0.062-0.046,0.062l-0.064,0.103l-0.04,0.046l0.011,0.056v0.04c0,0-0.024,0.022-0.039,0.03
			c-0.018,0.008-0.05,0.024-0.05,0.024s-0.022,0.007-0.046,0.03c-0.022,0.016-0.022,0.024-0.04,0.038
			c-0.017,0.017-0.071,0.055-0.071,0.055s-0.029,0.024-0.055,0.048c-0.014,0.023-0.046,0.053-0.055,0.071
			c-0.007,0.016-0.029,0.031-0.046,0.038c-0.014,0.01-0.047,0.072-0.055,0.089C12.336,12.629,12.29,12.7,12.29,12.7l-0.033,0.132
			l-0.005,0.063c0,0,0.005,0.024,0.022,0.041c0.016,0.014,0.032,0.078,0.032,0.078v0.056c0,0-0.017,0.046-0.025,0.063
			c-0.007,0.014,0.009,0.093,0.009,0.093v0.047c0,0,0,0.017-0.024,0.038c-0.025,0.024-0.032,0.056-0.032,0.056l0.032,0.072
			l0.024,0.047v0.03l0.03,0.055c0,0,0.016,0.017,0.029,0.031c0.02,0.009,0.025,0.009,0.058,0.032
			c0.031,0.016,0.031,0.016,0.031,0.016s0.048,0.055,0.048,0.078c0,0.017,0.03,0.048,0.03,0.048l0.055,0.055
			c0,0,0.009,0.03,0.038,0.055c0.032,0.024,0.063,0.038,0.08,0.055c0.016,0.009,0.063,0.047,0.101,0.055
			c0.033,0.009,0.048,0.017,0.064,0.017c0.015,0-0.024-0.049,0.086,0.007c0.109,0.056,0.181,0.079,0.181,0.079l0.079,0.031
			c0,0,0.127,0.009,0.14-0.008c0.017-0.008,0.04-0.008,0.054-0.008c0.016,0,0.057,0,0.089,0c0.028,0,0.139-0.017,0.139-0.017
			l0.125-0.047c0,0,0.039-0.023,0.058-0.031c0.015-0.007,0.06-0.038,0.077-0.045c0.019-0.011,0.095-0.011,0.095-0.011
			s0-0.023,0.03,0c0.032,0.024,0.032,0.032,0.039,0.049c0.01,0.017,0.01,0.055,0.032,0.055c0.022,0.008,0.079,0.024,0.079,0.024
			s0.079-0.01,0.101,0c0.023,0.007,0.08,0.007,0.08,0.007l0.022,0.031l0.01,0.07v0.064c0,0-0.01,0.024,0,0.046
			c0.007,0.024,0.03,0.063,0.03,0.063s-0.03,0.046-0.048,0.053c-0.017,0.009-0.055,0.057-0.055,0.057l0.109,0.101l0.063,0.063
			l0.047,0.056c0,0,0.01,0.023,0.01,0.038c0,0.016-0.01,0.055,0,0.078c0.008,0.018,0.008,0.079,0.008,0.079s0.007,0.047,0.007,0.063
			c0,0.018-0.015,0.093-0.015,0.093l-0.01,0.056l-0.031,0.095l-0.038,0.046l-0.055,0.055l-0.04,0.063l-0.007,0.085l-0.033,0.055
			c0,0,0.009,0.049,0.009,0.072s0.049,0.107,0.049,0.107l-0.011,0.071c0,0-0.028,0.104-0.028,0.127c0,0.025-0.025,0.055-0.025,0.08
			c0,0.015-0.008,0.086-0.008,0.086l0.008,0.085l0.03,0.086l-0.03,0.078c0,0-0.016,0.063-0.016,0.103
			c0,0.029,0.056,0.069,0.069,0.069c0.018,0,0.088-0.008,0.117-0.03c0.033-0.017,0.111-0.039,0.128-0.049
			c0.015-0.007,0.029,0.01,0.079-0.03c0.045-0.03,0.117-0.088,0.117-0.088s0.054-0.038,0.078-0.053
			c0.015-0.017,0.093-0.103,0.093-0.103s0.055-0.055,0.095-0.079c0.038-0.023,0-0.007,0.038-0.029
			c0.04-0.024,0.164-0.127,0.164-0.127l0.127-0.126c0,0,0.109-0.141,0.126-0.164c0.017-0.025,0.117-0.155,0.134-0.167
			c0.014-0.007,0.156-0.1,0.188-0.124c0.03-0.024,0.071-0.188,0.085-0.213c0.015-0.016,0.103-0.211,0.103-0.211l0.079-0.227
			l0.133-0.34l0.133-0.236c0,0,0.053-0.101,0.077-0.131c0.017-0.031,0.143-0.275,0.143-0.275l0.048-0.202l0.015-0.172h-0.077
			l-0.088,0.078l-0.079-0.023l-0.077,0.01l0.087-0.111l-0.025-0.086l-0.069-0.055l-0.095-0.141v-0.141l-0.101-0.164l-0.063-0.26
			c0,0-0.117-0.125-0.101-0.156c0.007-0.033,0.038-0.127,0.038-0.127l0.063,0.031c0,0,0.047,0.126,0.07,0.133
			c0.025,0.007,0.056,0.069,0.065,0.086c0.007,0.017,0.015,0.071,0.028,0.086c0.01,0.015,0.063,0.117,0.063,0.117
			s0.039,0.104,0.048,0.127c0.007,0.016,0.046,0.077,0.055,0.124c0.01,0.049,0.031,0.196,0.031,0.213s0.038,0.181,0.038,0.181
			s0.055-0.017,0.062-0.03c0.01-0.017,0.01-0.024,0.026-0.038c0.008-0.017,0.101-0.088,0.101-0.088l0.04-0.125
			c0,0,0.024-0.055,0.03-0.08c0.01-0.023,0.056-0.109,0.056-0.125s-0.008-0.078,0-0.102c0.007-0.017,0.03-0.109,0.03-0.126
			c0-0.016,0.008-0.079,0.008-0.079l-0.008-0.141l0.063-0.078l0.032-0.087C16.892,12.089,16.665,9.626,14.32,8.394z"/>
	</g>
	<g>
		<rect x="4.129" y="1.5" opacity="0.8" fill="#FFFFFF" enable-background="new    " width="15.742" height="4.025"/>
		<g enable-background="new    ">
			<path fill="#1976D2" d="M10.559,3.487c0,0.269-0.042,0.505-0.125,0.709c-0.085,0.204-0.2,0.375-0.347,0.511
				C9.941,4.844,9.768,4.948,9.565,5.017c-0.201,0.071-0.419,0.105-0.65,0.105c-0.226,0-0.439-0.034-0.638-0.105
				C8.076,4.948,7.902,4.844,7.752,4.708C7.603,4.571,7.485,4.4,7.401,4.196c-0.086-0.204-0.13-0.44-0.13-0.709
				s0.045-0.504,0.134-0.708c0.089-0.204,0.209-0.375,0.36-0.514C7.916,2.126,8.09,2.022,8.29,1.953
				c0.198-0.07,0.406-0.104,0.626-0.104c0.226,0,0.438,0.035,0.638,0.104c0.2,0.069,0.375,0.173,0.524,0.312
				c0.148,0.139,0.267,0.31,0.353,0.514C10.517,2.983,10.559,3.219,10.559,3.487z M8.039,3.487c0,0.154,0.02,0.293,0.059,0.416
				c0.04,0.125,0.097,0.23,0.172,0.319c0.074,0.09,0.165,0.158,0.273,0.206c0.108,0.049,0.232,0.074,0.372,0.074
				c0.137,0,0.26-0.025,0.369-0.074c0.109-0.048,0.201-0.116,0.276-0.206c0.075-0.089,0.132-0.195,0.171-0.319
				c0.04-0.123,0.061-0.262,0.061-0.416S9.771,3.194,9.731,3.069C9.692,2.944,9.636,2.836,9.561,2.748
				C9.486,2.659,9.394,2.59,9.285,2.541C9.175,2.493,9.052,2.469,8.916,2.469c-0.139,0-0.264,0.025-0.372,0.075
				c-0.108,0.05-0.2,0.119-0.273,0.208c-0.075,0.09-0.133,0.196-0.172,0.321C8.059,3.199,8.039,3.337,8.039,3.487z"/>
			<path fill="#1976D2" d="M13.519,1.921v0.603h-0.996v2.534h-0.744V2.523h-0.995V1.921H13.519z"/>
			<path fill="#1976D2" d="M15.985,1.921h0.744v3.137h-0.744V3.727h-1.247v1.331h-0.743V1.921h0.743v1.2h1.247V1.921z"/>
		</g>
	</g>
</g>
</svg>
