<?xml version="1.0" encoding="iso-8859-1"?>
<!-- Generator: Adobe Illustrator 17.1.0, SVG Export Plug-In . SVG Version: 6.00 Build 0)  -->
<!DOCTYPE svg PUBLIC "-//W3C//DTD SVG 1.1//EN" "http://www.w3.org/Graphics/SVG/1.1/DTD/svg11.dtd">
<svg version="1.1"
	 id="svg2" inkscape:export-filename="/media/Data/Main/Visuals/Icons/Numix/Desktop/repos/numix-wiki/Gjorgi/Numix-folders/48/New/folder-144.png" xmlns:svg="http://www.w3.org/2000/svg" xmlns:sodipodi="http://sodipodi.sourceforge.net/DTD/sodipodi-0.dtd" xmlns:inkscape="http://www.inkscape.org/namespaces/inkscape" xmlns:dc="http://purl.org/dc/elements/1.1/" xmlns:cc="http://creativecommons.org/ns#" xmlns:rdf="http://www.w3.org/1999/02/22-rdf-syntax-ns#" inkscape:version="0.48.4 r9939" sodipodi:docname="user-home.svg" inkscape:export-xdpi="270" inkscape:export-ydpi="270"
	 xmlns="http://www.w3.org/2000/svg" xmlns:xlink="http://www.w3.org/1999/xlink" x="0px" y="0px" width="64px" height="64px"
	 viewBox="0 0 64 64" style="enable-background:new 0 0 64 64;" xml:space="preserve">
<polygon style="opacity:0.08;enable-background:new    ;" points="2,60.2 2,17.2 5.8,17.2 5.8,5.8 21.667,5.8 25.442,9.6 60.2,9.6 
	60.2,17.2 64,17.2 64,60.2 "/>
<polygon style="opacity:0.1;enable-background:new    ;" points="3,59.2 3,18.2 6.8,18.2 6.8,6.8 21.25,6.8 25.027,10.6 59.2,10.6 
	59.2,18.2 63,18.2 63,59.2 "/>
<polygon style="opacity:0.2;enable-background:new    ;" points="2,58.2 2,17.2 5.8,17.2 5.8,5.8 20.25,5.8 24.027,9.6 58.2,9.6 
	58.2,17.2 62,17.2 62,58.2 "/>
<polygon style="fill:#F57F17;" points="3,57.2 3,18.2 6.8,18.2 6.8,6.8 19.834,6.8 23.611,10.6 57.2,10.6 57.2,18.2 61,18.2 
	61,57.2 "/>
<sodipodi:namedview  id="base" inkscape:window-maximized="1" borderopacity="1.0" pagecolor="#ffffff" showguides="true" inkscape:cy="21.321632" inkscape:cx="35.66124" showgrid="true" bordercolor="#666666" inkscape:zoom="5.6530318" inkscape:document-units="px" inkscape:window-width="1920" inkscape:window-x="0" inkscape:window-y="28" inkscape:guide-bbox="true" inkscape:current-layer="layer1" inkscape:window-height="1023" inkscape:pageopacity="0.0" inkscape:pageshadow="2">
	<inkscape:grid  type="xygrid" enabled="true" visible="true" id="grid2985" snapvisiblegridlinesonly="true" empspacing="5">
		</inkscape:grid>
</sodipodi:namedview>
<g>
	
		<linearGradient id="SVGID_1_" gradientUnits="userSpaceOnUse" x1="32" y1="-81.5523" x2="32" y2="-67.3" gradientTransform="matrix(1 0 0 -1 0 -60)">
		<stop  offset="0" style="stop-color:#F57C00"/>
		<stop  offset="0.1638" style="stop-color:#F58F09"/>
		<stop  offset="0.3598" style="stop-color:#F59D11"/>
		<stop  offset="0.5982" style="stop-color:#F5A515"/>
		<stop  offset="0.9946" style="stop-color:#F5A816"/>
	</linearGradient>
	<path style="fill:url(#SVGID_1_);" d="M56.7,11.1H23.403l-3.776-3.8H7.3v3.8v3.8v4.75c0,1.045,0.903,1.9,1.9,1.9h45.6
		c0.998,0,1.9,0.095,1.9-0.95C56.7,18.723,56.7,11.1,56.7,11.1z"/>
	
		<linearGradient id="rect2990_1_" gradientUnits="userSpaceOnUse" x1="32" y1="-78.7" x2="32" y2="-116.7" gradientTransform="matrix(1 0 0 -1 0 -60)">
		<stop  offset="0" style="stop-color:#FADD60"/>
		<stop  offset="0.9946" style="stop-color:#F5A816"/>
	</linearGradient>
	<polyline id="rect2990_2_" style="fill:url(#rect2990_1_);" points="60.5,18.7 60.5,56.7 3.5,56.7 3.5,18.7 	"/>
	<path id="rect3004_1_" inkscape:connector-curvature="0" style="opacity:0.25;fill:#FDEFBA;enable-background:new    ;" d="
		M3.5,18.7v7.292c0-2.518,1.686-4.56,3.8-4.56h49.4c2.114,0,3.8,2.042,3.8,4.56V18.7H3.5z"/>
	<path id="path3801_1_" inkscape:connector-curvature="0" style="opacity:0.1;fill:#E65100;enable-background:new    ;" d="M7.3,7.3
		c0,0,0,0.95,0,2.85v1.9c0-1.9,0.855-2.85,1.734-2.85h9.856c0.665,0,1.544,0.024,3.087,0.926c0.427,0.261,0.903,0.57,1.425,0.974
		l-3.776-3.8C19.626,7.3,7.3,7.3,7.3,7.3z"/>
	<polygon style="opacity:0.1;fill:#E65100;enable-background:new    ;" points="23.403,11.1 56.7,11.1 56.7,13.95 26.253,13.95 	"/>
	<rect x="7.3" y="17.014" style="opacity:0.05;fill:#E65100;enable-background:new    ;" width="49.4" height="1.686"/>
</g>
<g style="opacity:0.39;">
	<path style="fill:#F57F17;" d="M35.681,38.65c3.396,0,6.127-2.755,6.127-6.127c0-3.396-2.755-6.128-6.127-6.128
		c-3.396,0-6.128,2.755-6.128,6.128C29.553,35.895,32.309,38.65,35.681,38.65z M31.62,32.499c0-2.256,1.829-4.085,4.085-4.085
		s4.085,1.829,4.085,4.085c0,2.257-1.829,4.085-4.085,4.085S31.62,34.755,31.62,32.499z"/>
	<path style="fill:#F57F17;" d="M39.885,38.008l-0.119-0.071l-0.119,0.095c-1.164,0.831-2.517,1.283-3.966,1.283
		c-1.425,0-2.803-0.451-3.966-1.283l-0.118-0.095l-0.119,0.071c-3.8,1.876-6.247,6.128-6.247,10.783c0,0.166,0,0.333,0,0.499v0.237
		h1.829V49.29c0-0.167,0-0.309,0-0.475c0-3.633,1.71-6.959,4.465-8.716c1.259,0.689,2.708,1.069,4.157,1.069
		s2.874-0.356,4.132-1.069c2.755,1.758,4.465,5.083,4.465,8.716c0,0.166,0,0.309,0,0.475v0.237h1.829V49.29c0-0.167,0-0.333,0-0.499
		C46.131,44.136,43.685,39.885,39.885,38.008z"/>
	<path style="fill:#F57F17;" d="M27.772,39.481l0.072-0.071c0.451-0.499,0.974-0.95,1.497-1.33l0.95-0.689l-1.14,0.261
		c-0.451,0.095-0.927,0.167-1.378,0.167c-1.282,0-2.517-0.38-3.563-1.117l-0.119-0.071l-0.118,0.071
		c-3.42,1.663-5.628,5.415-5.628,9.572c0,0.143,0,0.285,0,0.428v0.237h1.71v-0.237c0-0.143,0-0.285,0-0.428
		c0-3.206,1.52-6.128,3.99-7.672c1.093,0.594,2.351,0.926,3.61,0.926L27.772,39.481z"/>
	<path style="fill:#F57F17;" d="M27.559,37.32c0.072,0,0.142,0,0.214,0c0.878,0,1.733-0.19,2.517-0.594l0.309-0.143l-0.237-0.238
		c-0.333-0.333-0.642-0.689-0.878-1.092l-0.095-0.166l-0.19,0.072c-0.499,0.214-1.021,0.309-1.567,0.285
		c-1.995-0.072-3.587-1.758-3.491-3.705c0.072-1.971,1.757-3.491,3.776-3.42c0.594,0.024,1.163,0.19,1.686,0.475l0.166,0.095
		l0.119-0.166c0.285-0.356,0.642-0.689,0.997-0.974l0.261-0.19l-0.285-0.19c-0.855-0.57-1.876-0.902-2.897-0.95
		c-3.087-0.118-5.628,2.232-5.747,5.225c-0.048,1.449,0.475,2.85,1.472,3.919C24.709,36.632,26.087,37.249,27.559,37.32z"/>
</g>
</svg>
