<?xml version="1.0" encoding="utf-8"?>
<!-- Generator: Adobe Illustrator 16.0.0, SVG Export Plug-In . SVG Version: 6.00 Build 0)  -->
<!DOCTYPE svg PUBLIC "-//W3C//DTD SVG 1.1//EN" "http://www.w3.org/Graphics/SVG/1.1/DTD/svg11.dtd">
<svg version="1.1" id="图层_1" xmlns="http://www.w3.org/2000/svg" xmlns:xlink="http://www.w3.org/1999/xlink" x="0px" y="0px"
	 width="16px" height="16px" viewBox="0 0 16 16" enable-background="new 0 0 16 16" xml:space="preserve">
<polygon fill="#3E2723" points="1.881,16 1.881,0 14.119,0 14.119,11.496 9.544,16 "/>
<g>
	<g>
		
			<linearGradient id="SVGID_1_" gradientUnits="userSpaceOnUse" x1="49.5996" y1="-148.4004" x2="49.5996" y2="-163.4009" gradientTransform="matrix(1 0 0 -1 -41.6001 -147.9004)">
			<stop  offset="0" style="stop-color:#785548"/>
			<stop  offset="1" style="stop-color:#9F9E9F"/>
		</linearGradient>
		<polygon fill="url(#SVGID_1_)" points="2.38,15.5 2.38,0.5 13.619,0.5 13.619,11.275 9.441,15.5 		"/>
		<polygon fill="#795548" fill-opacity="0.7" points="13.619,11.281 13.619,11.1 9.17,11.1 9.17,15.5 9.4,15.5 		"/>
		<path opacity="0.39" fill="#FFFFFF" enable-background="new    " d="M9.395,11.281l4.225,0.006L9.4,15.5L9.395,11.281z"/>
	</g>
	<path fill="#FFFFFF" d="M6.396,3.392h-0.38v4.871H5.728V3.392H5.35v4.871H5.063V3.392H4.684v4.871H4.396V3.392H4.018v4.871H3.918
		v2.063h2.607V8.263h-0.13V3.392z M6.146,9.727h-1.85V8.53h1.85V9.727z"/>
	<g>
		<rect x="2.378" y="0.5" opacity="0.8" fill="#FFFFFF" enable-background="new    " width="11.243" height="2.875"/>
		<g enable-background="new    ">
			<path fill="#5D4037" d="M6.649,3.058C6.624,2.98,6.596,2.9,6.565,2.818s-0.061-0.164-0.09-0.245H5.554
				c-0.029,0.082-0.06,0.164-0.089,0.246c-0.03,0.082-0.058,0.162-0.084,0.239H4.83c0.088-0.241,0.173-0.464,0.252-0.669
				C5.162,2.184,5.24,1.991,5.316,1.81s0.151-0.353,0.225-0.516c0.074-0.163,0.151-0.322,0.23-0.477h0.504
				c0.077,0.155,0.153,0.314,0.229,0.477S6.655,1.629,6.731,1.81s0.154,0.374,0.234,0.579c0.08,0.205,0.164,0.428,0.253,0.669H6.649
				z M6.013,1.325C6,1.357,5.983,1.402,5.96,1.458C5.938,1.514,5.911,1.579,5.883,1.652C5.854,1.726,5.82,1.806,5.785,1.895
				c-0.036,0.088-0.073,0.181-0.11,0.278H6.35c-0.036-0.097-0.071-0.19-0.105-0.279C6.211,1.805,6.179,1.724,6.148,1.651
				c-0.031-0.074-0.058-0.138-0.08-0.194C6.045,1.401,6.026,1.357,6.013,1.325z"/>
			<path fill="#5D4037" d="M8.212,0.792c0.354,0,0.625,0.06,0.813,0.18s0.282,0.306,0.282,0.558c0,0.157-0.037,0.285-0.113,0.383
				S9.009,2.087,8.866,2.143c0.047,0.056,0.097,0.12,0.148,0.192c0.053,0.072,0.104,0.147,0.156,0.227
				c0.051,0.079,0.1,0.16,0.147,0.246c0.048,0.085,0.092,0.168,0.133,0.25H8.857C8.813,2.985,8.771,2.911,8.726,2.835
				c-0.044-0.075-0.09-0.148-0.137-0.22S8.497,2.477,8.45,2.413C8.405,2.35,8.36,2.292,8.314,2.24H8.052v0.818h-0.53V0.85
				C7.638,0.828,7.757,0.813,7.88,0.805C8.004,0.796,8.114,0.792,8.212,0.792z M8.243,1.222c-0.039,0-0.074,0.001-0.104,0.003
				C8.108,1.227,8.079,1.229,8.052,1.231v0.608h0.15c0.199,0,0.342-0.024,0.429-0.071c0.086-0.047,0.13-0.128,0.13-0.243
				c0-0.11-0.045-0.188-0.132-0.234S8.413,1.222,8.243,1.222z"/>
			<path fill="#5D4037" d="M11.169,2.305c0,0.11-0.013,0.213-0.039,0.311c-0.025,0.097-0.07,0.182-0.136,0.254
				c-0.064,0.072-0.151,0.129-0.262,0.171s-0.249,0.063-0.417,0.063c-0.154,0-0.287-0.018-0.398-0.054
				C9.806,3.015,9.714,2.973,9.642,2.926l0.177-0.392c0.065,0.037,0.136,0.069,0.211,0.097s0.157,0.042,0.245,0.042
				c0.129,0,0.223-0.03,0.279-0.09c0.057-0.061,0.085-0.162,0.085-0.304V0.817h0.53V2.305z"/>
		</g>
	</g>
</g>
</svg>
