<?xml version="1.0" encoding="utf-8"?>
<!-- Generator: Adobe Illustrator 16.0.0, SVG Export Plug-In . SVG Version: 6.00 Build 0)  -->
<!DOCTYPE svg PUBLIC "-//W3C//DTD SVG 1.1//EN" "http://www.w3.org/Graphics/SVG/1.1/DTD/svg11.dtd">
<svg version="1.1" id="图层_1" xmlns="http://www.w3.org/2000/svg" xmlns:xlink="http://www.w3.org/1999/xlink" x="0px" y="0px"
	 width="16px" height="16px" viewBox="0 0 16 16" enable-background="new 0 0 16 16" xml:space="preserve">
<polygon fill="#0D47A1" points="1.881,16 1.881,0 14.119,0 14.119,11.496 9.544,16 "/>
<g>
	<g>
		<g>
			<g>
				
					<linearGradient id="SVGID_1_" gradientUnits="userSpaceOnUse" x1="49.6006" y1="-163.3999" x2="49.6006" y2="-148.4004" gradientTransform="matrix(1 0 0 -1 -41.6001 -147.9004)">
					<stop  offset="0" style="stop-color:#3F51B5"/>
					<stop  offset="1" style="stop-color:#64B5F6"/>
				</linearGradient>
				<polygon fill="url(#SVGID_1_)" points="2.381,15.5 2.381,0.5 13.619,0.5 13.619,11.281 9.4,15.5 				"/>
			</g>
			<polygon fill="#2196F3" fill-opacity="0.7" points="13.619,11.281 13.619,11.1 9.169,11.1 9.169,15.5 9.4,15.5 			"/>
			<path opacity="0.39" fill="#FFFFFF" enable-background="new    " d="M9.395,11.281l4.227,0.006L9.4,15.5L9.395,11.281z"/>
		</g>
	</g>
</g>
<g opacity="0.8">
	<rect x="3.831" y="5.076" opacity="0.8" fill="#FFFFFF" enable-background="new    " width="8.332" height="0.412"/>
	<rect x="3.831" y="3.788" opacity="0.8" fill="#FFFFFF" enable-background="new    " width="8.332" height="0.413"/>
	<rect x="7.807" y="6.288" opacity="0.8" fill="#FFFFFF" enable-background="new    " width="4.351" height="4.351"/>
	<g opacity="0.8">
		<rect x="3.831" y="6.362" fill="#FFFFFF" width="3.619" height="0.413"/>
		<rect x="3.831" y="7.65" fill="#FFFFFF" width="3.619" height="0.412"/>
		<rect x="3.831" y="8.943" fill="#FFFFFF" width="3.619" height="0.412"/>
		<rect x="3.831" y="10.23" fill="#FFFFFF" width="3.619" height="0.412"/>
	</g>
</g>
</svg>
