<?xml version="1.0" encoding="utf-8"?>
<!-- Generator: Adobe Illustrator 16.0.0, SVG Export Plug-In . SVG Version: 6.00 Build 0)  -->
<!DOCTYPE svg PUBLIC "-//W3C//DTD SVG 1.1//EN" "http://www.w3.org/Graphics/SVG/1.1/DTD/svg11.dtd">
<svg version="1.1" id="图层_1" xmlns="http://www.w3.org/2000/svg" xmlns:xlink="http://www.w3.org/1999/xlink" x="0px" y="0px"
	 width="16px" height="16px" viewBox="0 0 16 16" enable-background="new 0 0 16 16" xml:space="preserve">
<rect fill="#455A64" width="16" height="16"/>
<g>
	
		<linearGradient id="SVGID_1_" gradientUnits="userSpaceOnUse" x1="49.5996" y1="-148.4004" x2="49.5996" y2="-163.4009" gradientTransform="matrix(1 0 0 -1 -41.6001 -147.9004)">
		<stop  offset="0" style="stop-color:#90A4AE"/>
		<stop  offset="0.1378" style="stop-color:#849AA5"/>
		<stop  offset="0.4226" style="stop-color:#708A97"/>
		<stop  offset="0.7096" style="stop-color:#64808E"/>
		<stop  offset="1" style="stop-color:#607D8B"/>
	</linearGradient>
	<rect x="0.5" y="0.5" fill="url(#SVGID_1_)" width="15" height="15"/>
	<g opacity="0.8">
		
			<rect x="6.347" y="3.492" transform="matrix(-0.7071 0.7071 -0.7071 -0.7071 17.4647 3.2932)" fill="#FFFFFF" width="3.406" height="3.543"/>
		
			<rect x="9.202" y="6.346" transform="matrix(-0.7071 -0.7071 0.7071 -0.7071 12.8067 21.4024)" fill="#FFFFFF" width="3.268" height="3.406"/>
		
			<rect x="3.49" y="6.346" transform="matrix(0.7071 0.7071 -0.7071 0.7071 7.2326 -1.3635)" fill="#FFFFFF" width="3.544" height="3.406"/>
		
			<rect x="6.348" y="9.204" transform="matrix(0.7072 -0.707 0.707 0.7072 -5.3054 8.8656)" fill="#FFFFFF" width="3.406" height="3.268"/>
	</g>
</g>
</svg>
