<?xml version="1.0" encoding="utf-8"?>
<!-- Generator: Adobe Illustrator 17.1.0, SVG Export Plug-In . SVG Version: 6.00 Build 0)  -->
<!DOCTYPE svg PUBLIC "-//W3C//DTD SVG 1.1//EN" "http://www.w3.org/Graphics/SVG/1.1/DTD/svg11.dtd" [
	<!ENTITY ns_extend "http://ns.adobe.com/Extensibility/1.0/">
	<!ENTITY ns_ai "http://ns.adobe.com/AdobeIllustrator/10.0/">
	<!ENTITY ns_graphs "http://ns.adobe.com/Graphs/1.0/">
	<!ENTITY ns_vars "http://ns.adobe.com/Variables/1.0/">
	<!ENTITY ns_imrep "http://ns.adobe.com/ImageReplacement/1.0/">
	<!ENTITY ns_sfw "http://ns.adobe.com/SaveForWeb/1.0/">
	<!ENTITY ns_custom "http://ns.adobe.com/GenericCustomNamespace/1.0/">
	<!ENTITY ns_adobe_xpath "http://ns.adobe.com/XPath/1.0/">
]>
<svg version="1.1"
	 id="svg2" xmlns:x="&ns_extend;" xmlns:i="&ns_ai;" xmlns:graph="&ns_graphs;" inkscape:version="0.48.4 r9939" sodipodi:docname="computer.svg" xmlns:dc="http://purl.org/dc/elements/1.1/" xmlns:sodipodi="http://sodipodi.sourceforge.net/DTD/sodipodi-0.dtd" xmlns:rdf="http://www.w3.org/1999/02/22-rdf-syntax-ns#" xmlns:svg="http://www.w3.org/2000/svg" xmlns:cc="http://creativecommons.org/ns#" xmlns:inkscape="http://www.inkscape.org/namespaces/inkscape"
	 xmlns="http://www.w3.org/2000/svg" xmlns:xlink="http://www.w3.org/1999/xlink" x="0px" y="0px" width="16px" height="16px"
	 viewBox="0 0 16 16" style="enable-background:new 0 0 16 16;" xml:space="preserve">
<metadata  id="metadata26">
	<rdf:RDF>
		<cc:Work  rdf:about="">
			<dc:format>image/svg+xml</dc:format>
			<dc:type  rdf:resource="http://purl.org/dc/dcmitype/StillImage"></dc:type>
		</cc:Work>
	</rdf:RDF>
	<sfw  xmlns="&ns_sfw;">
		<slices></slices>
		<sliceSourceBounds  height="16" width="12.2" x="413.9" y="587.6" bottomLeftOrigin="true"></sliceSourceBounds>
	</sfw>
</metadata>
<polygon style="fill:#0D47A1;" points="1.9,16 1.9,0 14.1,0 14.1,11.5 9.5,16 "/>
<g>
	<g>
		<g>
			<g>
				
					<linearGradient id="SVGID_1_" gradientUnits="userSpaceOnUse" x1="8" y1="694.05" x2="8" y2="679.05" gradientTransform="matrix(1 0 0 1 0 -678.55)">
					<stop  offset="0" style="stop-color:#3F51B5"/>
					<stop  offset="1" style="stop-color:#64B5F6"/>
				</linearGradient>
				<polygon style="fill:url(#SVGID_1_);" points="2.4,15.5 2.4,0.5 13.6,0.5 13.6,11.3 9.4,15.5 				"/>
			</g>
			<polygon style="fill:#2196F3;fill-opacity:0.7;" points="13.6,11.3 13.6,11.1 9.2,11.1 9.2,15.5 9.4,15.5 			"/>
			<path style="opacity:0.39;fill:#FFFFFF;enable-background:new    ;" d="M9.4,11.3h4.2l-4.2,4.2V11.3z"/>
		</g>
	</g>
</g>
<path style="opacity:0.8;fill:#FFFFFF;enable-background:new    ;" d="M10.3,2.7c-0.2,0-0.5,0.2-0.6,0.4H7.4c0,0-0.6,0-1.1,0.2
	s-1,0.8-1,1.7s0.5,1.4,1,1.7c0.2,0.1,0.5,0.2,0.6,0.2V7L6,7.9H5.9C5.7,7.9,5.6,8,5.6,8.2c0,0.2,0.1,0.3,0.3,0.3
	c0.2,0,0.3-0.1,0.3-0.3V8.1l0.9-0.9h1.1V6.7h0.3c0,0,0.4,0,0.7,0.2C9.5,7.1,9.8,7.3,9.8,8S9.5,8.9,9.2,9.1C8.9,9.3,8.4,9.3,8.4,9.3
	H6.1C6,9.1,5.8,9,5.5,9C5.1,9,4.8,9.3,4.8,9.6s0.3,0.6,0.7,0.6c0.2,0,0.5-0.2,0.6-0.4h2.3c0,0,0.6,0,1.1-0.2s1-0.8,1-1.7
	s-0.5-1.4-1-1.7C9,6,8.5,6,8.5,6H8.2v0l0.9-0.9h0.1c0.2,0,0.3-0.1,0.3-0.3c0-0.2-0.2-0.3-0.3-0.3C9,4.5,8.9,4.6,8.9,4.8v0.1L8,5.8
	H6.9v0.3C6.8,6.1,6.7,6,6.5,6C6.2,5.8,5.9,5.6,5.9,4.9S6.2,4,6.5,3.8c0.3-0.2,0.8-0.2,0.8-0.2h2.3c0.1,0.2,0.3,0.3,0.6,0.3
	c0.4,0,0.7-0.3,0.7-0.6C11,2.9,10.7,2.7,10.3,2.7z"/>
</svg>
