<?xml version="1.0" encoding="utf-8"?>
<!-- Generator: Adobe Illustrator 16.0.0, SVG Export Plug-In . SVG Version: 6.00 Build 0)  -->
<!DOCTYPE svg PUBLIC "-//W3C//DTD SVG 1.1//EN" "http://www.w3.org/Graphics/SVG/1.1/DTD/svg11.dtd">
<svg version="1.1" id="图层_1" xmlns="http://www.w3.org/2000/svg" xmlns:xlink="http://www.w3.org/1999/xlink" x="0px" y="0px"
	 width="16px" height="16px" viewBox="0 0 16 16" enable-background="new 0 0 16 16" xml:space="preserve">
<polygon fill="#E65100" points="1.881,16 1.881,0 14.119,0 14.119,11.495 9.545,16 "/>
<g>
	<g>
		<g>
			
				<linearGradient id="SVGID_1_" gradientUnits="userSpaceOnUse" x1="49.6006" y1="-163.3999" x2="49.6006" y2="-148.4004" gradientTransform="matrix(1 0 0 -1 -41.6001 -147.9004)">
				<stop  offset="0" style="stop-color:#EE6F0B"/>
				<stop  offset="1" style="stop-color:#FFB74D"/>
			</linearGradient>
			<polygon fill="url(#SVGID_1_)" points="2.381,15.5 2.381,0.5 13.619,0.5 13.619,11.281 9.4,15.5 			"/>
		</g>
		<polygon fill="#E65100" fill-opacity="0.3922" points="13.619,11.281 13.619,11.1 9.169,11.1 9.169,15.5 9.4,15.5 		"/>
		<path fill="#FFFFFF" fill-opacity="0.3922" d="M9.394,11.281l4.226,0.006L9.4,15.5L9.394,11.281z"/>
	</g>
	<g opacity="0.8">
		<rect x="3.844" y="6.274" fill="#FFFFFF" width="1.2" height="6.013"/>
		<rect x="5.844" y="9.274" fill="#FFFFFF" width="1.2" height="3.006"/>
		<rect x="7.838" y="10.499" fill="#FFFFFF" width="1.2" height="1.801"/>
		<g>
			<path fill="#FFFFFF" d="M9.469,5.212l0.013,2.394l2.394-0.013c0.007,1.325-1.063,2.4-2.388,2.406
				c-1.324,0.007-2.399-1.063-2.406-2.387C7.075,6.293,8.144,5.218,9.469,5.212z"/>
			<path fill="#FFFFFF" d="M9.75,4.937c1.325-0.006,2.4,1.063,2.406,2.388L9.763,7.337L9.75,4.937z"/>
		</g>
	</g>
	<g>
		<rect x="2.378" y="0.5" opacity="0.8" fill="#FFFFFF" enable-background="new    " width="11.244" height="2.875"/>
		<g enable-background="new    ">
			<path fill="#E64A19" d="M5.039,0.801C5.08,0.872,5.127,0.96,5.181,1.064s0.109,0.218,0.167,0.34
				C5.405,1.525,5.463,1.65,5.52,1.777c0.058,0.127,0.11,0.246,0.161,0.359c0.05-0.113,0.104-0.232,0.16-0.359
				s0.114-0.252,0.172-0.373c0.059-0.122,0.114-0.235,0.168-0.34C6.233,0.96,6.281,0.872,6.322,0.801h0.482
				c0.022,0.148,0.044,0.315,0.063,0.5c0.02,0.184,0.036,0.376,0.051,0.575s0.028,0.399,0.041,0.6c0.012,0.2,0.023,0.39,0.032,0.565
				H6.475C6.468,2.824,6.459,2.587,6.448,2.33C6.437,2.074,6.419,1.814,6.396,1.555c-0.041,0.09-0.086,0.19-0.137,0.301
				c-0.05,0.109-0.1,0.219-0.148,0.329S6.016,2.4,5.97,2.5C5.925,2.6,5.886,2.686,5.854,2.757h-0.37
				C5.451,2.686,5.412,2.6,5.367,2.5C5.321,2.4,5.274,2.295,5.226,2.185c-0.05-0.11-0.099-0.22-0.148-0.329
				C5.026,1.745,4.981,1.645,4.94,1.555C4.917,1.814,4.9,2.074,4.889,2.33c-0.011,0.257-0.02,0.494-0.026,0.711H4.345
				c0.009-0.176,0.02-0.365,0.032-0.565s0.026-0.4,0.041-0.6s0.031-0.392,0.051-0.575c0.02-0.185,0.04-0.352,0.063-0.5H5.039z"/>
			<path fill="#E64A19" d="M8.615,1.189c-0.247,0-0.426,0.064-0.536,0.195C7.97,1.516,7.915,1.693,7.915,1.92
				c0,0.109,0.013,0.209,0.04,0.299s0.068,0.166,0.122,0.23C8.132,2.515,8.2,2.564,8.282,2.6c0.082,0.036,0.177,0.054,0.285,0.054
				c0.06,0,0.109-0.001,0.152-0.003c0.041-0.002,0.078-0.006,0.11-0.014V1.857h0.53v1.109C9.298,2.99,9.195,3.016,9.055,3.043
				C8.913,3.07,8.74,3.084,8.534,3.084c-0.178,0-0.338-0.026-0.482-0.078C7.908,2.954,7.785,2.879,7.683,2.779
				C7.581,2.681,7.502,2.559,7.446,2.414S7.362,2.105,7.362,1.92c0-0.188,0.031-0.354,0.093-0.498s0.146-0.268,0.251-0.367
				c0.107-0.1,0.232-0.176,0.377-0.229C8.228,0.775,8.38,0.749,8.544,0.749c0.111,0,0.211,0.007,0.301,0.021
				c0.09,0.015,0.167,0.031,0.232,0.049c0.064,0.019,0.117,0.037,0.159,0.057S9.309,0.91,9.327,0.92L9.173,1.324
				c-0.072-0.036-0.155-0.068-0.25-0.095C8.829,1.202,8.727,1.189,8.615,1.189z"/>
			<path fill="#E64A19" d="M10.562,0.775c0.353,0,0.622,0.059,0.811,0.176s0.283,0.311,0.283,0.577c0,0.27-0.096,0.464-0.287,0.583
				c-0.189,0.12-0.463,0.18-0.816,0.18h-0.166v0.75H9.854V0.833c0.115-0.021,0.238-0.036,0.367-0.045S10.464,0.775,10.562,0.775z
				 M10.597,1.205c-0.039,0-0.077,0.001-0.114,0.004c-0.038,0.002-0.069,0.004-0.097,0.006v0.646h0.166
				c0.184,0,0.322-0.023,0.416-0.071c0.092-0.048,0.139-0.136,0.139-0.265c0-0.063-0.012-0.114-0.035-0.155
				s-0.059-0.074-0.103-0.099c-0.044-0.025-0.099-0.042-0.161-0.052C10.743,1.21,10.673,1.205,10.597,1.205z"/>
		</g>
	</g>
</g>
</svg>
