<?xml version="1.0" encoding="utf-8"?>
<!-- Generator: Adobe Illustrator 16.0.0, SVG Export Plug-In . SVG Version: 6.00 Build 0)  -->
<!DOCTYPE svg PUBLIC "-//W3C//DTD SVG 1.1//EN" "http://www.w3.org/Graphics/SVG/1.1/DTD/svg11.dtd">
<svg version="1.1" id="图层_1" xmlns="http://www.w3.org/2000/svg" xmlns:xlink="http://www.w3.org/1999/xlink" x="0px" y="0px"
	 width="16px" height="16px" viewBox="0 0 16 16" enable-background="new 0 0 16 16" xml:space="preserve">
<polygon fill="#0D47A1" points="1.881,16 1.881,0 14.119,0 14.119,11.496 9.544,16 "/>
<g>
	<g>
		<g>
			<g>
				
					<linearGradient id="SVGID_1_" gradientUnits="userSpaceOnUse" x1="49.6006" y1="-163.3999" x2="49.6006" y2="-148.4004" gradientTransform="matrix(1 0 0 -1 -41.6001 -147.9004)">
					<stop  offset="0" style="stop-color:#3F51B5"/>
					<stop  offset="1" style="stop-color:#64B5F6"/>
				</linearGradient>
				<polygon fill="url(#SVGID_1_)" points="2.381,15.5 2.381,0.5 13.619,0.5 13.619,11.281 9.4,15.5 				"/>
			</g>
			<polygon fill="#2196F3" fill-opacity="0.7" points="13.619,11.281 13.619,11.1 9.169,11.1 9.169,15.5 9.4,15.5 			"/>
			<path opacity="0.39" fill="#FFFFFF" enable-background="new    " d="M9.395,11.281l4.227,0.006L9.4,15.5L9.395,11.281z"/>
		</g>
		<g opacity="0.8">
			
				<linearGradient id="SVGID_2_" gradientUnits="userSpaceOnUse" x1="45.6465" y1="-153.5166" x2="53.5469" y2="-153.5166" gradientTransform="matrix(1 0 0 -1 -41.6001 -147.9004)">
				<stop  offset="0" style="stop-color:#F6F5F5"/>
				<stop  offset="0.341" style="stop-color:#F1F2F3"/>
				<stop  offset="0.6434" style="stop-color:#E7EAEB"/>
				<stop  offset="0.9302" style="stop-color:#D5DBDF"/>
				<stop  offset="1" style="stop-color:#CFD7DB"/>
			</linearGradient>
			<rect x="4.047" y="5.421" opacity="0.8" fill="url(#SVGID_2_)" enable-background="new    " width="7.9" height="0.391"/>
			
				<linearGradient id="SVGID_3_" gradientUnits="userSpaceOnUse" x1="45.6465" y1="-152.2964" x2="53.5469" y2="-152.2964" gradientTransform="matrix(1 0 0 -1 -41.6001 -147.9004)">
				<stop  offset="0" style="stop-color:#F6F5F5"/>
				<stop  offset="0.341" style="stop-color:#F1F2F3"/>
				<stop  offset="0.6434" style="stop-color:#E7EAEB"/>
				<stop  offset="0.9302" style="stop-color:#D5DBDF"/>
				<stop  offset="1" style="stop-color:#CFD7DB"/>
			</linearGradient>
			<rect x="4.047" y="4.2" opacity="0.8" fill="url(#SVGID_3_)" enable-background="new    " width="7.9" height="0.392"/>
			
				<linearGradient id="SVGID_4_" gradientUnits="userSpaceOnUse" x1="49.416" y1="-156.5332" x2="53.541" y2="-156.5332" gradientTransform="matrix(1 0 0 -1 -41.6001 -147.9004)">
				<stop  offset="0" style="stop-color:#F6F5F5"/>
				<stop  offset="0.341" style="stop-color:#F1F2F3"/>
				<stop  offset="0.6434" style="stop-color:#E7EAEB"/>
				<stop  offset="0.9302" style="stop-color:#D5DBDF"/>
				<stop  offset="1" style="stop-color:#CFD7DB"/>
			</linearGradient>
			<rect x="7.816" y="6.571" opacity="0.8" fill="url(#SVGID_4_)" enable-background="new    " width="4.125" height="4.125"/>
			<g opacity="0.8">
				
					<linearGradient id="SVGID_5_" gradientUnits="userSpaceOnUse" x1="45.6465" y1="-154.7383" x2="49.0791" y2="-154.7383" gradientTransform="matrix(1 0 0 -1 -41.6001 -147.9004)">
					<stop  offset="0" style="stop-color:#F6F5F5"/>
					<stop  offset="0.341" style="stop-color:#F1F2F3"/>
					<stop  offset="0.6434" style="stop-color:#E7EAEB"/>
					<stop  offset="0.9302" style="stop-color:#D5DBDF"/>
					<stop  offset="1" style="stop-color:#CFD7DB"/>
				</linearGradient>
				<rect x="4.047" y="6.642" fill="url(#SVGID_5_)" width="3.432" height="0.392"/>
				
					<linearGradient id="SVGID_6_" gradientUnits="userSpaceOnUse" x1="45.6465" y1="-155.959" x2="49.0791" y2="-155.959" gradientTransform="matrix(1 0 0 -1 -41.6001 -147.9004)">
					<stop  offset="0" style="stop-color:#F6F5F5"/>
					<stop  offset="0.341" style="stop-color:#F1F2F3"/>
					<stop  offset="0.6434" style="stop-color:#E7EAEB"/>
					<stop  offset="0.9302" style="stop-color:#D5DBDF"/>
					<stop  offset="1" style="stop-color:#CFD7DB"/>
				</linearGradient>
				<rect x="4.047" y="7.864" fill="url(#SVGID_6_)" width="3.432" height="0.39"/>
				
					<linearGradient id="SVGID_7_" gradientUnits="userSpaceOnUse" x1="45.6465" y1="-157.1851" x2="49.0791" y2="-157.1851" gradientTransform="matrix(1 0 0 -1 -41.6001 -147.9004)">
					<stop  offset="0" style="stop-color:#F6F5F5"/>
					<stop  offset="0.341" style="stop-color:#F1F2F3"/>
					<stop  offset="0.6434" style="stop-color:#E7EAEB"/>
					<stop  offset="0.9302" style="stop-color:#D5DBDF"/>
					<stop  offset="1" style="stop-color:#CFD7DB"/>
				</linearGradient>
				<rect x="4.047" y="9.089" fill="url(#SVGID_7_)" width="3.432" height="0.392"/>
				
					<linearGradient id="SVGID_8_" gradientUnits="userSpaceOnUse" x1="45.6465" y1="-158.4063" x2="49.0791" y2="-158.4063" gradientTransform="matrix(1 0 0 -1 -41.6001 -147.9004)">
					<stop  offset="0" style="stop-color:#F6F5F5"/>
					<stop  offset="0.341" style="stop-color:#F1F2F3"/>
					<stop  offset="0.6434" style="stop-color:#E7EAEB"/>
					<stop  offset="0.9302" style="stop-color:#D5DBDF"/>
					<stop  offset="1" style="stop-color:#CFD7DB"/>
				</linearGradient>
				<rect x="4.047" y="10.311" fill="url(#SVGID_8_)" width="3.432" height="0.391"/>
			</g>
		</g>
	</g>
	<g>
		<rect x="2.37" y="0.5" opacity="0.8" fill="#FFFFFF" enable-background="new    " width="11.243" height="2.875"/>
	</g>
	<g enable-background="new    ">
		<path fill="#1976D2" d="M6.149,1.057c0.027,0.088,0.058,0.188,0.09,0.299C6.272,1.467,6.308,1.582,6.345,1.7
			C6.382,1.819,6.42,1.938,6.459,2.056c0.039,0.119,0.076,0.229,0.112,0.33c0.03-0.11,0.06-0.229,0.091-0.359
			s0.06-0.263,0.087-0.401c0.027-0.138,0.054-0.275,0.081-0.413C6.855,1.077,6.88,0.945,6.903,0.817h0.551
			c-0.08,0.375-0.172,0.756-0.275,1.142C7.075,2.345,6.962,2.711,6.841,3.058H6.355C6.276,2.851,6.199,2.634,6.125,2.407
			S5.977,1.951,5.904,1.723C5.831,1.951,5.758,2.179,5.686,2.407C5.613,2.634,5.537,2.851,5.458,3.058H4.972
			C4.852,2.711,4.739,2.345,4.636,1.959S4.44,1.192,4.36,0.817h0.575c0.023,0.127,0.048,0.259,0.075,0.396
			c0.027,0.137,0.056,0.274,0.086,0.413c0.029,0.138,0.06,0.271,0.09,0.401s0.062,0.249,0.094,0.359
			C5.322,2.28,5.362,2.168,5.4,2.049s0.076-0.237,0.113-0.355c0.036-0.119,0.07-0.233,0.101-0.343
			c0.03-0.11,0.058-0.208,0.083-0.294H6.149z"/>
		<path fill="#1976D2" d="M8.499,0.792c0.352,0,0.622,0.059,0.81,0.176c0.188,0.118,0.283,0.31,0.283,0.577
			c0,0.27-0.096,0.464-0.287,0.583c-0.189,0.12-0.463,0.18-0.816,0.18H8.322v0.75H7.791V0.85c0.116-0.021,0.238-0.037,0.367-0.045
			C8.288,0.796,8.401,0.792,8.499,0.792z M8.533,1.222c-0.039,0-0.077,0.001-0.114,0.003c-0.038,0.002-0.07,0.004-0.097,0.006v0.646
			h0.167c0.184,0,0.322-0.023,0.416-0.071c0.092-0.047,0.139-0.136,0.139-0.265c0-0.063-0.012-0.114-0.035-0.155
			S8.949,1.313,8.905,1.288C8.861,1.263,8.807,1.246,8.744,1.236C8.68,1.227,8.609,1.222,8.533,1.222z"/>
		<path fill="#1976D2" d="M10.626,2.673c0.075,0,0.137-0.006,0.186-0.018c0.049-0.012,0.088-0.028,0.117-0.049
			c0.03-0.021,0.05-0.044,0.062-0.073c0.012-0.028,0.018-0.059,0.018-0.094c0-0.073-0.037-0.134-0.109-0.183
			s-0.197-0.101-0.375-0.157c-0.076-0.026-0.154-0.056-0.23-0.089c-0.078-0.033-0.146-0.076-0.208-0.126
			c-0.062-0.051-0.111-0.112-0.149-0.185c-0.039-0.072-0.059-0.16-0.059-0.263c0-0.104,0.021-0.197,0.062-0.28
			s0.099-0.154,0.173-0.212c0.076-0.058,0.166-0.103,0.273-0.134c0.105-0.031,0.227-0.047,0.36-0.047
			c0.159,0,0.296,0.016,0.411,0.049c0.116,0.032,0.211,0.068,0.287,0.106l-0.154,0.398c-0.065-0.033-0.139-0.061-0.219-0.086
			c-0.081-0.025-0.178-0.037-0.291-0.037c-0.127,0-0.219,0.017-0.274,0.05c-0.056,0.033-0.083,0.084-0.083,0.153
			c0,0.041,0.01,0.076,0.03,0.104s0.05,0.053,0.087,0.076c0.037,0.022,0.08,0.043,0.129,0.061c0.049,0.019,0.104,0.038,0.162,0.057
			c0.123,0.043,0.229,0.086,0.32,0.128c0.09,0.042,0.166,0.091,0.227,0.147c0.06,0.056,0.104,0.122,0.134,0.197
			c0.029,0.076,0.044,0.167,0.044,0.275c0,0.209-0.076,0.371-0.23,0.486c-0.154,0.116-0.388,0.173-0.698,0.173
			c-0.104,0-0.198-0.006-0.282-0.018s-0.158-0.026-0.223-0.043C10.056,3.025,10,3.006,9.953,2.987
			C9.907,2.968,9.868,2.949,9.836,2.932l0.15-0.401c0.07,0.037,0.156,0.069,0.26,0.099C10.35,2.659,10.477,2.673,10.626,2.673z"/>
	</g>
</g>
</svg>
